<?xml version='1.0' encoding='UTF-8' ?>
<svg xmlns='http://www.w3.org/2000/svg' xmlns:xlink='http://www.w3.org/1999/xlink' class='svglite' width='785.20pt' height='538.58pt' viewBox='0 0 785.20 538.58'>
<defs>
  <style type='text/css'><![CDATA[
    .svglite line, .svglite polyline, .svglite polygon, .svglite path, .svglite rect, .svglite circle {
      fill: none;
      stroke: #000000;
      stroke-linecap: round;
      stroke-linejoin: round;
      stroke-miterlimit: 10.00;
    }
  ]]></style>
</defs>
<rect width='100%' height='100%' style='stroke: none; fill: none;'/>
<defs>
  <clipPath id='cpMC4wMHw3ODUuMjB8MC4wMHw1MzguNTg='>
    <rect x='0.00' y='0.00' width='785.20' height='538.58' />
  </clipPath>
</defs>
<g clip-path='url(#cpMC4wMHw3ODUuMjB8MC4wMHw1MzguNTg=)'>
</g>
<defs>
  <clipPath id='cpMTY5LjAxfDY4MC42N3wyOS41MXw0OTguNTE='>
    <rect x='169.01' y='29.51' width='511.66' height='469.00' />
  </clipPath>
</defs>
<g clip-path='url(#cpMTY5LjAxfDY4MC42N3wyOS41MXw0OTguNTE=)'>
<polyline points='250.41,498.51 250.41,29.51 ' style='stroke-width: 0.68; stroke: #EBEBEB; stroke-linecap: butt;' />
<polyline points='366.70,498.51 366.70,29.51 ' style='stroke-width: 0.68; stroke: #EBEBEB; stroke-linecap: butt;' />
<polyline points='482.98,498.51 482.98,29.51 ' style='stroke-width: 0.68; stroke: #EBEBEB; stroke-linecap: butt;' />
<polyline points='599.27,498.51 599.27,29.51 ' style='stroke-width: 0.68; stroke: #EBEBEB; stroke-linecap: butt;' />
<polyline points='169.01,459.43 680.67,459.43 ' style='stroke-width: 1.36; stroke: #EBEBEB; stroke-linecap: butt;' />
<polyline points='169.01,394.29 680.67,394.29 ' style='stroke-width: 1.36; stroke: #EBEBEB; stroke-linecap: butt;' />
<polyline points='169.01,329.15 680.67,329.15 ' style='stroke-width: 1.36; stroke: #EBEBEB; stroke-linecap: butt;' />
<polyline points='169.01,264.01 680.67,264.01 ' style='stroke-width: 1.36; stroke: #EBEBEB; stroke-linecap: butt;' />
<polyline points='169.01,198.87 680.67,198.87 ' style='stroke-width: 1.36; stroke: #EBEBEB; stroke-linecap: butt;' />
<polyline points='169.01,133.74 680.67,133.74 ' style='stroke-width: 1.36; stroke: #EBEBEB; stroke-linecap: butt;' />
<polyline points='169.01,68.60 680.67,68.60 ' style='stroke-width: 1.36; stroke: #EBEBEB; stroke-linecap: butt;' />
<polyline points='192.27,498.51 192.27,29.51 ' style='stroke-width: 1.36; stroke: #EBEBEB; stroke-linecap: butt;' />
<polyline points='308.55,498.51 308.55,29.51 ' style='stroke-width: 1.36; stroke: #EBEBEB; stroke-linecap: butt;' />
<polyline points='424.84,498.51 424.84,29.51 ' style='stroke-width: 1.36; stroke: #EBEBEB; stroke-linecap: butt;' />
<polyline points='541.13,498.51 541.13,29.51 ' style='stroke-width: 1.36; stroke: #EBEBEB; stroke-linecap: butt;' />
<polyline points='657.41,498.51 657.41,29.51 ' style='stroke-width: 1.36; stroke: #EBEBEB; stroke-linecap: butt;' />
<circle cx='515.78' cy='72.55' r='5.69' style='stroke-width: 0.71; stroke: #440154; stroke-opacity: 0.50; fill: #440154; fill-opacity: 0.50;' />
<circle cx='517.53' cy='62.09' r='5.69' style='stroke-width: 0.71; stroke: #48196B; stroke-opacity: 0.50; fill: #48196B; fill-opacity: 0.50;' />
<circle cx='563.88' cy='72.40' r='5.69' style='stroke-width: 0.71; stroke: #472E7C; stroke-opacity: 0.50; fill: #472E7C; fill-opacity: 0.50;' />
<circle cx='519.50' cy='72.12' r='5.69' style='stroke-width: 0.71; stroke: #424186; stroke-opacity: 0.50; fill: #424186; fill-opacity: 0.50;' />
<circle cx='562.87' cy='64.81' r='5.69' style='stroke-width: 0.71; stroke: #3A548C; stroke-opacity: 0.50; fill: #3A548C; fill-opacity: 0.50;' />
<circle cx='471.21' cy='129.09' r='5.69' style='stroke-width: 0.71; stroke: #440154; stroke-opacity: 0.50; fill: #440154; fill-opacity: 0.50;' />
<circle cx='471.43' cy='136.65' r='5.69' style='stroke-width: 0.71; stroke: #48196B; stroke-opacity: 0.50; fill: #48196B; fill-opacity: 0.50;' />
<circle cx='516.87' cy='136.05' r='5.69' style='stroke-width: 0.71; stroke: #472E7C; stroke-opacity: 0.50; fill: #472E7C; fill-opacity: 0.50;' />
<circle cx='519.70' cy='127.62' r='5.69' style='stroke-width: 0.71; stroke: #424186; stroke-opacity: 0.50; fill: #424186; fill-opacity: 0.50;' />
<circle cx='565.66' cy='136.49' r='5.69' style='stroke-width: 0.71; stroke: #3A548C; stroke-opacity: 0.50; fill: #3A548C; fill-opacity: 0.50;' />
<circle cx='469.42' cy='198.15' r='5.69' style='stroke-width: 0.71; stroke: #472E7C; stroke-opacity: 0.50; fill: #472E7C; fill-opacity: 0.50;' />
<circle cx='519.69' cy='194.88' r='5.69' style='stroke-width: 0.71; stroke: #424186; stroke-opacity: 0.50; fill: #424186; fill-opacity: 0.50;' />
<circle cx='472.16' cy='200.02' r='5.69' style='stroke-width: 0.71; stroke: #32658E; stroke-opacity: 0.50; fill: #32658E; fill-opacity: 0.50;' />
<circle cx='516.93' cy='199.72' r='5.69' style='stroke-width: 0.71; stroke: #2B748E; stroke-opacity: 0.50; fill: #2B748E; fill-opacity: 0.50;' />
<circle cx='519.31' cy='195.69' r='5.69' style='stroke-width: 0.71; stroke: #25848E; stroke-opacity: 0.50; fill: #25848E; fill-opacity: 0.50;' />
<circle cx='516.80' cy='204.08' r='5.69' style='stroke-width: 0.71; stroke: #20938C; stroke-opacity: 0.50; fill: #20938C; fill-opacity: 0.50;' />
<circle cx='562.36' cy='258.07' r='5.69' style='stroke-width: 0.71; stroke: #472E7C; stroke-opacity: 0.50; fill: #472E7C; fill-opacity: 0.50;' />
<circle cx='613.22' cy='262.05' r='5.69' style='stroke-width: 0.71; stroke: #424186; stroke-opacity: 0.50; fill: #424186; fill-opacity: 0.50;' />
<circle cx='612.97' cy='261.11' r='5.69' style='stroke-width: 0.71; stroke: #32658E; stroke-opacity: 0.50; fill: #32658E; fill-opacity: 0.50;' />
<circle cx='564.94' cy='258.20' r='5.69' style='stroke-width: 0.71; stroke: #25848E; stroke-opacity: 0.50; fill: #25848E; fill-opacity: 0.50;' />
<circle cx='611.96' cy='268.04' r='5.69' style='stroke-width: 0.71; stroke: #20938C; stroke-opacity: 0.50; fill: #20938C; fill-opacity: 0.50;' />
<circle cx='517.51' cy='458.45' r='5.69' style='stroke-width: 0.71; stroke: #20A386; stroke-opacity: 0.50; fill: #20A386; fill-opacity: 0.50;' />
<circle cx='516.91' cy='462.39' r='5.69' style='stroke-width: 0.71; stroke: #2DB27D; stroke-opacity: 0.50; fill: #2DB27D; fill-opacity: 0.50;' />
<circle cx='515.98' cy='454.79' r='5.69' style='stroke-width: 0.71; stroke: #47C06F; stroke-opacity: 0.50; fill: #47C06F; fill-opacity: 0.50;' />
<circle cx='564.26' cy='456.40' r='5.69' style='stroke-width: 0.71; stroke: #68CD5B; stroke-opacity: 0.50; fill: #68CD5B; fill-opacity: 0.50;' />
<circle cx='517.13' cy='462.74' r='5.69' style='stroke-width: 0.71; stroke: #90D743; stroke-opacity: 0.50; fill: #90D743; fill-opacity: 0.50;' />
<circle cx='519.57' cy='455.30' r='5.69' style='stroke-width: 0.71; stroke: #BBDF27; stroke-opacity: 0.50; fill: #BBDF27; fill-opacity: 0.50;' />
<circle cx='518.17' cy='387.86' r='5.69' style='stroke-width: 0.71; stroke: #440154; stroke-opacity: 0.50; fill: #440154; fill-opacity: 0.50;' />
<circle cx='563.06' cy='392.05' r='5.69' style='stroke-width: 0.71; stroke: #472E7C; stroke-opacity: 0.50; fill: #472E7C; fill-opacity: 0.50;' />
<circle cx='564.87' cy='399.80' r='5.69' style='stroke-width: 0.71; stroke: #32658E; stroke-opacity: 0.50; fill: #32658E; fill-opacity: 0.50;' />
<circle cx='565.49' cy='392.67' r='5.69' style='stroke-width: 0.71; stroke: #25848E; stroke-opacity: 0.50; fill: #25848E; fill-opacity: 0.50;' />
<circle cx='563.31' cy='323.14' r='5.69' style='stroke-width: 0.71; stroke: #440154; stroke-opacity: 0.50; fill: #440154; fill-opacity: 0.50;' />
<circle cx='562.95' cy='323.83' r='5.69' style='stroke-width: 0.71; stroke: #472E7C; stroke-opacity: 0.50; fill: #472E7C; fill-opacity: 0.50;' />
<circle cx='565.46' cy='328.89' r='5.69' style='stroke-width: 0.71; stroke: #32658E; stroke-opacity: 0.50; fill: #32658E; fill-opacity: 0.50;' />
<circle cx='562.56' cy='328.64' r='5.69' style='stroke-width: 0.71; stroke: #25848E; stroke-opacity: 0.50; fill: #25848E; fill-opacity: 0.50;' />
<line x1='496.89' y1='82.53' x2='515.45' y2='70.20' style='stroke-width: 1.07; stroke: #424186; stroke-opacity: 0.50;' />
<line x1='539.36' y1='184.73' x2='520.30' y2='197.28' style='stroke-width: 1.07; stroke: #424186; stroke-opacity: 0.50;' />
<line x1='496.36' y1='213.22' x2='515.45' y2='200.48' style='stroke-width: 1.07; stroke: #25848E; stroke-opacity: 0.50;' />
<line x1='535.93' y1='436.00' x2='519.59' y2='457.19' style='stroke-width: 1.07; stroke: #2DB27D; stroke-opacity: 0.50;' />
<line x1='543.17' y1='408.30' x2='561.96' y2='395.89' style='stroke-width: 1.07; stroke: #25848E; stroke-opacity: 0.50;' />
<line x1='543.28' y1='314.99' x2='561.97' y2='327.53' style='stroke-width: 1.07; stroke: #440154; stroke-opacity: 0.50;' />
<text x='526.50' y='65.17' text-anchor='middle' style='font-size: 11.38px; fill: #440154; fill-opacity: 0.50; font-family: Arial;' textLength='6.33px' lengthAdjust='spacingAndGlyphs'>1</text>
<text x='509.68' y='80.46' text-anchor='middle' style='font-size: 11.38px; fill: #48196B; fill-opacity: 0.50; font-family: Arial;' textLength='6.33px' lengthAdjust='spacingAndGlyphs'>2</text>
<text x='556.04' y='80.26' text-anchor='middle' style='font-size: 11.38px; fill: #472E7C; fill-opacity: 0.50; font-family: Arial;' textLength='6.33px' lengthAdjust='spacingAndGlyphs'>3</text>
<text x='496.16' y='92.48' text-anchor='middle' style='font-size: 11.38px; fill: #424186; fill-opacity: 0.50; font-family: Arial;' textLength='6.33px' lengthAdjust='spacingAndGlyphs'>4</text>
<text x='572.64' y='65.16' text-anchor='middle' style='font-size: 11.38px; fill: #3A548C; fill-opacity: 0.50; font-family: Arial;' textLength='6.33px' lengthAdjust='spacingAndGlyphs'>5</text>
<text x='463.00' y='145.56' text-anchor='middle' style='font-size: 11.38px; fill: #440154; fill-opacity: 0.50; font-family: Arial;' textLength='6.33px' lengthAdjust='spacingAndGlyphs'>1</text>
<text x='479.76' y='130.13' text-anchor='middle' style='font-size: 11.38px; fill: #48196B; fill-opacity: 0.50; font-family: Arial;' textLength='6.33px' lengthAdjust='spacingAndGlyphs'>2</text>
<text x='526.26' y='130.17' text-anchor='middle' style='font-size: 11.38px; fill: #472E7C; fill-opacity: 0.50; font-family: Arial;' textLength='6.33px' lengthAdjust='spacingAndGlyphs'>3</text>
<text x='509.72' y='145.06' text-anchor='middle' style='font-size: 11.38px; fill: #424186; fill-opacity: 0.50; font-family: Arial;' textLength='6.33px' lengthAdjust='spacingAndGlyphs'>4</text>
<text x='556.04' y='145.37' text-anchor='middle' style='font-size: 11.38px; fill: #3A548C; fill-opacity: 0.50; font-family: Arial;' textLength='6.33px' lengthAdjust='spacingAndGlyphs'>5</text>
<text x='462.99' y='210.48' text-anchor='middle' style='font-size: 11.38px; fill: #472E7C; fill-opacity: 0.50; font-family: Arial;' textLength='6.33px' lengthAdjust='spacingAndGlyphs'>3</text>
<text x='540.08' y='182.93' text-anchor='middle' style='font-size: 11.38px; fill: #424186; fill-opacity: 0.50; font-family: Arial;' textLength='6.33px' lengthAdjust='spacingAndGlyphs'>4</text>
<text x='480.01' y='195.28' text-anchor='middle' style='font-size: 11.38px; fill: #32658E; fill-opacity: 0.50; font-family: Arial;' textLength='6.33px' lengthAdjust='spacingAndGlyphs'>6</text>
<text x='526.47' y='195.37' text-anchor='middle' style='font-size: 11.38px; fill: #2B748E; fill-opacity: 0.50; font-family: Arial;' textLength='6.33px' lengthAdjust='spacingAndGlyphs'>7</text>
<text x='495.65' y='223.16' text-anchor='middle' style='font-size: 11.38px; fill: #25848E; fill-opacity: 0.50; font-family: Arial;' textLength='6.33px' lengthAdjust='spacingAndGlyphs'>8</text>
<text x='509.36' y='210.53' text-anchor='middle' style='font-size: 11.38px; fill: #20938C; fill-opacity: 0.50; font-family: Arial;' textLength='6.33px' lengthAdjust='spacingAndGlyphs'>9</text>
<text x='572.68' y='260.64' text-anchor='middle' style='font-size: 11.38px; fill: #472E7C; fill-opacity: 0.50; font-family: Arial;' textLength='6.33px' lengthAdjust='spacingAndGlyphs'>3</text>
<text x='619.53' y='260.22' text-anchor='middle' style='font-size: 11.38px; fill: #424186; fill-opacity: 0.50; font-family: Arial;' textLength='6.33px' lengthAdjust='spacingAndGlyphs'>4</text>
<text x='602.91' y='259.78' text-anchor='middle' style='font-size: 11.38px; fill: #32658E; fill-opacity: 0.50; font-family: Arial;' textLength='6.33px' lengthAdjust='spacingAndGlyphs'>6</text>
<text x='555.78' y='275.72' text-anchor='middle' style='font-size: 11.38px; fill: #25848E; fill-opacity: 0.50; font-family: Arial;' textLength='6.33px' lengthAdjust='spacingAndGlyphs'>8</text>
<text x='602.84' y='275.14' text-anchor='middle' style='font-size: 11.38px; fill: #20938C; fill-opacity: 0.50; font-family: Arial;' textLength='6.33px' lengthAdjust='spacingAndGlyphs'>9</text>
<text x='507.99' y='472.56' text-anchor='middle' style='font-size: 11.38px; fill: #20A386; fill-opacity: 0.50; font-family: Arial;' textLength='11.82px' lengthAdjust='spacingAndGlyphs'>11</text>
<text x='544.05' y='439.15' text-anchor='middle' style='font-size: 11.38px; fill: #2DB27D; fill-opacity: 0.50; font-family: Arial;' textLength='12.66px' lengthAdjust='spacingAndGlyphs'>13</text>
<text x='527.36' y='454.59' text-anchor='middle' style='font-size: 11.38px; fill: #47C06F; fill-opacity: 0.50; font-family: Arial;' textLength='12.66px' lengthAdjust='spacingAndGlyphs'>14</text>
<text x='554.62' y='472.47' text-anchor='middle' style='font-size: 11.38px; fill: #68CD5B; fill-opacity: 0.50; font-family: Arial;' textLength='12.66px' lengthAdjust='spacingAndGlyphs'>15</text>
<text x='528.44' y='472.64' text-anchor='middle' style='font-size: 11.38px; fill: #90D743; fill-opacity: 0.50; font-family: Arial;' textLength='12.66px' lengthAdjust='spacingAndGlyphs'>16</text>
<text x='507.06' y='453.96' text-anchor='middle' style='font-size: 11.38px; fill: #BBDF27; fill-opacity: 0.50; font-family: Arial;' textLength='12.66px' lengthAdjust='spacingAndGlyphs'>17</text>
<text x='526.10' y='390.93' text-anchor='middle' style='font-size: 11.38px; fill: #440154; fill-opacity: 0.50; font-family: Arial;' textLength='6.33px' lengthAdjust='spacingAndGlyphs'>1</text>
<text x='572.50' y='390.68' text-anchor='middle' style='font-size: 11.38px; fill: #472E7C; fill-opacity: 0.50; font-family: Arial;' textLength='6.33px' lengthAdjust='spacingAndGlyphs'>3</text>
<text x='556.20' y='405.65' text-anchor='middle' style='font-size: 11.38px; fill: #32658E; fill-opacity: 0.50; font-family: Arial;' textLength='6.33px' lengthAdjust='spacingAndGlyphs'>6</text>
<text x='542.44' y='418.24' text-anchor='middle' style='font-size: 11.38px; fill: #25848E; fill-opacity: 0.50; font-family: Arial;' textLength='6.33px' lengthAdjust='spacingAndGlyphs'>8</text>
<text x='542.56' y='313.19' text-anchor='middle' style='font-size: 11.38px; fill: #440154; fill-opacity: 0.50; font-family: Arial;' textLength='6.33px' lengthAdjust='spacingAndGlyphs'>1</text>
<text x='573.01' y='324.82' text-anchor='middle' style='font-size: 11.38px; fill: #472E7C; fill-opacity: 0.50; font-family: Arial;' textLength='6.33px' lengthAdjust='spacingAndGlyphs'>3</text>
<text x='556.21' y='325.74' text-anchor='middle' style='font-size: 11.38px; fill: #32658E; fill-opacity: 0.50; font-family: Arial;' textLength='6.33px' lengthAdjust='spacingAndGlyphs'>6</text>
<text x='555.69' y='341.27' text-anchor='middle' style='font-size: 11.38px; fill: #25848E; fill-opacity: 0.50; font-family: Arial;' textLength='6.33px' lengthAdjust='spacingAndGlyphs'>8</text>
</g>
<g clip-path='url(#cpMC4wMHw3ODUuMjB8MC4wMHw1MzguNTg=)'>
<text x='162.73' y='463.43' text-anchor='end' style='font-size: 11.20px; fill: #4D4D4D; font-family: Arial;' textLength='88.93px' lengthAdjust='spacingAndGlyphs'>Ideological values</text>
<text x='162.73' y='398.30' text-anchor='end' style='font-size: 11.20px; fill: #4D4D4D; font-family: Arial;' textLength='123.76px' lengthAdjust='spacingAndGlyphs'>Environmental protection</text>
<text x='162.73' y='333.16' text-anchor='end' style='font-size: 11.20px; fill: #4D4D4D; font-family: Arial;' textLength='98.88px' lengthAdjust='spacingAndGlyphs'>International politics</text>
<text x='162.73' y='268.02' text-anchor='end' style='font-size: 11.20px; fill: #4D4D4D; font-family: Arial;' textLength='138.05px' lengthAdjust='spacingAndGlyphs'>Financial costs and benefits</text>
<text x='162.73' y='202.88' text-anchor='end' style='font-size: 11.20px; fill: #4D4D4D; font-family: Arial;' textLength='29.84px' lengthAdjust='spacingAndGlyphs'>Crime</text>
<text x='162.73' y='137.74' text-anchor='end' style='font-size: 11.20px; fill: #4D4D4D; font-family: Arial;' textLength='57.21px' lengthAdjust='spacingAndGlyphs'>User health</text>
<text x='162.73' y='72.60' text-anchor='end' style='font-size: 11.20px; fill: #4D4D4D; font-family: Arial;' textLength='139.31px' lengthAdjust='spacingAndGlyphs'>Use (prevalence &amp; patterns)</text>
<text x='192.27' y='512.80' text-anchor='middle' style='font-size: 11.20px; fill: #4D4D4D; font-family: Arial;' textLength='6.22px' lengthAdjust='spacingAndGlyphs'>0</text>
<text x='308.55' y='512.80' text-anchor='middle' style='font-size: 11.20px; fill: #4D4D4D; font-family: Arial;' textLength='12.44px' lengthAdjust='spacingAndGlyphs'>25</text>
<text x='424.84' y='512.80' text-anchor='middle' style='font-size: 11.20px; fill: #4D4D4D; font-family: Arial;' textLength='12.44px' lengthAdjust='spacingAndGlyphs'>50</text>
<text x='541.13' y='512.80' text-anchor='middle' style='font-size: 11.20px; fill: #4D4D4D; font-family: Arial;' textLength='12.44px' lengthAdjust='spacingAndGlyphs'>75</text>
<text x='657.41' y='512.80' text-anchor='middle' style='font-size: 11.20px; fill: #4D4D4D; font-family: Arial;' textLength='18.66px' lengthAdjust='spacingAndGlyphs'>100</text>
<text x='424.84' y='528.66' text-anchor='middle' style='font-size: 14.00px; font-family: Arial;' textLength='70.80px' lengthAdjust='spacingAndGlyphs'>Confidence</text>
<text transform='translate(17.00,264.01) rotate(-90)' text-anchor='middle' style='font-size: 14.00px; font-family: Arial;' textLength='149.32px' lengthAdjust='spacingAndGlyphs'>Parent criterion (cluster)</text>
<text x='701.59' y='135.94' style='font-size: 14.00px; font-family: Arial;' textLength='41.22px' lengthAdjust='spacingAndGlyphs'>Scorer</text>
<circle cx='710.23' cy='153.02' r='5.69' style='stroke-width: 0.71; stroke: #440154; stroke-opacity: 0.50; fill: #440154; fill-opacity: 0.50;' />
<text x='710.23' y='157.09' text-anchor='middle' style='font-size: 11.38px; fill: #440154; fill-opacity: 0.50; font-family: Arial;' textLength='6.33px' lengthAdjust='spacingAndGlyphs'>a</text>
<circle cx='710.23' cy='170.30' r='5.69' style='stroke-width: 0.71; stroke: #48196B; stroke-opacity: 0.50; fill: #48196B; fill-opacity: 0.50;' />
<text x='710.23' y='174.37' text-anchor='middle' style='font-size: 11.38px; fill: #48196B; fill-opacity: 0.50; font-family: Arial;' textLength='6.33px' lengthAdjust='spacingAndGlyphs'>a</text>
<circle cx='710.23' cy='187.58' r='5.69' style='stroke-width: 0.71; stroke: #472E7C; stroke-opacity: 0.50; fill: #472E7C; fill-opacity: 0.50;' />
<text x='710.23' y='191.65' text-anchor='middle' style='font-size: 11.38px; fill: #472E7C; fill-opacity: 0.50; font-family: Arial;' textLength='6.33px' lengthAdjust='spacingAndGlyphs'>a</text>
<circle cx='710.23' cy='204.86' r='5.69' style='stroke-width: 0.71; stroke: #424186; stroke-opacity: 0.50; fill: #424186; fill-opacity: 0.50;' />
<text x='710.23' y='208.93' text-anchor='middle' style='font-size: 11.38px; fill: #424186; fill-opacity: 0.50; font-family: Arial;' textLength='6.33px' lengthAdjust='spacingAndGlyphs'>a</text>
<circle cx='710.23' cy='222.14' r='5.69' style='stroke-width: 0.71; stroke: #3A548C; stroke-opacity: 0.50; fill: #3A548C; fill-opacity: 0.50;' />
<text x='710.23' y='226.21' text-anchor='middle' style='font-size: 11.38px; fill: #3A548C; fill-opacity: 0.50; font-family: Arial;' textLength='6.33px' lengthAdjust='spacingAndGlyphs'>a</text>
<circle cx='710.23' cy='239.42' r='5.69' style='stroke-width: 0.71; stroke: #32658E; stroke-opacity: 0.50; fill: #32658E; fill-opacity: 0.50;' />
<text x='710.23' y='243.49' text-anchor='middle' style='font-size: 11.38px; fill: #32658E; fill-opacity: 0.50; font-family: Arial;' textLength='6.33px' lengthAdjust='spacingAndGlyphs'>a</text>
<circle cx='710.23' cy='256.70' r='5.69' style='stroke-width: 0.71; stroke: #2B748E; stroke-opacity: 0.50; fill: #2B748E; fill-opacity: 0.50;' />
<text x='710.23' y='260.77' text-anchor='middle' style='font-size: 11.38px; fill: #2B748E; fill-opacity: 0.50; font-family: Arial;' textLength='6.33px' lengthAdjust='spacingAndGlyphs'>a</text>
<circle cx='710.23' cy='273.98' r='5.69' style='stroke-width: 0.71; stroke: #25848E; stroke-opacity: 0.50; fill: #25848E; fill-opacity: 0.50;' />
<text x='710.23' y='278.05' text-anchor='middle' style='font-size: 11.38px; fill: #25848E; fill-opacity: 0.50; font-family: Arial;' textLength='6.33px' lengthAdjust='spacingAndGlyphs'>a</text>
<circle cx='710.23' cy='291.26' r='5.69' style='stroke-width: 0.71; stroke: #20938C; stroke-opacity: 0.50; fill: #20938C; fill-opacity: 0.50;' />
<text x='710.23' y='295.33' text-anchor='middle' style='font-size: 11.38px; fill: #20938C; fill-opacity: 0.50; font-family: Arial;' textLength='6.33px' lengthAdjust='spacingAndGlyphs'>a</text>
<circle cx='710.23' cy='308.54' r='5.69' style='stroke-width: 0.71; stroke: #20A386; stroke-opacity: 0.50; fill: #20A386; fill-opacity: 0.50;' />
<text x='710.23' y='312.61' text-anchor='middle' style='font-size: 11.38px; fill: #20A386; fill-opacity: 0.50; font-family: Arial;' textLength='6.33px' lengthAdjust='spacingAndGlyphs'>a</text>
<circle cx='710.23' cy='325.82' r='5.69' style='stroke-width: 0.71; stroke: #2DB27D; stroke-opacity: 0.50; fill: #2DB27D; fill-opacity: 0.50;' />
<text x='710.23' y='329.89' text-anchor='middle' style='font-size: 11.38px; fill: #2DB27D; fill-opacity: 0.50; font-family: Arial;' textLength='6.33px' lengthAdjust='spacingAndGlyphs'>a</text>
<circle cx='710.23' cy='343.10' r='5.69' style='stroke-width: 0.71; stroke: #47C06F; stroke-opacity: 0.50; fill: #47C06F; fill-opacity: 0.50;' />
<text x='710.23' y='347.17' text-anchor='middle' style='font-size: 11.38px; fill: #47C06F; fill-opacity: 0.50; font-family: Arial;' textLength='6.33px' lengthAdjust='spacingAndGlyphs'>a</text>
<circle cx='710.23' cy='360.38' r='5.69' style='stroke-width: 0.71; stroke: #68CD5B; stroke-opacity: 0.50; fill: #68CD5B; fill-opacity: 0.50;' />
<text x='710.23' y='364.45' text-anchor='middle' style='font-size: 11.38px; fill: #68CD5B; fill-opacity: 0.50; font-family: Arial;' textLength='6.33px' lengthAdjust='spacingAndGlyphs'>a</text>
<circle cx='710.23' cy='377.66' r='5.69' style='stroke-width: 0.71; stroke: #90D743; stroke-opacity: 0.50; fill: #90D743; fill-opacity: 0.50;' />
<text x='710.23' y='381.73' text-anchor='middle' style='font-size: 11.38px; fill: #90D743; fill-opacity: 0.50; font-family: Arial;' textLength='6.33px' lengthAdjust='spacingAndGlyphs'>a</text>
<circle cx='710.23' cy='394.94' r='5.69' style='stroke-width: 0.71; stroke: #BBDF27; stroke-opacity: 0.50; fill: #BBDF27; fill-opacity: 0.50;' />
<text x='710.23' y='399.01' text-anchor='middle' style='font-size: 11.38px; fill: #BBDF27; fill-opacity: 0.50; font-family: Arial;' textLength='6.33px' lengthAdjust='spacingAndGlyphs'>a</text>
<text x='725.85' y='157.03' style='font-size: 11.20px; font-family: Arial;' textLength='39.18px' lengthAdjust='spacingAndGlyphs'>Scorer1</text>
<text x='725.85' y='174.31' style='font-size: 11.20px; font-family: Arial;' textLength='39.18px' lengthAdjust='spacingAndGlyphs'>Scorer2</text>
<text x='725.85' y='191.59' style='font-size: 11.20px; font-family: Arial;' textLength='39.18px' lengthAdjust='spacingAndGlyphs'>Scorer3</text>
<text x='725.85' y='208.87' style='font-size: 11.20px; font-family: Arial;' textLength='39.18px' lengthAdjust='spacingAndGlyphs'>Scorer4</text>
<text x='725.85' y='226.15' style='font-size: 11.20px; font-family: Arial;' textLength='39.18px' lengthAdjust='spacingAndGlyphs'>Scorer5</text>
<text x='725.85' y='243.43' style='font-size: 11.20px; font-family: Arial;' textLength='39.18px' lengthAdjust='spacingAndGlyphs'>Scorer6</text>
<text x='725.85' y='260.71' style='font-size: 11.20px; font-family: Arial;' textLength='39.18px' lengthAdjust='spacingAndGlyphs'>Scorer7</text>
<text x='725.85' y='277.99' style='font-size: 11.20px; font-family: Arial;' textLength='39.18px' lengthAdjust='spacingAndGlyphs'>Scorer8</text>
<text x='725.85' y='295.27' style='font-size: 11.20px; font-family: Arial;' textLength='39.18px' lengthAdjust='spacingAndGlyphs'>Scorer9</text>
<text x='725.85' y='312.55' style='font-size: 11.20px; font-family: Arial;' textLength='44.58px' lengthAdjust='spacingAndGlyphs'>Scorer11</text>
<text x='725.85' y='329.83' style='font-size: 11.20px; font-family: Arial;' textLength='45.40px' lengthAdjust='spacingAndGlyphs'>Scorer13</text>
<text x='725.85' y='347.11' style='font-size: 11.20px; font-family: Arial;' textLength='45.40px' lengthAdjust='spacingAndGlyphs'>Scorer14</text>
<text x='725.85' y='364.39' style='font-size: 11.20px; font-family: Arial;' textLength='45.40px' lengthAdjust='spacingAndGlyphs'>Scorer15</text>
<text x='725.85' y='381.67' style='font-size: 11.20px; font-family: Arial;' textLength='45.40px' lengthAdjust='spacingAndGlyphs'>Scorer16</text>
<text x='725.85' y='398.95' style='font-size: 11.20px; font-family: Arial;' textLength='45.40px' lengthAdjust='spacingAndGlyphs'>Scorer17</text>
<text x='169.01' y='19.01' style='font-size: 16.80px; font-family: Arial;' textLength='431.47px' lengthAdjust='spacingAndGlyphs'>Confidence scores for quality_management_requirements</text>
</g>
</svg>
