<?xml version='1.0' encoding='UTF-8' ?>
<svg xmlns='http://www.w3.org/2000/svg' xmlns:xlink='http://www.w3.org/1999/xlink' class='svglite' width='785.20pt' height='538.58pt' viewBox='0 0 785.20 538.58'>
<defs>
  <style type='text/css'><![CDATA[
    .svglite line, .svglite polyline, .svglite polygon, .svglite path, .svglite rect, .svglite circle {
      fill: none;
      stroke: #000000;
      stroke-linecap: round;
      stroke-linejoin: round;
      stroke-miterlimit: 10.00;
    }
  ]]></style>
</defs>
<rect width='100%' height='100%' style='stroke: none; fill: none;'/>
<defs>
  <clipPath id='cpMC4wMHw3ODUuMjB8MC4wMHw1MzguNTg='>
    <rect x='0.00' y='0.00' width='785.20' height='538.58' />
  </clipPath>
</defs>
<g clip-path='url(#cpMC4wMHw3ODUuMjB8MC4wMHw1MzguNTg=)'>
</g>
<defs>
  <clipPath id='cpMzUuOTN8NTkzLjE3fDYuOTd8NDk4LjUx'>
    <rect x='35.93' y='6.97' width='557.24' height='491.54' />
  </clipPath>
</defs>
<g clip-path='url(#cpMzUuOTN8NTkzLjE3fDYuOTd8NDk4LjUx)'>
<polyline points='35.93,476.17 593.17,476.17 ' style='stroke-width: 0.68; stroke: #EBEBEB; stroke-linecap: butt;' />
<polyline points='35.93,327.22 593.17,327.22 ' style='stroke-width: 0.68; stroke: #EBEBEB; stroke-linecap: butt;' />
<polyline points='35.93,178.27 593.17,178.27 ' style='stroke-width: 0.68; stroke: #EBEBEB; stroke-linecap: butt;' />
<polyline points='35.93,29.32 593.17,29.32 ' style='stroke-width: 0.68; stroke: #EBEBEB; stroke-linecap: butt;' />
<polyline points='35.93,401.69 593.17,401.69 ' style='stroke-width: 1.36; stroke: #EBEBEB; stroke-linecap: butt;' />
<polyline points='35.93,252.74 593.17,252.74 ' style='stroke-width: 1.36; stroke: #EBEBEB; stroke-linecap: butt;' />
<polyline points='35.93,103.79 593.17,103.79 ' style='stroke-width: 1.36; stroke: #EBEBEB; stroke-linecap: butt;' />
<polyline points='65.78,498.51 65.78,6.97 ' style='stroke-width: 1.36; stroke: #EBEBEB; stroke-linecap: butt;' />
<polyline points='115.53,498.51 115.53,6.97 ' style='stroke-width: 1.36; stroke: #EBEBEB; stroke-linecap: butt;' />
<polyline points='165.29,498.51 165.29,6.97 ' style='stroke-width: 1.36; stroke: #EBEBEB; stroke-linecap: butt;' />
<polyline points='215.04,498.51 215.04,6.97 ' style='stroke-width: 1.36; stroke: #EBEBEB; stroke-linecap: butt;' />
<polyline points='264.79,498.51 264.79,6.97 ' style='stroke-width: 1.36; stroke: #EBEBEB; stroke-linecap: butt;' />
<polyline points='314.55,498.51 314.55,6.97 ' style='stroke-width: 1.36; stroke: #EBEBEB; stroke-linecap: butt;' />
<polyline points='364.30,498.51 364.30,6.97 ' style='stroke-width: 1.36; stroke: #EBEBEB; stroke-linecap: butt;' />
<polyline points='414.05,498.51 414.05,6.97 ' style='stroke-width: 1.36; stroke: #EBEBEB; stroke-linecap: butt;' />
<polyline points='463.81,498.51 463.81,6.97 ' style='stroke-width: 1.36; stroke: #EBEBEB; stroke-linecap: butt;' />
<polyline points='513.56,498.51 513.56,6.97 ' style='stroke-width: 1.36; stroke: #EBEBEB; stroke-linecap: butt;' />
<polyline points='563.32,498.51 563.32,6.97 ' style='stroke-width: 1.36; stroke: #EBEBEB; stroke-linecap: butt;' />
<polyline points='65.78,103.79 115.53,103.79 165.29,103.79 215.04,103.79 264.79,103.79 314.55,178.27 364.30,252.74 414.05,252.74 463.81,29.32 513.56,141.03 563.32,252.74 ' style='stroke-width: 2.13; stroke: #440154; stroke-linecap: butt;' />
<polyline points='65.78,29.32 115.53,29.32 165.29,29.32 215.04,29.32 264.79,29.32 314.55,29.32 364.30,29.32 414.05,178.27 463.81,178.27 513.56,141.03 563.32,252.74 ' style='stroke-width: 2.13; stroke: #463480; stroke-linecap: butt;' />
<polyline points='65.78,178.27 115.53,178.27 165.29,178.27 215.04,178.27 264.79,178.27 314.55,103.79 364.30,103.79 414.05,103.79 463.81,103.79 513.56,141.03 563.32,252.74 ' style='stroke-width: 2.13; stroke: #35608D; stroke-linecap: butt;' />
<polyline points='65.78,252.74 115.53,252.74 165.29,252.74 215.04,252.74 264.79,252.74 314.55,252.74 364.30,178.27 414.05,29.32 463.81,252.74 513.56,141.03 563.32,252.74 ' style='stroke-width: 2.13; stroke: #25848E; stroke-linecap: butt;' />
<polyline points='65.78,401.69 115.53,401.69 165.29,401.69 215.04,401.69 264.79,327.22 314.55,401.69 364.30,401.69 414.05,401.69 463.81,327.22 513.56,401.69 563.32,252.74 ' style='stroke-width: 2.13; stroke: #22A884; stroke-linecap: butt;' />
<polyline points='65.78,327.22 115.53,327.22 165.29,327.22 215.04,327.22 264.79,401.69 314.55,327.22 364.30,327.22 414.05,327.22 463.81,401.69 513.56,327.22 563.32,252.74 ' style='stroke-width: 2.13; stroke: #5DC863; stroke-linecap: butt;' />
<polyline points='65.78,476.17 115.53,476.17 165.29,476.17 215.04,476.17 264.79,476.17 314.55,476.17 364.30,476.17 414.05,476.17 463.81,476.17 513.56,476.17 563.32,252.74 ' style='stroke-width: 2.13; stroke: #BBDF27; stroke-linecap: butt;' />
</g>
<g clip-path='url(#cpMC4wMHw3ODUuMjB8MC4wMHw1MzguNTg=)'>
<text x='29.65' y='405.70' text-anchor='end' style='font-size: 11.20px; fill: #4D4D4D; font-family: Arial;' textLength='6.22px' lengthAdjust='spacingAndGlyphs'>2</text>
<text x='29.65' y='256.75' text-anchor='end' style='font-size: 11.20px; fill: #4D4D4D; font-family: Arial;' textLength='6.22px' lengthAdjust='spacingAndGlyphs'>4</text>
<text x='29.65' y='107.80' text-anchor='end' style='font-size: 11.20px; fill: #4D4D4D; font-family: Arial;' textLength='6.22px' lengthAdjust='spacingAndGlyphs'>6</text>
<text x='65.78' y='512.80' text-anchor='middle' style='font-size: 11.20px; fill: #4D4D4D; font-family: Arial;' textLength='6.22px' lengthAdjust='spacingAndGlyphs'>0</text>
<text x='115.53' y='512.80' text-anchor='middle' style='font-size: 11.20px; fill: #4D4D4D; font-family: Arial;' textLength='15.55px' lengthAdjust='spacingAndGlyphs'>0.1</text>
<text x='165.29' y='512.80' text-anchor='middle' style='font-size: 11.20px; fill: #4D4D4D; font-family: Arial;' textLength='15.55px' lengthAdjust='spacingAndGlyphs'>0.2</text>
<text x='215.04' y='512.80' text-anchor='middle' style='font-size: 11.20px; fill: #4D4D4D; font-family: Arial;' textLength='15.55px' lengthAdjust='spacingAndGlyphs'>0.3</text>
<text x='264.79' y='512.80' text-anchor='middle' style='font-size: 11.20px; fill: #4D4D4D; font-family: Arial;' textLength='15.55px' lengthAdjust='spacingAndGlyphs'>0.4</text>
<text x='314.55' y='512.80' text-anchor='middle' style='font-size: 11.20px; fill: #4D4D4D; font-family: Arial;' textLength='15.55px' lengthAdjust='spacingAndGlyphs'>0.5</text>
<text x='364.30' y='512.80' text-anchor='middle' style='font-size: 11.20px; fill: #4D4D4D; font-family: Arial;' textLength='15.55px' lengthAdjust='spacingAndGlyphs'>0.6</text>
<text x='414.05' y='512.80' text-anchor='middle' style='font-size: 11.20px; fill: #4D4D4D; font-family: Arial;' textLength='15.55px' lengthAdjust='spacingAndGlyphs'>0.7</text>
<text x='463.81' y='512.80' text-anchor='middle' style='font-size: 11.20px; fill: #4D4D4D; font-family: Arial;' textLength='15.55px' lengthAdjust='spacingAndGlyphs'>0.8</text>
<text x='513.56' y='512.80' text-anchor='middle' style='font-size: 11.20px; fill: #4D4D4D; font-family: Arial;' textLength='15.55px' lengthAdjust='spacingAndGlyphs'>0.9</text>
<text x='563.32' y='512.80' text-anchor='middle' style='font-size: 11.20px; fill: #4D4D4D; font-family: Arial;' textLength='6.22px' lengthAdjust='spacingAndGlyphs'>1</text>
<text x='314.55' y='528.66' text-anchor='middle' style='font-size: 14.00px; font-family: Arial;' textLength='378.75px' lengthAdjust='spacingAndGlyphs'>'Low confidence' threshold determining estimate replacement</text>
<text transform='translate(17.00,252.74) rotate(-90)' text-anchor='middle' style='font-size: 14.00px; font-family: Arial;' textLength='39.67px' lengthAdjust='spacingAndGlyphs'>Ranks</text>
<text x='614.09' y='193.79' style='font-size: 14.00px; font-family: Arial;' textLength='79.34px' lengthAdjust='spacingAndGlyphs'>Policy model</text>
<line x1='615.82' y1='210.87' x2='629.64' y2='210.87' style='stroke-width: 2.13; stroke: #440154; stroke-linecap: butt;' />
<line x1='615.82' y1='228.15' x2='629.64' y2='228.15' style='stroke-width: 2.13; stroke: #463480; stroke-linecap: butt;' />
<line x1='615.82' y1='245.43' x2='629.64' y2='245.43' style='stroke-width: 2.13; stroke: #35608D; stroke-linecap: butt;' />
<line x1='615.82' y1='262.71' x2='629.64' y2='262.71' style='stroke-width: 2.13; stroke: #25848E; stroke-linecap: butt;' />
<line x1='615.82' y1='279.99' x2='629.64' y2='279.99' style='stroke-width: 2.13; stroke: #22A884; stroke-linecap: butt;' />
<line x1='615.82' y1='297.27' x2='629.64' y2='297.27' style='stroke-width: 2.13; stroke: #5DC863; stroke-linecap: butt;' />
<line x1='615.82' y1='314.55' x2='629.64' y2='314.55' style='stroke-width: 2.13; stroke: #BBDF27; stroke-linecap: butt;' />
<text x='638.34' y='214.88' style='font-size: 11.20px; font-family: Arial;' textLength='118.14px' lengthAdjust='spacingAndGlyphs'>Highest possible scores</text>
<text x='638.34' y='232.16' style='font-size: 11.20px; font-family: Arial;' textLength='70.91px' lengthAdjust='spacingAndGlyphs'>X-Shop model</text>
<text x='638.34' y='249.44' style='font-size: 11.20px; font-family: Arial;' textLength='132.90px' lengthAdjust='spacingAndGlyphs'>Adapted coffeeshop model</text>
<text x='638.34' y='266.72' style='font-size: 11.20px; font-family: Arial;' textLength='90.60px' lengthAdjust='spacingAndGlyphs'>Coffeeshop model</text>
<text x='638.34' y='284.00' style='font-size: 11.20px; font-family: Arial;' textLength='93.90px' lengthAdjust='spacingAndGlyphs'>Free market model</text>
<text x='638.34' y='301.28' style='font-size: 11.20px; font-family: Arial;' textLength='90.17px' lengthAdjust='spacingAndGlyphs'>Repression model</text>
<text x='638.34' y='318.56' style='font-size: 11.20px; font-family: Arial;' textLength='115.66px' lengthAdjust='spacingAndGlyphs'>Lowest possible scores</text>
</g>
</svg>
