<?xml version='1.0' encoding='UTF-8' ?>
<svg xmlns='http://www.w3.org/2000/svg' xmlns:xlink='http://www.w3.org/1999/xlink' class='svglite' width='720.00pt' height='360.00pt' viewBox='0 0 720.00 360.00'>
<defs>
  <style type='text/css'><![CDATA[
    .svglite line, .svglite polyline, .svglite polygon, .svglite path, .svglite rect, .svglite circle {
      fill: none;
      stroke: #000000;
      stroke-linecap: round;
      stroke-linejoin: round;
      stroke-miterlimit: 10.00;
    }
  ]]></style>
</defs>
<rect width='100%' height='100%' style='stroke: none; fill: none;'/>
<defs>
  <clipPath id='cpMC4wMHw3MjAuMDB8MC4wMHwzNjAuMDA='>
    <rect x='0.00' y='0.00' width='720.00' height='360.00' />
  </clipPath>
</defs>
<g clip-path='url(#cpMC4wMHw3MjAuMDB8MC4wMHwzNjAuMDA=)'>
</g>
<defs>
  <clipPath id='cpNjYuMjV8NzIwLjAwfDAuMDB8MjIyLjMy'>
    <rect x='66.25' y='0.00' width='653.75' height='222.32' />
  </clipPath>
</defs>
<g clip-path='url(#cpNjYuMjV8NzIwLjAwfDAuMDB8MjIyLjMy)'>
<polyline points='66.25,177.81 720.00,177.81 ' style='stroke-width: 0.53; stroke: #EBEBEB; stroke-linecap: butt;' />
<polyline points='66.25,116.19 720.00,116.19 ' style='stroke-width: 0.53; stroke: #EBEBEB; stroke-linecap: butt;' />
<polyline points='66.25,54.57 720.00,54.57 ' style='stroke-width: 0.53; stroke: #EBEBEB; stroke-linecap: butt;' />
<polyline points='66.25,208.62 720.00,208.62 ' style='stroke-width: 0.21; stroke: #BEBEBE; stroke-linecap: butt;' />
<polyline points='66.25,147.00 720.00,147.00 ' style='stroke-width: 0.21; stroke: #BEBEBE; stroke-linecap: butt;' />
<polyline points='66.25,85.38 720.00,85.38 ' style='stroke-width: 0.21; stroke: #BEBEBE; stroke-linecap: butt;' />
<polyline points='66.25,23.76 720.00,23.76 ' style='stroke-width: 0.21; stroke: #BEBEBE; stroke-linecap: butt;' />
<rect x='482.94' y='183.58' width='26.50' height='25.04' style='stroke-width: 0.21; stroke-linecap: square; stroke-linejoin: miter; fill: #BEBEBE;' />
<rect x='306.25' y='100.10' width='26.50' height='108.51' style='stroke-width: 0.21; stroke-linecap: square; stroke-linejoin: miter; fill: #BEBEBE;' />
<rect x='276.80' y='98.21' width='26.50' height='110.41' style='stroke-width: 0.21; stroke-linecap: square; stroke-linejoin: miter; fill: #BEBEBE;' />
<rect x='512.39' y='197.75' width='26.50' height='10.86' style='stroke-width: 0.21; stroke-linecap: square; stroke-linejoin: miter; fill: #BEBEBE;' />
<rect x='541.84' y='202.75' width='26.50' height='5.86' style='stroke-width: 0.21; stroke-linecap: square; stroke-linejoin: miter; fill: #BEBEBE;' />
<rect x='188.46' y='82.11' width='26.50' height='126.51' style='stroke-width: 0.21; stroke-linecap: square; stroke-linejoin: miter; fill: #BEBEBE;' />
<rect x='630.18' y='208.62' width='26.50' height='0.00' style='stroke-width: 0.21; stroke-linecap: square; stroke-linejoin: miter; fill: #BEBEBE;' />
<rect x='365.15' y='133.53' width='26.50' height='75.09' style='stroke-width: 0.21; stroke-linecap: square; stroke-linejoin: miter; fill: #BEBEBE;' />
<rect x='659.63' y='208.62' width='26.50' height='0.00' style='stroke-width: 0.21; stroke-linecap: square; stroke-linejoin: miter; fill: #BEBEBE;' />
<rect x='600.73' y='208.02' width='26.50' height='0.59' style='stroke-width: 0.21; stroke-linecap: square; stroke-linejoin: miter; fill: #BEBEBE;' />
<rect x='453.49' y='172.92' width='26.50' height='35.70' style='stroke-width: 0.21; stroke-linecap: square; stroke-linejoin: miter; fill: #BEBEBE;' />
<rect x='335.70' y='118.72' width='26.50' height='89.89' style='stroke-width: 0.21; stroke-linecap: square; stroke-linejoin: miter; fill: #BEBEBE;' />
<rect x='70.67' y='10.11' width='26.50' height='198.51' style='stroke-width: 0.21; stroke-linecap: square; stroke-linejoin: miter; fill: #BEBEBE;' />
<rect x='100.12' y='19.05' width='26.50' height='189.57' style='stroke-width: 0.21; stroke-linecap: square; stroke-linejoin: miter; fill: #BEBEBE;' />
<rect x='217.91' y='96.03' width='26.50' height='112.59' style='stroke-width: 0.21; stroke-linecap: square; stroke-linejoin: miter; fill: #BEBEBE;' />
<rect x='394.60' y='144.57' width='26.50' height='64.05' style='stroke-width: 0.21; stroke-linecap: square; stroke-linejoin: miter; fill: #BEBEBE;' />
<rect x='689.08' y='208.62' width='26.50' height='3.59' style='stroke-width: 0.21; stroke-linecap: square; stroke-linejoin: miter; fill: #BEBEBE;' />
<rect x='424.05' y='155.02' width='26.50' height='53.60' style='stroke-width: 0.21; stroke-linecap: square; stroke-linejoin: miter; fill: #BEBEBE;' />
<rect x='159.01' y='65.53' width='26.50' height='143.09' style='stroke-width: 0.21; stroke-linecap: square; stroke-linejoin: miter; fill: #BEBEBE;' />
<rect x='129.56' y='34.62' width='26.50' height='174.00' style='stroke-width: 0.21; stroke-linecap: square; stroke-linejoin: miter; fill: #BEBEBE;' />
<rect x='247.36' y='96.83' width='26.50' height='111.79' style='stroke-width: 0.21; stroke-linecap: square; stroke-linejoin: miter; fill: #BEBEBE;' />
<rect x='571.29' y='205.31' width='26.50' height='3.31' style='stroke-width: 0.21; stroke-linecap: square; stroke-linejoin: miter; fill: #BEBEBE;' />
</g>
<g clip-path='url(#cpMC4wMHw3MjAuMDB8MC4wMHwzNjAuMDA=)'>
<text x='61.32' y='211.77' text-anchor='end' style='font-size: 8.80px; fill: #4D4D4D; font-family: Arial;' textLength='4.90px' lengthAdjust='spacingAndGlyphs'>0</text>
<text x='61.32' y='150.15' text-anchor='end' style='font-size: 8.80px; fill: #4D4D4D; font-family: Arial;' textLength='14.69px' lengthAdjust='spacingAndGlyphs'>500</text>
<text x='61.32' y='88.53' text-anchor='end' style='font-size: 8.80px; fill: #4D4D4D; font-family: Arial;' textLength='19.58px' lengthAdjust='spacingAndGlyphs'>1000</text>
<text x='61.32' y='26.91' text-anchor='end' style='font-size: 8.80px; fill: #4D4D4D; font-family: Arial;' textLength='19.58px' lengthAdjust='spacingAndGlyphs'>1500</text>
<text transform='translate(19.24,300.84) rotate(-45)' style='font-size: 8.80px; font-weight: bold; fill: #4D4D4D; font-family: Arial;' textLength='58.65px' lengthAdjust='spacingAndGlyphs'>Vergunningen</text>
<text transform='translate(62.44,257.64) rotate(-45)' style='font-size: 8.80px; font-weight: bold; fill: #4D4D4D; font-family: Arial;' textLength='34.23px' lengthAdjust='spacingAndGlyphs'>verkoop</text>
<text transform='translate(86.64,233.43) rotate(-45)' style='font-size: 8.80px; fill: #4D4D4D; font-family: Arial;' textLength='2.45px' lengthAdjust='spacingAndGlyphs'>:</text>
<text transform='translate(21.82,309.78) rotate(-45)' style='font-size: 8.80px; fill: #4D4D4D; font-family: Arial;' textLength='24.46px' lengthAdjust='spacingAndGlyphs'>Alleen</text>
<text transform='translate(40.85,290.75) rotate(-45)' style='font-size: 8.80px; fill: #4D4D4D; font-family: Arial;' textLength='75.36px' lengthAdjust='spacingAndGlyphs'>vergunninghouders</text>
<text transform='translate(83.96,265.56) rotate(-45)' style='font-size: 8.80px; font-weight: bold; fill: #4D4D4D; font-family: Arial;' textLength='45.44px' lengthAdjust='spacingAndGlyphs'>Monitoring</text>
<text transform='translate(116.09,233.43) rotate(-45)' style='font-size: 8.80px; fill: #4D4D4D; font-family: Arial;' textLength='2.45px' lengthAdjust='spacingAndGlyphs'>:</text>
<text transform='translate(95.22,265.83) rotate(-45)' style='font-size: 8.80px; fill: #4D4D4D; font-family: Arial;' textLength='40.11px' lengthAdjust='spacingAndGlyphs'>Uitgebreid</text>
<text transform='translate(62.89,316.08) rotate(-45)' style='font-size: 8.80px; font-weight: bold; fill: #4D4D4D; font-family: Arial;' textLength='27.36px' lengthAdjust='spacingAndGlyphs'>MDMA</text>
<text transform='translate(83.97,295.01) rotate(-45)' style='font-size: 8.80px; font-weight: bold; fill: #4D4D4D; font-family: Arial;' textLength='65.57px' lengthAdjust='spacingAndGlyphs'>kwaliteitsregels</text>
<text transform='translate(132.06,246.91) rotate(-45)' style='font-size: 8.80px; font-weight: bold; fill: #4D4D4D; font-family: Arial;' textLength='19.06px' lengthAdjust='spacingAndGlyphs'>(QA)</text>
<text transform='translate(145.54,233.43) rotate(-45)' style='font-size: 8.80px; fill: #4D4D4D; font-family: Arial;' textLength='2.45px' lengthAdjust='spacingAndGlyphs'>:</text>
<text transform='translate(39.01,351.49) rotate(-45)' style='font-size: 8.80px; fill: #4D4D4D; font-family: Arial;' textLength='14.99px' lengthAdjust='spacingAndGlyphs'>Wel</text>
<text transform='translate(51.34,339.16) rotate(-45)' style='font-size: 8.80px; fill: #4D4D4D; font-family: Arial;' textLength='89.51px' lengthAdjust='spacingAndGlyphs'>eisen/kwaliteitsdefinitie</text>
<text transform='translate(116.36,274.14) rotate(-45)' style='font-size: 8.80px; fill: #4D4D4D; font-family: Arial;' textLength='51.86px' lengthAdjust='spacingAndGlyphs'>geformuleerd</text>
<text transform='translate(112.76,295.66) rotate(-45)' style='font-size: 8.80px; font-weight: bold; fill: #4D4D4D; font-family: Arial;' textLength='40.58px' lengthAdjust='spacingAndGlyphs'>Productie</text>
<text transform='translate(143.19,265.23) rotate(-45)' style='font-size: 8.80px; font-weight: bold; fill: #4D4D4D; font-family: Arial;' textLength='15.16px' lengthAdjust='spacingAndGlyphs'>van</text>
<text transform='translate(155.64,252.78) rotate(-45)' style='font-size: 8.80px; font-weight: bold; fill: #4D4D4D; font-family: Arial;' textLength='27.36px' lengthAdjust='spacingAndGlyphs'>MDMA</text>
<text transform='translate(174.99,233.43) rotate(-45)' style='font-size: 8.80px; fill: #4D4D4D; font-family: Arial;' textLength='2.45px' lengthAdjust='spacingAndGlyphs'>:</text>
<text transform='translate(89.06,330.89) rotate(-45)' style='font-size: 8.80px; fill: #4D4D4D; font-family: Arial;' textLength='32.30px' lengthAdjust='spacingAndGlyphs'>Analoog</text>
<text transform='translate(113.63,306.32) rotate(-45)' style='font-size: 8.80px; fill: #4D4D4D; font-family: Arial;' textLength='14.69px' lengthAdjust='spacingAndGlyphs'>aan</text>
<text transform='translate(125.75,294.20) rotate(-45)' style='font-size: 8.80px; fill: #4D4D4D; font-family: Arial;' textLength='80.24px' lengthAdjust='spacingAndGlyphs'>Geneesmiddelenwet</text>
<text transform='translate(154.65,283.22) rotate(-45)' style='font-size: 8.80px; font-weight: bold; fill: #4D4D4D; font-family: Arial;' textLength='12.22px' lengthAdjust='spacingAndGlyphs'>HP</text>
<text transform='translate(165.02,272.85) rotate(-45)' style='font-size: 8.80px; font-weight: bold; fill: #4D4D4D; font-family: Arial;' textLength='52.32px' lengthAdjust='spacingAndGlyphs'>subsidiering</text>
<text transform='translate(202.01,235.86) rotate(-45)' style='font-size: 8.80px; fill: #4D4D4D; font-family: Arial;' textLength='5.88px' lengthAdjust='spacingAndGlyphs'>*:</text>
<text transform='translate(178.02,271.37) rotate(-45)' style='font-size: 8.80px; fill: #4D4D4D; font-family: Arial;' textLength='47.95px' lengthAdjust='spacingAndGlyphs'>Grotendeels</text>
<text transform='translate(201.05,266.27) rotate(-45)' style='font-size: 8.80px; font-weight: bold; fill: #4D4D4D; font-family: Arial;' textLength='46.43px' lengthAdjust='spacingAndGlyphs'>Ontneming</text>
<text transform='translate(233.88,233.43) rotate(-45)' style='font-size: 8.80px; fill: #4D4D4D; font-family: Arial;' textLength='2.45px' lengthAdjust='spacingAndGlyphs'>:</text>
<text transform='translate(195.01,283.83) rotate(-45)' style='font-size: 8.80px; fill: #4D4D4D; font-family: Arial;' textLength='20.05px' lengthAdjust='spacingAndGlyphs'>Meer</text>
<text transform='translate(210.92,267.92) rotate(-45)' style='font-size: 8.80px; fill: #4D4D4D; font-family: Arial;' textLength='9.79px' lengthAdjust='spacingAndGlyphs'>op</text>
<text transform='translate(219.58,259.27) rotate(-45)' style='font-size: 8.80px; fill: #4D4D4D; font-family: Arial;' textLength='30.83px' lengthAdjust='spacingAndGlyphs'>inzetten</text>
<text transform='translate(220.12,276.65) rotate(-45)' style='font-size: 8.80px; font-weight: bold; fill: #4D4D4D; font-family: Arial;' textLength='13.20px' lengthAdjust='spacingAndGlyphs'>QA</text>
<text transform='translate(231.18,265.58) rotate(-45)' style='font-size: 8.80px; font-weight: bold; fill: #4D4D4D; font-family: Arial;' textLength='45.47px' lengthAdjust='spacingAndGlyphs'>bestraffing</text>
<text transform='translate(263.33,233.43) rotate(-45)' style='font-size: 8.80px; fill: #4D4D4D; font-family: Arial;' textLength='2.45px' lengthAdjust='spacingAndGlyphs'>:</text>
<text transform='translate(253.54,254.75) rotate(-45)' style='font-size: 8.80px; fill: #4D4D4D; font-family: Arial;' textLength='24.44px' lengthAdjust='spacingAndGlyphs'>Zwaar</text>
<text transform='translate(213.60,312.61) rotate(-45)' style='font-size: 8.80px; font-weight: bold; fill: #4D4D4D; font-family: Arial;' textLength='34.72px' lengthAdjust='spacingAndGlyphs'>Verkoop</text>
<text transform='translate(239.88,286.33) rotate(-45)' style='font-size: 8.80px; font-weight: bold; fill: #4D4D4D; font-family: Arial;' textLength='15.16px' lengthAdjust='spacingAndGlyphs'>aan</text>
<text transform='translate(252.34,273.88) rotate(-45)' style='font-size: 8.80px; font-weight: bold; fill: #4D4D4D; font-family: Arial;' textLength='57.20px' lengthAdjust='spacingAndGlyphs'>consumenten</text>
<text transform='translate(292.78,233.43) rotate(-45)' style='font-size: 8.80px; fill: #4D4D4D; font-family: Arial;' textLength='2.45px' lengthAdjust='spacingAndGlyphs'>:</text>
<text transform='translate(265.67,272.06) rotate(-45)' style='font-size: 8.80px; fill: #4D4D4D; font-family: Arial;' textLength='48.93px' lengthAdjust='spacingAndGlyphs'>Gereguleerd</text>
<text transform='translate(250.31,305.36) rotate(-45)' style='font-size: 8.80px; font-weight: bold; fill: #4D4D4D; font-family: Arial;' textLength='29.33px' lengthAdjust='spacingAndGlyphs'>Handel</text>
<text transform='translate(272.78,282.88) rotate(-45)' style='font-size: 8.80px; font-weight: bold; fill: #4D4D4D; font-family: Arial;' textLength='28.36px' lengthAdjust='spacingAndGlyphs'>tussen</text>
<text transform='translate(294.56,261.10) rotate(-45)' style='font-size: 8.80px; font-weight: bold; fill: #4D4D4D; font-family: Arial;' textLength='39.12px' lengthAdjust='spacingAndGlyphs'>bedrijven</text>
<text transform='translate(322.23,233.43) rotate(-45)' style='font-size: 8.80px; fill: #4D4D4D; font-family: Arial;' textLength='2.45px' lengthAdjust='spacingAndGlyphs'>:</text>
<text transform='translate(247.39,319.79) rotate(-45)' style='font-size: 8.80px; fill: #4D4D4D; font-family: Arial;' textLength='33.75px' lengthAdjust='spacingAndGlyphs'>Conform</text>
<text transform='translate(272.99,294.20) rotate(-45)' style='font-size: 8.80px; fill: #4D4D4D; font-family: Arial;' textLength='80.24px' lengthAdjust='spacingAndGlyphs'>Geneesmiddelenwet</text>
<text transform='translate(283.88,301.23) rotate(-45)' style='font-size: 8.80px; font-weight: bold; fill: #4D4D4D; font-family: Arial;' textLength='36.20px' lengthAdjust='spacingAndGlyphs'>Sancties</text>
<text transform='translate(311.21,273.90) rotate(-45)' style='font-size: 8.80px; font-weight: bold; fill: #4D4D4D; font-family: Arial;' textLength='57.23px' lengthAdjust='spacingAndGlyphs'>leeftijdsgrens</text>
<text transform='translate(351.68,233.43) rotate(-45)' style='font-size: 8.80px; fill: #4D4D4D; font-family: Arial;' textLength='2.45px' lengthAdjust='spacingAndGlyphs'>:</text>
<text transform='translate(307.96,288.67) rotate(-45)' style='font-size: 8.80px; fill: #4D4D4D; font-family: Arial;' textLength='35.23px' lengthAdjust='spacingAndGlyphs'>Verkoper</text>
<text transform='translate(334.61,262.03) rotate(-45)' style='font-size: 8.80px; fill: #4D4D4D; font-family: Arial;' textLength='34.74px' lengthAdjust='spacingAndGlyphs'>strafbaar</text>
<text transform='translate(337.55,277.01) rotate(-45)' style='font-size: 8.80px; font-weight: bold; fill: #4D4D4D; font-family: Arial;' textLength='12.22px' lengthAdjust='spacingAndGlyphs'>HP</text>
<text transform='translate(347.92,266.64) rotate(-45)' style='font-size: 8.80px; font-weight: bold; fill: #4D4D4D; font-family: Arial;' textLength='46.96px' lengthAdjust='spacingAndGlyphs'>perspectief</text>
<text transform='translate(381.12,233.43) rotate(-45)' style='font-size: 8.80px; fill: #4D4D4D; font-family: Arial;' textLength='2.45px' lengthAdjust='spacingAndGlyphs'>:</text>
<text transform='translate(346.08,280.01) rotate(-45)' style='font-size: 8.80px; fill: #4D4D4D; font-family: Arial;' textLength='21.51px' lengthAdjust='spacingAndGlyphs'>Harm</text>
<text transform='translate(363.02,263.07) rotate(-45)' style='font-size: 8.80px; fill: #4D4D4D; font-family: Arial;' textLength='36.21px' lengthAdjust='spacingAndGlyphs'>reduction</text>
<text transform='translate(370.11,273.90) rotate(-45)' style='font-size: 8.80px; font-weight: bold; fill: #4D4D4D; font-family: Arial;' textLength='57.23px' lengthAdjust='spacingAndGlyphs'>Verpakkingen</text>
<text transform='translate(410.57,233.43) rotate(-45)' style='font-size: 8.80px; fill: #4D4D4D; font-family: Arial;' textLength='2.45px' lengthAdjust='spacingAndGlyphs'>:</text>
<text transform='translate(304.23,351.30) rotate(-45)' style='font-size: 8.80px; fill: #4D4D4D; font-family: Arial;' textLength='19.56px' lengthAdjust='spacingAndGlyphs'>Plain</text>
<text transform='translate(319.80,335.73) rotate(-45)' style='font-size: 8.80px; fill: #4D4D4D; font-family: Arial;' textLength='40.13px' lengthAdjust='spacingAndGlyphs'>packaging</text>
<text transform='translate(349.90,305.63) rotate(-45)' style='font-size: 8.80px; fill: #4D4D4D; font-family: Arial;' textLength='14.67px' lengthAdjust='spacingAndGlyphs'>met</text>
<text transform='translate(362.01,293.52) rotate(-45)' style='font-size: 8.80px; fill: #4D4D4D; font-family: Arial;' textLength='79.28px' lengthAdjust='spacingAndGlyphs'>preventieboodschap</text>
<text transform='translate(396.76,276.69) rotate(-45)' style='font-size: 8.80px; font-weight: bold; fill: #4D4D4D; font-family: Arial;' textLength='61.18px' lengthAdjust='spacingAndGlyphs'>Prijsrestricties</text>
<text transform='translate(440.02,233.43) rotate(-45)' style='font-size: 8.80px; fill: #4D4D4D; font-family: Arial;' textLength='2.45px' lengthAdjust='spacingAndGlyphs'>:</text>
<text transform='translate(403.96,281.02) rotate(-45)' style='font-size: 8.80px; fill: #4D4D4D; font-family: Arial;' textLength='61.60px' lengthAdjust='spacingAndGlyphs'>Minimumprijzen</text>
<text transform='translate(426.94,275.96) rotate(-45)' style='font-size: 8.80px; font-weight: bold; fill: #4D4D4D; font-family: Arial;' textLength='60.15px' lengthAdjust='spacingAndGlyphs'>Leeftijdsgrens</text>
<text transform='translate(469.47,233.43) rotate(-45)' style='font-size: 8.80px; fill: #4D4D4D; font-family: Arial;' textLength='2.45px' lengthAdjust='spacingAndGlyphs'>:</text>
<text transform='translate(408.81,305.62) rotate(-45)' style='font-size: 8.80px; fill: #4D4D4D; font-family: Arial;' textLength='8.80px' lengthAdjust='spacingAndGlyphs'>Er</text>
<text transform='translate(416.77,297.66) rotate(-45)' style='font-size: 8.80px; fill: #4D4D4D; font-family: Arial;' textLength='6.35px' lengthAdjust='spacingAndGlyphs'>is</text>
<text transform='translate(422.99,291.44) rotate(-45)' style='font-size: 8.80px; fill: #4D4D4D; font-family: Arial;' textLength='19.58px' lengthAdjust='spacingAndGlyphs'>geen</text>
<text transform='translate(438.57,275.86) rotate(-45)' style='font-size: 8.80px; fill: #4D4D4D; font-family: Arial;' textLength='54.30px' lengthAdjust='spacingAndGlyphs'>leeftijdsgrens.</text>
<text transform='translate(473.31,259.04) rotate(-45)' style='font-size: 8.80px; font-weight: bold; fill: #4D4D4D; font-family: Arial;' textLength='36.21px' lengthAdjust='spacingAndGlyphs'>Reclame</text>
<text transform='translate(498.92,233.43) rotate(-45)' style='font-size: 8.80px; fill: #4D4D4D; font-family: Arial;' textLength='2.45px' lengthAdjust='spacingAndGlyphs'>:</text>
<text transform='translate(449.32,294.55) rotate(-45)' style='font-size: 8.80px; fill: #4D4D4D; font-family: Arial;' textLength='34.72px' lengthAdjust='spacingAndGlyphs'>Reclame</text>
<text transform='translate(475.61,268.27) rotate(-45)' style='font-size: 8.80px; fill: #4D4D4D; font-family: Arial;' textLength='43.57px' lengthAdjust='spacingAndGlyphs'>toegestaan</text>
<text transform='translate(475.79,286.00) rotate(-45)' style='font-size: 8.80px; font-weight: bold; fill: #4D4D4D; font-family: Arial;' textLength='36.19px' lengthAdjust='spacingAndGlyphs'>Prioriteit</text>
<text transform='translate(503.12,258.68) rotate(-45)' style='font-size: 8.80px; font-weight: bold; fill: #4D4D4D; font-family: Arial;' textLength='35.70px' lengthAdjust='spacingAndGlyphs'>misdaad</text>
<text transform='translate(528.37,233.43) rotate(-45)' style='font-size: 8.80px; fill: #4D4D4D; font-family: Arial;' textLength='2.45px' lengthAdjust='spacingAndGlyphs'>:</text>
<text transform='translate(511.99,261.33) rotate(-45)' style='font-size: 8.80px; fill: #4D4D4D; font-family: Arial;' textLength='33.75px' lengthAdjust='spacingAndGlyphs'>Selectief</text>
<text transform='translate(519.78,271.46) rotate(-45)' style='font-size: 8.80px; font-weight: bold; fill: #4D4D4D; font-family: Arial;' textLength='53.78px' lengthAdjust='spacingAndGlyphs'>Exportstatus</text>
<text transform='translate(557.81,233.43) rotate(-45)' style='font-size: 8.80px; fill: #4D4D4D; font-family: Arial;' textLength='2.45px' lengthAdjust='spacingAndGlyphs'>:</text>
<text transform='translate(546.62,256.15) rotate(-45)' style='font-size: 8.80px; fill: #4D4D4D; font-family: Arial;' textLength='26.43px' lengthAdjust='spacingAndGlyphs'>Legaal</text>
<text transform='translate(544.01,276.68) rotate(-45)' style='font-size: 8.80px; font-weight: bold; fill: #4D4D4D; font-family: Arial;' textLength='39.64px' lengthAdjust='spacingAndGlyphs'>Maximale</text>
<text transform='translate(573.77,246.92) rotate(-45)' style='font-size: 8.80px; font-weight: bold; fill: #4D4D4D; font-family: Arial;' textLength='19.08px' lengthAdjust='spacingAndGlyphs'>straf</text>
<text transform='translate(587.26,233.43) rotate(-45)' style='font-size: 8.80px; fill: #4D4D4D; font-family: Arial;' textLength='2.45px' lengthAdjust='spacingAndGlyphs'>:</text>
<text transform='translate(531.44,300.78) rotate(-45)' style='font-size: 8.80px; fill: #4D4D4D; font-family: Arial;' textLength='11.25px' lengthAdjust='spacingAndGlyphs'>De</text>
<text transform='translate(541.13,291.10) rotate(-45)' style='font-size: 8.80px; fill: #4D4D4D; font-family: Arial;' textLength='36.69px' lengthAdjust='spacingAndGlyphs'>strafmaat</text>
<text transform='translate(568.80,263.42) rotate(-45)' style='font-size: 8.80px; fill: #4D4D4D; font-family: Arial;' textLength='36.71px' lengthAdjust='spacingAndGlyphs'>verhogen</text>
<text transform='translate(548.23,301.91) rotate(-45)' style='font-size: 8.80px; font-weight: bold; fill: #4D4D4D; font-family: Arial;' textLength='57.70px' lengthAdjust='spacingAndGlyphs'>Internationale</text>
<text transform='translate(590.77,259.38) rotate(-45)' style='font-size: 8.80px; font-weight: bold; fill: #4D4D4D; font-family: Arial;' textLength='36.69px' lengthAdjust='spacingAndGlyphs'>strategie</text>
<text transform='translate(616.71,233.43) rotate(-45)' style='font-size: 8.80px; fill: #4D4D4D; font-family: Arial;' textLength='2.45px' lengthAdjust='spacingAndGlyphs'>:</text>
<text transform='translate(603.44,258.23) rotate(-45)' style='font-size: 8.80px; fill: #4D4D4D; font-family: Arial;' textLength='17.62px' lengthAdjust='spacingAndGlyphs'>Inter</text>
<text transform='translate(617.63,244.04) rotate(-45)' style='font-size: 8.80px; fill: #4D4D4D; font-family: Arial;' textLength='9.30px' lengthAdjust='spacingAndGlyphs'>se</text>
<text transform='translate(597.41,282.19) rotate(-45)' style='font-size: 8.80px; font-weight: bold; fill: #4D4D4D; font-family: Arial;' textLength='12.22px' lengthAdjust='spacingAndGlyphs'>HP</text>
<text transform='translate(607.78,271.81) rotate(-45)' style='font-size: 8.80px; font-weight: bold; fill: #4D4D4D; font-family: Arial;' textLength='54.28px' lengthAdjust='spacingAndGlyphs'>management</text>
<text transform='translate(646.16,233.43) rotate(-45)' style='font-size: 8.80px; fill: #4D4D4D; font-family: Arial;' textLength='2.45px' lengthAdjust='spacingAndGlyphs'>:</text>
<text transform='translate(642.59,248.53) rotate(-45)' style='font-size: 8.80px; fill: #4D4D4D; font-family: Arial;' textLength='15.65px' lengthAdjust='spacingAndGlyphs'>Niet</text>
<text transform='translate(615.78,293.26) rotate(-45)' style='font-size: 8.80px; font-weight: bold; fill: #4D4D4D; font-family: Arial;' textLength='12.22px' lengthAdjust='spacingAndGlyphs'>HP</text>
<text transform='translate(626.15,282.89) rotate(-45)' style='font-size: 8.80px; font-weight: bold; fill: #4D4D4D; font-family: Arial;' textLength='69.94px' lengthAdjust='spacingAndGlyphs'>verantwoordelijk</text>
<text transform='translate(675.61,233.43) rotate(-45)' style='font-size: 8.80px; fill: #4D4D4D; font-family: Arial;' textLength='2.45px' lengthAdjust='spacingAndGlyphs'>:</text>
<text transform='translate(631.21,289.36) rotate(-45)' style='font-size: 8.80px; fill: #4D4D4D; font-family: Arial;' textLength='37.18px' lengthAdjust='spacingAndGlyphs'>Nationale</text>
<text transform='translate(659.23,261.34) rotate(-45)' style='font-size: 8.80px; fill: #4D4D4D; font-family: Arial;' textLength='33.76px' lengthAdjust='spacingAndGlyphs'>overheid</text>
<text transform='translate(690.19,248.30) rotate(-45)' style='font-size: 8.80px; font-weight: bold; fill: #4D4D4D; font-family: Arial;' textLength='21.02px' lengthAdjust='spacingAndGlyphs'>Bezit</text>
<text transform='translate(705.05,233.43) rotate(-45)' style='font-size: 8.80px; fill: #4D4D4D; font-family: Arial;' textLength='2.45px' lengthAdjust='spacingAndGlyphs'>:</text>
<text transform='translate(622.58,327.43) rotate(-45)' style='font-size: 8.80px; fill: #4D4D4D; font-family: Arial;' textLength='90.51px' lengthAdjust='spacingAndGlyphs'>Gebruikershoeveelheid</text>
<text transform='translate(688.32,261.70) rotate(-45)' style='font-size: 8.80px; fill: #4D4D4D; font-family: Arial;' textLength='34.27px' lengthAdjust='spacingAndGlyphs'>gedogen</text>
<text transform='translate(36.68,111.16) rotate(-90)' text-anchor='middle' style='font-size: 11.00px; font-family: Arial;' textLength='112.55px' lengthAdjust='spacingAndGlyphs'>Bijdrage aan eindscore</text>
</g>
</svg>
