<?xml version='1.0' encoding='UTF-8' ?>
<svg xmlns='http://www.w3.org/2000/svg' xmlns:xlink='http://www.w3.org/1999/xlink' class='svglite' width='720.00pt' height='360.00pt' viewBox='0 0 720.00 360.00'>
<defs>
  <style type='text/css'><![CDATA[
    .svglite line, .svglite polyline, .svglite polygon, .svglite path, .svglite rect, .svglite circle {
      fill: none;
      stroke: #000000;
      stroke-linecap: round;
      stroke-linejoin: round;
      stroke-miterlimit: 10.00;
    }
  ]]></style>
</defs>
<rect width='100%' height='100%' style='stroke: none; fill: none;'/>
<defs>
  <clipPath id='cpMC4wMHw3MjAuMDB8MC4wMHwzNjAuMDA='>
    <rect x='0.00' y='0.00' width='720.00' height='360.00' />
  </clipPath>
</defs>
<g clip-path='url(#cpMC4wMHw3MjAuMDB8MC4wMHwzNjAuMDA=)'>
</g>
<defs>
  <clipPath id='cpMTA0LjY1fDcyMC4wMHw4NC44MnwyMzguOTY='>
    <rect x='104.65' y='84.82' width='615.35' height='154.14' />
  </clipPath>
</defs>
<g clip-path='url(#cpMTA0LjY1fDcyMC4wMHw4NC44MnwyMzguOTY=)'>
<polyline points='104.65,193.47 720.00,193.47 ' style='stroke-width: 0.53; stroke: #EBEBEB; stroke-linecap: butt;' />
<polyline points='104.65,146.07 720.00,146.07 ' style='stroke-width: 0.53; stroke: #EBEBEB; stroke-linecap: butt;' />
<polyline points='104.65,98.67 720.00,98.67 ' style='stroke-width: 0.53; stroke: #EBEBEB; stroke-linecap: butt;' />
<polyline points='104.65,217.18 720.00,217.18 ' style='stroke-width: 0.21; stroke: #BEBEBE; stroke-linecap: butt;' />
<polyline points='104.65,169.77 720.00,169.77 ' style='stroke-width: 0.21; stroke: #BEBEBE; stroke-linecap: butt;' />
<polyline points='104.65,122.37 720.00,122.37 ' style='stroke-width: 0.21; stroke: #BEBEBE; stroke-linecap: butt;' />
<rect x='108.31' y='179.69' width='21.98' height='37.49' style='stroke-width: 0.21; stroke-linecap: square; stroke-linejoin: miter; fill: #440154;' />
<rect x='132.73' y='212.37' width='21.98' height='4.81' style='stroke-width: 0.21; stroke-linecap: square; stroke-linejoin: miter; fill: #440154;' />
<rect x='157.15' y='217.18' width='21.98' height='11.12' style='stroke-width: 0.21; stroke-linecap: square; stroke-linejoin: miter; fill: #440154;' />
<rect x='181.57' y='91.83' width='21.98' height='125.35' style='stroke-width: 0.21; stroke-linecap: square; stroke-linejoin: miter; fill: #414487;' />
<rect x='205.99' y='135.68' width='21.98' height='81.50' style='stroke-width: 0.21; stroke-linecap: square; stroke-linejoin: miter; fill: #414487;' />
<rect x='230.41' y='172.95' width='21.98' height='44.23' style='stroke-width: 0.21; stroke-linecap: square; stroke-linejoin: miter; fill: #414487;' />
<rect x='254.83' y='200.98' width='21.98' height='16.20' style='stroke-width: 0.21; stroke-linecap: square; stroke-linejoin: miter; fill: #414487;' />
<rect x='279.24' y='208.96' width='21.98' height='8.22' style='stroke-width: 0.21; stroke-linecap: square; stroke-linejoin: miter; fill: #414487;' />
<rect x='303.66' y='217.18' width='21.98' height='0.00' style='stroke-width: 0.21; stroke-linecap: square; stroke-linejoin: miter; fill: #414487;' />
<rect x='328.08' y='217.18' width='21.98' height='2.49' style='stroke-width: 0.21; stroke-linecap: square; stroke-linejoin: miter; fill: #414487;' />
<rect x='352.50' y='103.92' width='21.98' height='113.25' style='stroke-width: 0.21; stroke-linecap: square; stroke-linejoin: miter; fill: #2A788E;' />
<rect x='376.92' y='181.65' width='21.98' height='35.52' style='stroke-width: 0.21; stroke-linecap: square; stroke-linejoin: miter; fill: #2A788E;' />
<rect x='401.34' y='188.78' width='21.98' height='28.39' style='stroke-width: 0.21; stroke-linecap: square; stroke-linejoin: miter; fill: #2A788E;' />
<rect x='425.76' y='206.64' width='21.98' height='10.54' style='stroke-width: 0.21; stroke-linecap: square; stroke-linejoin: miter; fill: #2A788E;' />
<rect x='450.17' y='206.82' width='21.98' height='10.35' style='stroke-width: 0.21; stroke-linecap: square; stroke-linejoin: miter; fill: #2A788E;' />
<rect x='474.59' y='215.09' width='21.98' height='2.09' style='stroke-width: 0.21; stroke-linecap: square; stroke-linejoin: miter; fill: #2A788E;' />
<rect x='499.01' y='181.67' width='21.98' height='35.50' style='stroke-width: 0.21; stroke-linecap: square; stroke-linejoin: miter; fill: #22A884;' />
<rect x='523.43' y='184.14' width='21.98' height='33.03' style='stroke-width: 0.21; stroke-linecap: square; stroke-linejoin: miter; fill: #22A884;' />
<rect x='547.85' y='197.11' width='21.98' height='20.07' style='stroke-width: 0.21; stroke-linecap: square; stroke-linejoin: miter; fill: #22A884;' />
<rect x='572.27' y='215.86' width='21.98' height='1.32' style='stroke-width: 0.21; stroke-linecap: square; stroke-linejoin: miter; fill: #22A884;' />
<rect x='596.69' y='217.18' width='21.98' height='4.03' style='stroke-width: 0.21; stroke-linecap: square; stroke-linejoin: miter; fill: #22A884;' />
<rect x='621.10' y='217.18' width='21.98' height='0.69' style='stroke-width: 0.21; stroke-linecap: square; stroke-linejoin: miter; fill: #7AD151;' />
<rect x='645.52' y='217.18' width='21.98' height='10.83' style='stroke-width: 0.21; stroke-linecap: square; stroke-linejoin: miter; fill: #7AD151;' />
<rect x='669.94' y='217.18' width='21.98' height='14.78' style='stroke-width: 0.21; stroke-linecap: square; stroke-linejoin: miter; fill: #7AD151;' />
<rect x='694.36' y='152.06' width='21.98' height='65.11' style='stroke-width: 0.21; stroke-linecap: square; stroke-linejoin: miter; fill: #FDE725;' />
</g>
<g clip-path='url(#cpMC4wMHw3MjAuMDB8MC4wMHwzNjAuMDA=)'>
<text x='99.72' y='220.33' text-anchor='end' style='font-size: 8.80px; fill: #4D4D4D; font-family: Arial;' textLength='4.90px' lengthAdjust='spacingAndGlyphs'>0</text>
<text x='99.72' y='172.92' text-anchor='end' style='font-size: 8.80px; fill: #4D4D4D; font-family: Arial;' textLength='19.58px' lengthAdjust='spacingAndGlyphs'>1000</text>
<text x='99.72' y='125.52' text-anchor='end' style='font-size: 8.80px; fill: #4D4D4D; font-family: Arial;' textLength='19.58px' lengthAdjust='spacingAndGlyphs'>2000</text>
<text transform='translate(123.76,248.35) rotate(-45)' text-anchor='end' style='font-size: 8.80px; fill: #4D4D4D; font-family: Arial;' textLength='144.33px' lengthAdjust='spacingAndGlyphs'>Use frequency and intensity by users</text>
<text transform='translate(148.18,248.35) rotate(-45)' text-anchor='end' style='font-size: 8.80px; fill: #4D4D4D; font-family: Arial;' textLength='115.47px' lengthAdjust='spacingAndGlyphs'>Use in vulnerable populations</text>
<text transform='translate(172.59,248.35) rotate(-45)' text-anchor='end' style='font-size: 8.80px; fill: #4D4D4D; font-family: Arial;' textLength='124.77px' lengthAdjust='spacingAndGlyphs'>Prevalence (general population)</text>
<text transform='translate(197.01,248.35) rotate(-45)' text-anchor='end' style='font-size: 8.80px; fill: #4D4D4D; font-family: Arial;' textLength='136.97px' lengthAdjust='spacingAndGlyphs'>Quality of information about MDMA</text>
<text transform='translate(221.43,248.35) rotate(-45)' text-anchor='end' style='font-size: 8.80px; fill: #4D4D4D; font-family: Arial;' textLength='59.70px' lengthAdjust='spacingAndGlyphs'>Health damage</text>
<text transform='translate(245.85,248.35) rotate(-45)' text-anchor='end' style='font-size: 8.80px; fill: #4D4D4D; font-family: Arial;' textLength='89.04px' lengthAdjust='spacingAndGlyphs'>Stigmatization of users</text>
<text transform='translate(270.27,248.35) rotate(-45)' text-anchor='end' style='font-size: 8.80px; fill: #4D4D4D; font-family: Arial;' textLength='57.24px' lengthAdjust='spacingAndGlyphs'>Social benefits</text>
<text transform='translate(294.69,248.35) rotate(-45)' text-anchor='end' style='font-size: 8.80px; fill: #4D4D4D; font-family: Arial;' textLength='58.72px' lengthAdjust='spacingAndGlyphs'>Health benefits</text>
<text transform='translate(319.11,248.35) rotate(-45)' text-anchor='end' style='font-size: 8.80px; fill: #4D4D4D; font-family: Arial;' textLength='58.22px' lengthAdjust='spacingAndGlyphs'>Social damage</text>
<text transform='translate(343.52,248.35) rotate(-45)' text-anchor='end' style='font-size: 8.80px; fill: #4D4D4D; font-family: Arial;' textLength='74.38px' lengthAdjust='spacingAndGlyphs'>Shift to other drugs</text>
<text transform='translate(367.94,248.35) rotate(-45)' text-anchor='end' style='font-size: 8.80px; fill: #4D4D4D; font-family: Arial;' textLength='129.59px' lengthAdjust='spacingAndGlyphs'>Organized crime (MDMA-related)</text>
<text transform='translate(392.36,248.35) rotate(-45)' text-anchor='end' style='font-size: 8.80px; fill: #4D4D4D; font-family: Arial;' textLength='91.45px' lengthAdjust='spacingAndGlyphs'>Criminalisation of users</text>
<text transform='translate(416.78,248.35) rotate(-45)' text-anchor='end' style='font-size: 8.80px; fill: #4D4D4D; font-family: Arial;' textLength='103.65px' lengthAdjust='spacingAndGlyphs'>MDMA-related small crime</text>
<text transform='translate(441.20,248.35) rotate(-45)' text-anchor='end' style='font-size: 8.80px; fill: #4D4D4D; font-family: Arial;' textLength='144.28px' lengthAdjust='spacingAndGlyphs'>Organized crime (not MDMA-related)</text>
<text transform='translate(465.62,248.35) rotate(-45)' text-anchor='end' style='font-size: 8.80px; fill: #4D4D4D; font-family: Arial;' textLength='156.05px' lengthAdjust='spacingAndGlyphs'>Criminals exploitating vulnerable groups</text>
<text transform='translate(490.04,248.35) rotate(-45)' text-anchor='end' style='font-size: 8.80px; fill: #4D4D4D; font-family: Arial;' textLength='127.52px' lengthAdjust='spacingAndGlyphs'>International trafficking of MDMA</text>
<text transform='translate(514.45,248.35) rotate(-45)' text-anchor='end' style='font-size: 8.80px; fill: #4D4D4D; font-family: Arial;' textLength='83.19px' lengthAdjust='spacingAndGlyphs'>State revenue (other)</text>
<text transform='translate(538.87,248.35) rotate(-45)' text-anchor='end' style='font-size: 8.80px; fill: #4D4D4D; font-family: Arial;' textLength='78.92px' lengthAdjust='spacingAndGlyphs'>State revenue (VAT)</text>
<text transform='translate(563.29,248.35) rotate(-45)' text-anchor='end' style='font-size: 8.80px; fill: #4D4D4D; font-family: Arial;' textLength='143.34px' lengthAdjust='spacingAndGlyphs'>Costs related to pollution (dumpings)</text>
<text transform='translate(587.71,248.35) rotate(-45)' text-anchor='end' style='font-size: 8.80px; fill: #4D4D4D; font-family: Arial;' textLength='122.34px' lengthAdjust='spacingAndGlyphs'>Costs related to health damage</text>
<text transform='translate(612.13,248.35) rotate(-45)' text-anchor='end' style='font-size: 8.80px; fill: #4D4D4D; font-family: Arial;' textLength='85.60px' lengthAdjust='spacingAndGlyphs'>Costs related to crime</text>
<text transform='translate(636.55,248.35) rotate(-45)' text-anchor='end' style='font-size: 8.80px; fill: #4D4D4D; font-family: Arial;' textLength='73.86px' lengthAdjust='spacingAndGlyphs'>Economic boycotts</text>
<text transform='translate(660.97,248.35) rotate(-45)' text-anchor='end' style='font-size: 8.80px; fill: #4D4D4D; font-family: Arial;' textLength='149.25px' lengthAdjust='spacingAndGlyphs'>International image of the Netherlands</text>
<text transform='translate(685.38,248.35) rotate(-45)' text-anchor='end' style='font-size: 8.80px; fill: #4D4D4D; font-family: Arial;' textLength='139.94px' lengthAdjust='spacingAndGlyphs'>International legal countermeasures</text>
<text transform='translate(709.80,248.35) rotate(-45)' text-anchor='end' style='font-size: 8.80px; fill: #4D4D4D; font-family: Arial;' textLength='90.51px' lengthAdjust='spacingAndGlyphs'>Environmental damage</text>
<text transform='translate(75.08,161.89) rotate(-90)' text-anchor='middle' style='font-size: 11.00px; font-family: Arial;' textLength='152.29px' lengthAdjust='spacingAndGlyphs'>Benefit (overall outcome score)</text>
<rect x='217.81' y='19.79' width='17.00' height='17.00' style='stroke-width: 0.21; stroke-linecap: square; stroke-linejoin: miter; fill: #440154;' />
<rect x='217.81' y='37.07' width='17.00' height='17.00' style='stroke-width: 0.21; stroke-linecap: square; stroke-linejoin: miter; fill: #414487;' />
<rect x='355.63' y='19.79' width='17.00' height='17.00' style='stroke-width: 0.21; stroke-linecap: square; stroke-linejoin: miter; fill: #2A788E;' />
<rect x='355.63' y='37.07' width='17.00' height='17.00' style='stroke-width: 0.21; stroke-linecap: square; stroke-linejoin: miter; fill: #22A884;' />
<rect x='492.48' y='19.79' width='17.00' height='17.00' style='stroke-width: 0.21; stroke-linecap: square; stroke-linejoin: miter; fill: #7AD151;' />
<rect x='492.48' y='37.07' width='17.00' height='17.00' style='stroke-width: 0.21; stroke-linecap: square; stroke-linejoin: miter; fill: #FDE725;' />
<text x='240.43' y='31.44' style='font-size: 8.80px; font-family: Arial;' textLength='109.58px' lengthAdjust='spacingAndGlyphs'>Use (prevalence &amp; patterns)</text>
<text x='240.43' y='48.72' style='font-size: 8.80px; font-family: Arial;' textLength='45.01px' lengthAdjust='spacingAndGlyphs'>User health</text>
<text x='378.25' y='31.44' style='font-size: 8.80px; font-family: Arial;' textLength='23.46px' lengthAdjust='spacingAndGlyphs'>Crime</text>
<text x='378.25' y='48.72' style='font-size: 8.80px; font-family: Arial;' textLength='108.61px' lengthAdjust='spacingAndGlyphs'>Financial costs and benefits</text>
<text x='515.10' y='31.44' style='font-size: 8.80px; font-family: Arial;' textLength='77.79px' lengthAdjust='spacingAndGlyphs'>International politics</text>
<text x='515.10' y='48.72' style='font-size: 8.80px; font-family: Arial;' textLength='97.36px' lengthAdjust='spacingAndGlyphs'>Environmental protection</text>
</g>
</svg>
