<?xml version='1.0' encoding='UTF-8' ?>
<svg xmlns='http://www.w3.org/2000/svg' xmlns:xlink='http://www.w3.org/1999/xlink' class='svglite' width='720.00pt' height='432.00pt' viewBox='0 0 720.00 432.00'>
<defs>
  <style type='text/css'><![CDATA[
    .svglite line, .svglite polyline, .svglite polygon, .svglite path, .svglite rect, .svglite circle {
      fill: none;
      stroke: #000000;
      stroke-linecap: round;
      stroke-linejoin: round;
      stroke-miterlimit: 10.00;
    }
  ]]></style>
</defs>
<rect width='100%' height='100%' style='stroke: none; fill: none;'/>
<defs>
  <clipPath id='cpMC4wMHw3MjAuMDB8MC4wMHw0MzIuMDA='>
    <rect x='0.00' y='0.00' width='720.00' height='432.00' />
  </clipPath>
</defs>
<g clip-path='url(#cpMC4wMHw3MjAuMDB8MC4wMHw0MzIuMDA=)'>
</g>
<defs>
  <clipPath id='cpOTcuOTh8NzA1LjYwfDE0LjQwfDI3Ni43NQ=='>
    <rect x='97.98' y='14.40' width='607.62' height='262.35' />
  </clipPath>
</defs>
<g clip-path='url(#cpOTcuOTh8NzA1LjYwfDE0LjQwfDI3Ni43NQ==)'>
<polyline points='97.98,270.69 705.60,270.69 ' style='stroke-width: 0.53; stroke: #EBEBEB; stroke-linecap: butt;' />
<polyline points='97.98,211.76 705.60,211.76 ' style='stroke-width: 0.53; stroke: #EBEBEB; stroke-linecap: butt;' />
<polyline points='97.98,152.82 705.60,152.82 ' style='stroke-width: 0.53; stroke: #EBEBEB; stroke-linecap: butt;' />
<polyline points='97.98,93.89 705.60,93.89 ' style='stroke-width: 0.53; stroke: #EBEBEB; stroke-linecap: butt;' />
<polyline points='97.98,34.96 705.60,34.96 ' style='stroke-width: 0.53; stroke: #EBEBEB; stroke-linecap: butt;' />
<polyline points='97.98,241.22 705.60,241.22 ' style='stroke-width: 0.21; stroke: #BEBEBE; stroke-linecap: butt;' />
<polyline points='97.98,182.29 705.60,182.29 ' style='stroke-width: 0.21; stroke: #BEBEBE; stroke-linecap: butt;' />
<polyline points='97.98,123.36 705.60,123.36 ' style='stroke-width: 0.21; stroke: #BEBEBE; stroke-linecap: butt;' />
<polyline points='97.98,64.43 705.60,64.43 ' style='stroke-width: 0.21; stroke: #BEBEBE; stroke-linecap: butt;' />
<rect x='156.83' y='64.43' width='24.63' height='0.00' style='stroke-width: 0.21; stroke-linecap: square; stroke-linejoin: miter; fill: #FFFFFF;' />
<rect x='184.20' y='64.43' width='24.63' height='1.15' style='stroke-width: 0.21; stroke-linecap: square; stroke-linejoin: miter; fill: #FFFFFF;' />
<rect x='211.57' y='64.43' width='24.63' height='0.00' style='stroke-width: 0.21; stroke-linecap: square; stroke-linejoin: miter; fill: #FFFFFF;' />
<rect x='622.12' y='64.43' width='24.63' height='140.08' style='stroke-width: 0.21; stroke-linecap: square; stroke-linejoin: miter; fill: #FFFFFF;' />
<rect x='567.38' y='64.43' width='24.63' height='0.00' style='stroke-width: 0.21; stroke-linecap: square; stroke-linejoin: miter; fill: #FFFFFF;' />
<rect x='430.53' y='64.43' width='24.63' height='121.60' style='stroke-width: 0.21; stroke-linecap: square; stroke-linejoin: miter; fill: #FFFFFF;' />
<rect x='457.90' y='64.43' width='24.63' height='6.54' style='stroke-width: 0.21; stroke-linecap: square; stroke-linejoin: miter; fill: #FFFFFF;' />
<rect x='485.27' y='64.43' width='24.63' height='120.59' style='stroke-width: 0.21; stroke-linecap: square; stroke-linejoin: miter; fill: #FFFFFF;' />
<rect x='512.64' y='64.43' width='24.63' height='54.23' style='stroke-width: 0.21; stroke-linecap: square; stroke-linejoin: miter; fill: #FFFFFF;' />
<rect x='594.75' y='64.43' width='24.63' height='18.41' style='stroke-width: 0.21; stroke-linecap: square; stroke-linejoin: miter; fill: #FFFFFF;' />
<rect x='238.94' y='64.43' width='24.63' height='3.83' style='stroke-width: 0.21; stroke-linecap: square; stroke-linejoin: miter; fill: #FFFFFF;' />
<rect x='266.31' y='26.33' width='24.63' height='38.10' style='stroke-width: 0.21; stroke-linecap: square; stroke-linejoin: miter; fill: #FFFFFF;' />
<rect x='293.68' y='64.43' width='24.63' height='50.77' style='stroke-width: 0.21; stroke-linecap: square; stroke-linejoin: miter; fill: #FFFFFF;' />
<rect x='403.16' y='64.43' width='24.63' height='93.22' style='stroke-width: 0.21; stroke-linecap: square; stroke-linejoin: miter; fill: #FFFFFF;' />
<rect x='676.86' y='64.43' width='24.63' height='0.00' style='stroke-width: 0.21; stroke-linecap: square; stroke-linejoin: miter; fill: #FFFFFF;' />
<rect x='129.46' y='64.43' width='24.63' height='60.40' style='stroke-width: 0.21; stroke-linecap: square; stroke-linejoin: miter; fill: #FFFFFF;' />
<rect x='102.09' y='64.43' width='24.63' height='200.40' style='stroke-width: 0.21; stroke-linecap: square; stroke-linejoin: miter; fill: #FFFFFF;' />
<rect x='321.05' y='64.43' width='24.63' height='27.16' style='stroke-width: 0.21; stroke-linecap: square; stroke-linejoin: miter; fill: #FFFFFF;' />
<rect x='540.01' y='64.43' width='24.63' height='9.08' style='stroke-width: 0.21; stroke-linecap: square; stroke-linejoin: miter; fill: #FFFFFF;' />
<rect x='348.42' y='49.21' width='24.63' height='15.22' style='stroke-width: 0.21; stroke-linecap: square; stroke-linejoin: miter; fill: #FFFFFF;' />
<rect x='375.79' y='64.43' width='24.63' height='0.59' style='stroke-width: 0.21; stroke-linecap: square; stroke-linejoin: miter; fill: #FFFFFF;' />
<rect x='649.49' y='64.43' width='24.63' height='0.00' style='stroke-width: 0.21; stroke-linecap: square; stroke-linejoin: miter; fill: #FFFFFF;' />
</g>
<g clip-path='url(#cpMC4wMHw3MjAuMDB8MC4wMHw0MzIuMDA=)'>
<text x='93.05' y='244.37' text-anchor='end' style='font-size: 8.80px; fill: #4D4D4D; font-family: Arial;' textLength='22.51px' lengthAdjust='spacingAndGlyphs'>-1500</text>
<text x='93.05' y='185.44' text-anchor='end' style='font-size: 8.80px; fill: #4D4D4D; font-family: Arial;' textLength='22.51px' lengthAdjust='spacingAndGlyphs'>-1000</text>
<text x='93.05' y='126.51' text-anchor='end' style='font-size: 8.80px; fill: #4D4D4D; font-family: Arial;' textLength='17.62px' lengthAdjust='spacingAndGlyphs'>-500</text>
<text x='93.05' y='67.58' text-anchor='end' style='font-size: 8.80px; fill: #4D4D4D; font-family: Arial;' textLength='4.90px' lengthAdjust='spacingAndGlyphs'>0</text>
<text transform='translate(102.26,302.74) rotate(-45)' style='font-size: 8.80px; font-weight: bold; fill: #4D4D4D; font-family: Arial;' textLength='21.02px' lengthAdjust='spacingAndGlyphs'>Bezit</text>
<text transform='translate(117.13,287.87) rotate(-45)' style='font-size: 8.80px; fill: #4D4D4D; font-family: Arial;' textLength='2.45px' lengthAdjust='spacingAndGlyphs'>:</text>
<text transform='translate(67.19,349.34) rotate(-45)' style='font-size: 8.80px; fill: #4D4D4D; font-family: Arial;' textLength='19.56px' lengthAdjust='spacingAndGlyphs'>Bezit</text>
<text transform='translate(82.75,333.77) rotate(-45)' style='font-size: 8.80px; fill: #4D4D4D; font-family: Arial;' textLength='6.35px' lengthAdjust='spacingAndGlyphs'>is</text>
<text transform='translate(88.97,327.55) rotate(-45)' style='font-size: 8.80px; fill: #4D4D4D; font-family: Arial;' textLength='14.19px' lengthAdjust='spacingAndGlyphs'>niet</text>
<text transform='translate(100.74,315.78) rotate(-45)' style='font-size: 8.80px; fill: #4D4D4D; font-family: Arial;' textLength='33.78px' lengthAdjust='spacingAndGlyphs'>toestaan</text>
<text transform='translate(104.03,328.33) rotate(-45)' style='font-size: 8.80px; font-weight: bold; fill: #4D4D4D; font-family: Arial;' textLength='57.23px' lengthAdjust='spacingAndGlyphs'>Verpakkingen</text>
<text transform='translate(144.50,287.87) rotate(-45)' style='font-size: 8.80px; fill: #4D4D4D; font-family: Arial;' textLength='2.45px' lengthAdjust='spacingAndGlyphs'>:</text>
<text transform='translate(108.41,335.48) rotate(-45)' style='font-size: 8.80px; fill: #4D4D4D; font-family: Arial;' textLength='21.54px' lengthAdjust='spacingAndGlyphs'>Geen</text>
<text transform='translate(125.37,318.52) rotate(-45)' style='font-size: 8.80px; fill: #4D4D4D; font-family: Arial;' textLength='37.65px' lengthAdjust='spacingAndGlyphs'>restricties</text>
<text transform='translate(146.26,313.47) rotate(-45)' style='font-size: 8.80px; font-weight: bold; fill: #4D4D4D; font-family: Arial;' textLength='36.21px' lengthAdjust='spacingAndGlyphs'>Reclame</text>
<text transform='translate(171.87,287.87) rotate(-45)' style='font-size: 8.80px; fill: #4D4D4D; font-family: Arial;' textLength='2.45px' lengthAdjust='spacingAndGlyphs'>:</text>
<text transform='translate(127.13,344.14) rotate(-45)' style='font-size: 8.80px; fill: #4D4D4D; font-family: Arial;' textLength='34.72px' lengthAdjust='spacingAndGlyphs'>Reclame</text>
<text transform='translate(153.41,317.86) rotate(-45)' style='font-size: 8.80px; fill: #4D4D4D; font-family: Arial;' textLength='36.71px' lengthAdjust='spacingAndGlyphs'>verboden</text>
<text transform='translate(127.31,359.79) rotate(-45)' style='font-size: 8.80px; font-weight: bold; fill: #4D4D4D; font-family: Arial;' textLength='29.33px' lengthAdjust='spacingAndGlyphs'>Handel</text>
<text transform='translate(149.79,337.32) rotate(-45)' style='font-size: 8.80px; font-weight: bold; fill: #4D4D4D; font-family: Arial;' textLength='28.36px' lengthAdjust='spacingAndGlyphs'>tussen</text>
<text transform='translate(171.57,315.54) rotate(-45)' style='font-size: 8.80px; font-weight: bold; fill: #4D4D4D; font-family: Arial;' textLength='39.12px' lengthAdjust='spacingAndGlyphs'>bedrijven</text>
<text transform='translate(199.24,287.87) rotate(-45)' style='font-size: 8.80px; fill: #4D4D4D; font-family: Arial;' textLength='2.45px' lengthAdjust='spacingAndGlyphs'>:</text>
<text transform='translate(170.05,328.58) rotate(-45)' style='font-size: 8.80px; fill: #4D4D4D; font-family: Arial;' textLength='15.65px' lengthAdjust='spacingAndGlyphs'>Niet</text>
<text transform='translate(182.85,315.78) rotate(-45)' style='font-size: 8.80px; fill: #4D4D4D; font-family: Arial;' textLength='33.78px' lengthAdjust='spacingAndGlyphs'>toestaan</text>
<text transform='translate(147.43,367.05) rotate(-45)' style='font-size: 8.80px; font-weight: bold; fill: #4D4D4D; font-family: Arial;' textLength='34.72px' lengthAdjust='spacingAndGlyphs'>Verkoop</text>
<text transform='translate(173.71,340.77) rotate(-45)' style='font-size: 8.80px; font-weight: bold; fill: #4D4D4D; font-family: Arial;' textLength='15.16px' lengthAdjust='spacingAndGlyphs'>aan</text>
<text transform='translate(186.16,328.31) rotate(-45)' style='font-size: 8.80px; font-weight: bold; fill: #4D4D4D; font-family: Arial;' textLength='57.20px' lengthAdjust='spacingAndGlyphs'>consumenten</text>
<text transform='translate(226.61,287.87) rotate(-45)' style='font-size: 8.80px; fill: #4D4D4D; font-family: Arial;' textLength='2.45px' lengthAdjust='spacingAndGlyphs'>:</text>
<text transform='translate(197.43,328.58) rotate(-45)' style='font-size: 8.80px; fill: #4D4D4D; font-family: Arial;' textLength='15.65px' lengthAdjust='spacingAndGlyphs'>Niet</text>
<text transform='translate(210.22,315.78) rotate(-45)' style='font-size: 8.80px; fill: #4D4D4D; font-family: Arial;' textLength='33.78px' lengthAdjust='spacingAndGlyphs'>toestaan</text>
<text transform='translate(211.45,330.40) rotate(-45)' style='font-size: 8.80px; font-weight: bold; fill: #4D4D4D; font-family: Arial;' textLength='60.15px' lengthAdjust='spacingAndGlyphs'>Leeftijdsgrens</text>
<text transform='translate(253.98,287.87) rotate(-45)' style='font-size: 8.80px; fill: #4D4D4D; font-family: Arial;' textLength='2.45px' lengthAdjust='spacingAndGlyphs'>:</text>
<text transform='translate(158.37,395.00) rotate(-45)' style='font-size: 8.80px; fill: #4D4D4D; font-family: Arial;' textLength='11.25px' lengthAdjust='spacingAndGlyphs'>De</text>
<text transform='translate(168.05,385.32) rotate(-45)' style='font-size: 8.80px; fill: #4D4D4D; font-family: Arial;' textLength='51.85px' lengthAdjust='spacingAndGlyphs'>leeftijdsgrens</text>
<text transform='translate(206.45,346.92) rotate(-45)' style='font-size: 8.80px; fill: #4D4D4D; font-family: Arial;' textLength='6.35px' lengthAdjust='spacingAndGlyphs'>is</text>
<text transform='translate(212.67,340.70) rotate(-45)' style='font-size: 8.80px; fill: #4D4D4D; font-family: Arial;' textLength='22.51px' lengthAdjust='spacingAndGlyphs'>hoger</text>
<text transform='translate(230.32,323.05) rotate(-45)' style='font-size: 8.80px; fill: #4D4D4D; font-family: Arial;' textLength='14.69px' lengthAdjust='spacingAndGlyphs'>dan</text>
<text transform='translate(242.44,310.93) rotate(-45)' style='font-size: 8.80px; fill: #4D4D4D; font-family: Arial;' textLength='9.79px' lengthAdjust='spacingAndGlyphs'>18</text>
<text transform='translate(251.10,302.28) rotate(-45)' style='font-size: 8.80px; fill: #4D4D4D; font-family: Arial;' textLength='14.67px' lengthAdjust='spacingAndGlyphs'>jaar</text>
<text transform='translate(213.55,355.66) rotate(-45)' style='font-size: 8.80px; font-weight: bold; fill: #4D4D4D; font-family: Arial;' textLength='36.20px' lengthAdjust='spacingAndGlyphs'>Sancties</text>
<text transform='translate(240.88,328.33) rotate(-45)' style='font-size: 8.80px; font-weight: bold; fill: #4D4D4D; font-family: Arial;' textLength='57.23px' lengthAdjust='spacingAndGlyphs'>leeftijdsgrens</text>
<text transform='translate(281.35,287.87) rotate(-45)' style='font-size: 8.80px; fill: #4D4D4D; font-family: Arial;' textLength='2.45px' lengthAdjust='spacingAndGlyphs'>:</text>
<text transform='translate(243.17,337.57) rotate(-45)' style='font-size: 8.80px; fill: #4D4D4D; font-family: Arial;' textLength='27.40px' lengthAdjust='spacingAndGlyphs'>Beiden</text>
<text transform='translate(264.28,316.47) rotate(-45)' style='font-size: 8.80px; fill: #4D4D4D; font-family: Arial;' textLength='34.74px' lengthAdjust='spacingAndGlyphs'>strafbaar</text>
<text transform='translate(241.31,355.28) rotate(-45)' style='font-size: 8.80px; font-weight: bold; fill: #4D4D4D; font-family: Arial;' textLength='58.65px' lengthAdjust='spacingAndGlyphs'>Vergunningen</text>
<text transform='translate(284.51,312.07) rotate(-45)' style='font-size: 8.80px; font-weight: bold; fill: #4D4D4D; font-family: Arial;' textLength='34.23px' lengthAdjust='spacingAndGlyphs'>verkoop</text>
<text transform='translate(308.72,287.87) rotate(-45)' style='font-size: 8.80px; fill: #4D4D4D; font-family: Arial;' textLength='2.45px' lengthAdjust='spacingAndGlyphs'>:</text>
<text transform='translate(284.38,323.74) rotate(-45)' style='font-size: 8.80px; fill: #4D4D4D; font-family: Arial;' textLength='21.54px' lengthAdjust='spacingAndGlyphs'>Geen</text>
<text transform='translate(301.34,306.78) rotate(-45)' style='font-size: 8.80px; fill: #4D4D4D; font-family: Arial;' textLength='21.04px' lengthAdjust='spacingAndGlyphs'>eisen</text>
<text transform='translate(292.83,331.13) rotate(-45)' style='font-size: 8.80px; font-weight: bold; fill: #4D4D4D; font-family: Arial;' textLength='61.18px' lengthAdjust='spacingAndGlyphs'>Prijsrestricties</text>
<text transform='translate(336.09,287.87) rotate(-45)' style='font-size: 8.80px; fill: #4D4D4D; font-family: Arial;' textLength='2.45px' lengthAdjust='spacingAndGlyphs'>:</text>
<text transform='translate(288.60,346.89) rotate(-45)' style='font-size: 8.80px; fill: #4D4D4D; font-family: Arial;' textLength='21.54px' lengthAdjust='spacingAndGlyphs'>Geen</text>
<text transform='translate(305.56,329.93) rotate(-45)' style='font-size: 8.80px; fill: #4D4D4D; font-family: Arial;' textLength='53.78px' lengthAdjust='spacingAndGlyphs'>prijsrestricties</text>
<text transform='translate(280.81,370.52) rotate(-45)' style='font-size: 8.80px; font-weight: bold; fill: #4D4D4D; font-family: Arial;' textLength='27.36px' lengthAdjust='spacingAndGlyphs'>MDMA</text>
<text transform='translate(301.89,349.44) rotate(-45)' style='font-size: 8.80px; font-weight: bold; fill: #4D4D4D; font-family: Arial;' textLength='65.57px' lengthAdjust='spacingAndGlyphs'>kwaliteitsregels</text>
<text transform='translate(349.98,301.35) rotate(-45)' style='font-size: 8.80px; font-weight: bold; fill: #4D4D4D; font-family: Arial;' textLength='19.06px' lengthAdjust='spacingAndGlyphs'>(QA)</text>
<text transform='translate(363.46,287.87) rotate(-45)' style='font-size: 8.80px; fill: #4D4D4D; font-family: Arial;' textLength='2.45px' lengthAdjust='spacingAndGlyphs'>:</text>
<text transform='translate(252.30,410.56) rotate(-45)' style='font-size: 8.80px; fill: #4D4D4D; font-family: Arial;' textLength='21.54px' lengthAdjust='spacingAndGlyphs'>Geen</text>
<text transform='translate(269.26,393.60) rotate(-45)' style='font-size: 8.80px; fill: #4D4D4D; font-family: Arial;' textLength='89.51px' lengthAdjust='spacingAndGlyphs'>eisen/kwaliteitsdefinitie</text>
<text transform='translate(334.28,328.57) rotate(-45)' style='font-size: 8.80px; fill: #4D4D4D; font-family: Arial;' textLength='51.86px' lengthAdjust='spacingAndGlyphs'>geformuleerd</text>
<text transform='translate(347.62,331.08) rotate(-45)' style='font-size: 8.80px; font-weight: bold; fill: #4D4D4D; font-family: Arial;' textLength='13.20px' lengthAdjust='spacingAndGlyphs'>QA</text>
<text transform='translate(358.68,320.02) rotate(-45)' style='font-size: 8.80px; font-weight: bold; fill: #4D4D4D; font-family: Arial;' textLength='45.47px' lengthAdjust='spacingAndGlyphs'>bestraffing</text>
<text transform='translate(390.83,287.87) rotate(-45)' style='font-size: 8.80px; fill: #4D4D4D; font-family: Arial;' textLength='2.45px' lengthAdjust='spacingAndGlyphs'>:</text>
<text transform='translate(383.10,307.13) rotate(-45)' style='font-size: 8.80px; fill: #4D4D4D; font-family: Arial;' textLength='21.54px' lengthAdjust='spacingAndGlyphs'>Geen</text>
<text transform='translate(386.07,320.00) rotate(-45)' style='font-size: 8.80px; font-weight: bold; fill: #4D4D4D; font-family: Arial;' textLength='45.44px' lengthAdjust='spacingAndGlyphs'>Monitoring</text>
<text transform='translate(418.20,287.87) rotate(-45)' style='font-size: 8.80px; fill: #4D4D4D; font-family: Arial;' textLength='2.45px' lengthAdjust='spacingAndGlyphs'>:</text>
<text transform='translate(410.47,307.13) rotate(-45)' style='font-size: 8.80px; fill: #4D4D4D; font-family: Arial;' textLength='21.54px' lengthAdjust='spacingAndGlyphs'>Geen</text>
<text transform='translate(395.78,337.66) rotate(-45)' style='font-size: 8.80px; font-weight: bold; fill: #4D4D4D; font-family: Arial;' textLength='12.22px' lengthAdjust='spacingAndGlyphs'>HP</text>
<text transform='translate(406.15,327.29) rotate(-45)' style='font-size: 8.80px; font-weight: bold; fill: #4D4D4D; font-family: Arial;' textLength='52.32px' lengthAdjust='spacingAndGlyphs'>subsidiering</text>
<text transform='translate(443.15,290.29) rotate(-45)' style='font-size: 8.80px; fill: #4D4D4D; font-family: Arial;' textLength='5.88px' lengthAdjust='spacingAndGlyphs'>*:</text>
<text transform='translate(442.00,302.96) rotate(-45)' style='font-size: 8.80px; fill: #4D4D4D; font-family: Arial;' textLength='15.65px' lengthAdjust='spacingAndGlyphs'>Niet</text>
<text transform='translate(424.19,336.62) rotate(-45)' style='font-size: 8.80px; font-weight: bold; fill: #4D4D4D; font-family: Arial;' textLength='12.22px' lengthAdjust='spacingAndGlyphs'>HP</text>
<text transform='translate(434.56,326.25) rotate(-45)' style='font-size: 8.80px; font-weight: bold; fill: #4D4D4D; font-family: Arial;' textLength='54.28px' lengthAdjust='spacingAndGlyphs'>management</text>
<text transform='translate(472.94,287.87) rotate(-45)' style='font-size: 8.80px; fill: #4D4D4D; font-family: Arial;' textLength='2.45px' lengthAdjust='spacingAndGlyphs'>:</text>
<text transform='translate(465.91,306.43) rotate(-45)' style='font-size: 8.80px; fill: #4D4D4D; font-family: Arial;' textLength='20.54px' lengthAdjust='spacingAndGlyphs'>Sterk</text>
<text transform='translate(456.73,331.44) rotate(-45)' style='font-size: 8.80px; font-weight: bold; fill: #4D4D4D; font-family: Arial;' textLength='12.22px' lengthAdjust='spacingAndGlyphs'>HP</text>
<text transform='translate(467.11,321.07) rotate(-45)' style='font-size: 8.80px; font-weight: bold; fill: #4D4D4D; font-family: Arial;' textLength='46.96px' lengthAdjust='spacingAndGlyphs'>perspectief</text>
<text transform='translate(500.31,287.87) rotate(-45)' style='font-size: 8.80px; fill: #4D4D4D; font-family: Arial;' textLength='2.45px' lengthAdjust='spacingAndGlyphs'>:</text>
<text transform='translate(477.01,322.69) rotate(-45)' style='font-size: 8.80px; fill: #4D4D4D; font-family: Arial;' textLength='43.55px' lengthAdjust='spacingAndGlyphs'>Abstinentie</text>
<text transform='translate(467.85,347.70) rotate(-45)' style='font-size: 8.80px; font-weight: bold; fill: #4D4D4D; font-family: Arial;' textLength='12.22px' lengthAdjust='spacingAndGlyphs'>HP</text>
<text transform='translate(478.22,337.33) rotate(-45)' style='font-size: 8.80px; font-weight: bold; fill: #4D4D4D; font-family: Arial;' textLength='69.94px' lengthAdjust='spacingAndGlyphs'>verantwoordelijk</text>
<text transform='translate(527.68,287.87) rotate(-45)' style='font-size: 8.80px; fill: #4D4D4D; font-family: Arial;' textLength='2.45px' lengthAdjust='spacingAndGlyphs'>:</text>
<text transform='translate(494.34,332.73) rotate(-45)' style='font-size: 8.80px; fill: #4D4D4D; font-family: Arial;' textLength='21.54px' lengthAdjust='spacingAndGlyphs'>Geen</text>
<text transform='translate(511.30,315.77) rotate(-45)' style='font-size: 8.80px; fill: #4D4D4D; font-family: Arial;' textLength='33.76px' lengthAdjust='spacingAndGlyphs'>overheid</text>
<text transform='translate(492.83,350.09) rotate(-45)' style='font-size: 8.80px; font-weight: bold; fill: #4D4D4D; font-family: Arial;' textLength='40.58px' lengthAdjust='spacingAndGlyphs'>Productie</text>
<text transform='translate(523.25,319.67) rotate(-45)' style='font-size: 8.80px; font-weight: bold; fill: #4D4D4D; font-family: Arial;' textLength='15.16px' lengthAdjust='spacingAndGlyphs'>van</text>
<text transform='translate(535.70,307.22) rotate(-45)' style='font-size: 8.80px; font-weight: bold; fill: #4D4D4D; font-family: Arial;' textLength='27.36px' lengthAdjust='spacingAndGlyphs'>MDMA</text>
<text transform='translate(555.05,287.87) rotate(-45)' style='font-size: 8.80px; fill: #4D4D4D; font-family: Arial;' textLength='2.45px' lengthAdjust='spacingAndGlyphs'>:</text>
<text transform='translate(537.28,317.16) rotate(-45)' style='font-size: 8.80px; fill: #4D4D4D; font-family: Arial;' textLength='35.73px' lengthAdjust='spacingAndGlyphs'>Toestaan</text>
<text transform='translate(544.39,325.90) rotate(-45)' style='font-size: 8.80px; font-weight: bold; fill: #4D4D4D; font-family: Arial;' textLength='53.78px' lengthAdjust='spacingAndGlyphs'>Exportstatus</text>
<text transform='translate(582.42,287.87) rotate(-45)' style='font-size: 8.80px; fill: #4D4D4D; font-family: Arial;' textLength='2.45px' lengthAdjust='spacingAndGlyphs'>:</text>
<text transform='translate(570.20,311.62) rotate(-45)' style='font-size: 8.80px; fill: #4D4D4D; font-family: Arial;' textLength='27.89px' lengthAdjust='spacingAndGlyphs'>Illegaal</text>
<text transform='translate(541.31,356.35) rotate(-45)' style='font-size: 8.80px; font-weight: bold; fill: #4D4D4D; font-family: Arial;' textLength='57.70px' lengthAdjust='spacingAndGlyphs'>Internationale</text>
<text transform='translate(583.85,313.81) rotate(-45)' style='font-size: 8.80px; font-weight: bold; fill: #4D4D4D; font-family: Arial;' textLength='36.69px' lengthAdjust='spacingAndGlyphs'>strategie</text>
<text transform='translate(609.79,287.87) rotate(-45)' style='font-size: 8.80px; fill: #4D4D4D; font-family: Arial;' textLength='2.45px' lengthAdjust='spacingAndGlyphs'>:</text>
<text transform='translate(561.25,347.94) rotate(-45)' style='font-size: 8.80px; fill: #4D4D4D; font-family: Arial;' textLength='79.24px' lengthAdjust='spacingAndGlyphs'>Uitzonderingspositie</text>
<text transform='translate(584.59,340.44) rotate(-45)' style='font-size: 8.80px; font-weight: bold; fill: #4D4D4D; font-family: Arial;' textLength='36.19px' lengthAdjust='spacingAndGlyphs'>Prioriteit</text>
<text transform='translate(611.91,313.12) rotate(-45)' style='font-size: 8.80px; font-weight: bold; fill: #4D4D4D; font-family: Arial;' textLength='35.70px' lengthAdjust='spacingAndGlyphs'>misdaad</text>
<text transform='translate(637.16,287.87) rotate(-45)' style='font-size: 8.80px; fill: #4D4D4D; font-family: Arial;' textLength='2.45px' lengthAdjust='spacingAndGlyphs'>:</text>
<text transform='translate(629.78,306.78) rotate(-45)' style='font-size: 8.80px; fill: #4D4D4D; font-family: Arial;' textLength='21.04px' lengthAdjust='spacingAndGlyphs'>Hoog</text>
<text transform='translate(621.28,331.12) rotate(-45)' style='font-size: 8.80px; font-weight: bold; fill: #4D4D4D; font-family: Arial;' textLength='39.64px' lengthAdjust='spacingAndGlyphs'>Maximale</text>
<text transform='translate(651.04,301.36) rotate(-45)' style='font-size: 8.80px; font-weight: bold; fill: #4D4D4D; font-family: Arial;' textLength='19.08px' lengthAdjust='spacingAndGlyphs'>straf</text>
<text transform='translate(664.53,287.87) rotate(-45)' style='font-size: 8.80px; fill: #4D4D4D; font-family: Arial;' textLength='2.45px' lengthAdjust='spacingAndGlyphs'>:</text>
<text transform='translate(593.83,370.10) rotate(-45)' style='font-size: 8.80px; fill: #4D4D4D; font-family: Arial;' textLength='29.84px' lengthAdjust='spacingAndGlyphs'>Huidige</text>
<text transform='translate(616.65,347.27) rotate(-45)' style='font-size: 8.80px; fill: #4D4D4D; font-family: Arial;' textLength='36.69px' lengthAdjust='spacingAndGlyphs'>strafmaat</text>
<text transform='translate(644.33,319.60) rotate(-45)' style='font-size: 8.80px; fill: #4D4D4D; font-family: Arial;' textLength='39.17px' lengthAdjust='spacingAndGlyphs'>behouden</text>
<text transform='translate(659.07,320.70) rotate(-45)' style='font-size: 8.80px; font-weight: bold; fill: #4D4D4D; font-family: Arial;' textLength='46.43px' lengthAdjust='spacingAndGlyphs'>Ontneming</text>
<text transform='translate(691.90,287.87) rotate(-45)' style='font-size: 8.80px; fill: #4D4D4D; font-family: Arial;' textLength='2.45px' lengthAdjust='spacingAndGlyphs'>:</text>
<text transform='translate(640.24,351.06) rotate(-45)' style='font-size: 8.80px; fill: #4D4D4D; font-family: Arial;' textLength='15.65px' lengthAdjust='spacingAndGlyphs'>Niet</text>
<text transform='translate(653.03,338.27) rotate(-45)' style='font-size: 8.80px; fill: #4D4D4D; font-family: Arial;' textLength='20.05px' lengthAdjust='spacingAndGlyphs'>meer</text>
<text transform='translate(668.94,322.36) rotate(-45)' style='font-size: 8.80px; fill: #4D4D4D; font-family: Arial;' textLength='9.79px' lengthAdjust='spacingAndGlyphs'>op</text>
<text transform='translate(677.60,313.70) rotate(-45)' style='font-size: 8.80px; fill: #4D4D4D; font-family: Arial;' textLength='30.83px' lengthAdjust='spacingAndGlyphs'>inzetten</text>
<text x='401.79' y='422.48' text-anchor='middle' style='font-size: 11.00px; font-family: Arial;' textLength='192.07px' lengthAdjust='spacingAndGlyphs'>Beleidsinstrumenten en gekozen opties</text>
<text transform='translate(65.48,145.58) rotate(-90)' text-anchor='middle' style='font-size: 11.00px; font-family: Arial;' textLength='28.74px' lengthAdjust='spacingAndGlyphs'>Score</text>
</g>
</svg>
