<?xml version='1.0' encoding='UTF-8' ?>
<svg xmlns='http://www.w3.org/2000/svg' xmlns:xlink='http://www.w3.org/1999/xlink' class='svglite' width='360.00pt' height='360.00pt' viewBox='0 0 360.00 360.00'>
<defs>
  <style type='text/css'><![CDATA[
    .svglite line, .svglite polyline, .svglite polygon, .svglite path, .svglite rect, .svglite circle {
      fill: none;
      stroke: #000000;
      stroke-linecap: round;
      stroke-linejoin: round;
      stroke-miterlimit: 10.00;
    }
  ]]></style>
</defs>
<rect width='100%' height='100%' style='stroke: none; fill: none;'/>
<defs>
  <clipPath id='cpMC4wMHwzNjAuMDB8MC4wMHwzNjAuMDA='>
    <rect x='0.00' y='0.00' width='360.00' height='360.00' />
  </clipPath>
</defs>
<g clip-path='url(#cpMC4wMHwzNjAuMDB8MC4wMHwzNjAuMDA=)'>
<rect x='-0.000000000000032' y='0.00' width='360.00' height='360.00' style='stroke-width: 2.13;' />
</g>
<defs>
  <clipPath id='cpMjg2LjgxfDM1MS4wMHw2MC45NXwzNDguMDE='>
    <rect x='286.81' y='60.95' width='64.19' height='287.06' />
  </clipPath>
</defs>
<g clip-path='url(#cpMjg2LjgxfDM1MS4wMHw2MC45NXwzNDguMDE=)'>
<rect x='-130.45' y='100.10' width='933.73' height='208.77' style='stroke-width: 1.07; stroke: none; stroke-linecap: square; stroke-linejoin: miter; fill: #FFFFFF;' />
<line x1='286.81' y1='100.10' x2='351.00' y2='100.10' style='stroke-width: 2.13; stroke: #BBBBBB; stroke-linecap: butt;' />
<line x1='286.81' y1='152.29' x2='351.00' y2='152.29' style='stroke-width: 2.13; stroke: #BBBBBB; stroke-linecap: butt;' />
<line x1='286.81' y1='204.48' x2='351.00' y2='204.48' style='stroke-width: 2.13; stroke: #BBBBBB; stroke-linecap: butt;' />
<line x1='286.81' y1='256.67' x2='351.00' y2='256.67' style='stroke-width: 2.13; stroke: #BBBBBB; stroke-linecap: butt;' />
<line x1='286.81' y1='308.87' x2='351.00' y2='308.87' style='stroke-width: 2.13; stroke: #BBBBBB; stroke-linecap: butt;' />
<circle cx='336.41' cy='204.48' r='6.76' style='stroke-width: 0.71; fill: #000000;' />
<text x='324.74' y='212.62' text-anchor='end' style='font-size: 22.76px; font-family: Arial;' textLength='12.65px' lengthAdjust='spacingAndGlyphs'>0</text>
<circle cx='336.41' cy='308.87' r='6.76' style='stroke-width: 0.71; fill: #000000;' />
<text x='324.74' y='317.01' text-anchor='end' style='font-size: 22.76px; font-family: Arial;' textLength='45.53px' lengthAdjust='spacingAndGlyphs'>-100</text>
<line x1='336.41' y1='204.48' x2='336.41' y2='308.87' style='stroke-width: 4.27; stroke-linecap: butt;' />
<circle cx='336.41' cy='100.10' r='6.76' style='stroke-width: 0.71; fill: #000000;' />
<text x='324.74' y='108.24' text-anchor='end' style='font-size: 22.76px; font-family: Arial;' textLength='37.95px' lengthAdjust='spacingAndGlyphs'>100</text>
<line x1='336.41' y1='204.48' x2='336.41' y2='100.10' style='stroke-width: 4.27; stroke-linecap: butt;' />
</g>
<g clip-path='url(#cpMC4wMHwzNjAuMDB8MC4wMHwzNjAuMDA=)'>
<text x='281.43' y='307.12' text-anchor='end' style='font-size: 9.60px; fill: #4D4D4D; font-family: Arial;' textLength='272.43px' lengthAdjust='spacingAndGlyphs'>Extreme Negative: Last-year MDMA prevalence among adults is</text>
<text x='281.43' y='317.49' text-anchor='end' style='font-size: 9.60px; fill: #4D4D4D; font-family: Arial;' textLength='72.53px' lengthAdjust='spacingAndGlyphs'>higher than 25%.</text>
<text x='281.43' y='207.92' text-anchor='end' style='font-size: 9.60px; fill: #4D4D4D; font-family: Arial;' textLength='131.93px' lengthAdjust='spacingAndGlyphs'>Status quo (~3% uses MDMA).</text>
<text x='281.43' y='98.35' text-anchor='end' style='font-size: 9.60px; fill: #4D4D4D; font-family: Arial;' textLength='219.12px' lengthAdjust='spacingAndGlyphs'>Extreme Positive: last-year prevalence among adult</text>
<text x='281.43' y='108.71' text-anchor='end' style='font-size: 9.60px; fill: #4D4D4D; font-family: Arial;' textLength='108.78px' lengthAdjust='spacingAndGlyphs'>population is below 0.1%.</text>
<text x='351.00' y='52.45' text-anchor='end' style='font-size: 12.00px; font-family: Arial;' textLength='270.19px' lengthAdjust='spacingAndGlyphs'>Prevalence of MDMA use in the general population</text>
<text x='351.00' y='19.30' text-anchor='end' style='font-size: 14.40px; font-family: Arial;' textLength='173.64px' lengthAdjust='spacingAndGlyphs'>Prevalentie in de populatie.</text>
<text x='351.00' y='34.86' text-anchor='end' style='font-size: 14.40px; font-family: Arial;' textLength='245.66px' lengthAdjust='spacingAndGlyphs'>[Prevalence in the general population.]</text>
</g>
</svg>
