<?xml version='1.0' encoding='UTF-8' ?>
<svg xmlns='http://www.w3.org/2000/svg' xmlns:xlink='http://www.w3.org/1999/xlink' class='svglite' width='360.00pt' height='360.00pt' viewBox='0 0 360.00 360.00'>
<defs>
  <style type='text/css'><![CDATA[
    .svglite line, .svglite polyline, .svglite polygon, .svglite path, .svglite rect, .svglite circle {
      fill: none;
      stroke: #000000;
      stroke-linecap: round;
      stroke-linejoin: round;
      stroke-miterlimit: 10.00;
    }
  ]]></style>
</defs>
<rect width='100%' height='100%' style='stroke: none; fill: none;'/>
<defs>
  <clipPath id='cpMC4wMHwzNjAuMDB8MC4wMHwzNjAuMDA='>
    <rect x='0.00' y='0.00' width='360.00' height='360.00' />
  </clipPath>
</defs>
<g clip-path='url(#cpMC4wMHwzNjAuMDB8MC4wMHwzNjAuMDA=)'>
<rect x='-0.000000000000032' y='0.00' width='360.00' height='360.00' style='stroke-width: 2.13;' />
</g>
<defs>
  <clipPath id='cpMjY3LjExfDM1MS4wMHw3My45MXwzNDguMDE='>
    <rect x='267.11' y='73.91' width='83.89' height='274.10' />
  </clipPath>
</defs>
<g clip-path='url(#cpMjY3LjExfDM1MS4wMHw3My45MXwzNDguMDE=)'>
<rect x='-278.20' y='111.29' width='1220.26' height='199.35' style='stroke-width: 1.07; stroke: none; stroke-linecap: square; stroke-linejoin: miter; fill: #FFFFFF;' />
<line x1='267.11' y1='111.29' x2='351.00' y2='111.29' style='stroke-width: 2.13; stroke: #BBBBBB; stroke-linecap: butt;' />
<line x1='267.11' y1='161.12' x2='351.00' y2='161.12' style='stroke-width: 2.13; stroke: #BBBBBB; stroke-linecap: butt;' />
<line x1='267.11' y1='210.96' x2='351.00' y2='210.96' style='stroke-width: 2.13; stroke: #BBBBBB; stroke-linecap: butt;' />
<line x1='267.11' y1='260.80' x2='351.00' y2='260.80' style='stroke-width: 2.13; stroke: #BBBBBB; stroke-linecap: butt;' />
<line x1='267.11' y1='310.63' x2='351.00' y2='310.63' style='stroke-width: 2.13; stroke: #BBBBBB; stroke-linecap: butt;' />
<circle cx='331.93' cy='210.96' r='6.76' style='stroke-width: 0.71; fill: #000000;' />
<text x='316.68' y='219.10' text-anchor='end' style='font-size: 22.76px; font-family: Arial;' textLength='12.65px' lengthAdjust='spacingAndGlyphs'>0</text>
<circle cx='331.93' cy='111.29' r='6.76' style='stroke-width: 0.71; fill: #000000;' />
<text x='316.68' y='119.43' text-anchor='end' style='font-size: 22.76px; font-family: Arial;' textLength='37.95px' lengthAdjust='spacingAndGlyphs'>100</text>
<line x1='331.93' y1='210.96' x2='331.93' y2='111.29' style='stroke-width: 4.27; stroke-linecap: butt;' />
</g>
<g clip-path='url(#cpMC4wMHwzNjAuMDB8MC4wMHwzNjAuMDA=)'>
<text x='261.73' y='209.21' text-anchor='end' style='font-size: 9.60px; fill: #4D4D4D; font-family: Arial;' textLength='242.09px' lengthAdjust='spacingAndGlyphs'>Status quo: there are no state revenues through VAT and</text>
<text x='261.73' y='219.58' text-anchor='end' style='font-size: 9.60px; fill: #4D4D4D; font-family: Arial;' textLength='37.32px' lengthAdjust='spacingAndGlyphs'>licenses.</text>
<text x='261.73' y='109.54' text-anchor='end' style='font-size: 9.60px; fill: #4D4D4D; font-family: Arial;' textLength='252.73px' lengthAdjust='spacingAndGlyphs'>Extreme Positive: Substantial state revenues are generated</text>
<text x='261.73' y='119.91' text-anchor='end' style='font-size: 9.60px; fill: #4D4D4D; font-family: Arial;' textLength='110.90px' lengthAdjust='spacingAndGlyphs'>through VAT and licenses.</text>
<text x='351.00' y='52.45' text-anchor='end' style='font-size: 12.00px; font-family: Arial;' textLength='315.58px' lengthAdjust='spacingAndGlyphs'>States can charge revenues such as VAT and licences over</text>
<text x='351.00' y='65.41' text-anchor='end' style='font-size: 12.00px; font-family: Arial;' textLength='142.77px' lengthAdjust='spacingAndGlyphs'>the sales of legal products.</text>
<text x='351.00' y='19.30' text-anchor='end' style='font-size: 14.40px; font-family: Arial;' textLength='227.22px' lengthAdjust='spacingAndGlyphs'>Inkomsten: via BTW, vergunningen.</text>
<text x='351.00' y='34.86' text-anchor='end' style='font-size: 14.40px; font-family: Arial;' textLength='182.69px' lengthAdjust='spacingAndGlyphs'>[State revenue through VAT.]</text>
</g>
</svg>
