<?xml version='1.0' encoding='UTF-8' ?>
<svg xmlns='http://www.w3.org/2000/svg' xmlns:xlink='http://www.w3.org/1999/xlink' class='svglite' width='360.00pt' height='360.00pt' viewBox='0 0 360.00 360.00'>
<defs>
  <style type='text/css'><![CDATA[
    .svglite line, .svglite polyline, .svglite polygon, .svglite path, .svglite rect, .svglite circle {
      fill: none;
      stroke: #000000;
      stroke-linecap: round;
      stroke-linejoin: round;
      stroke-miterlimit: 10.00;
    }
  ]]></style>
</defs>
<rect width='100%' height='100%' style='stroke: none; fill: none;'/>
<defs>
  <clipPath id='cpMC4wMHwzNjAuMDB8MC4wMHwzNjAuMDA='>
    <rect x='0.00' y='0.00' width='360.00' height='360.00' />
  </clipPath>
</defs>
<g clip-path='url(#cpMC4wMHwzNjAuMDB8MC4wMHwzNjAuMDA=)'>
<rect x='-0.000000000000032' y='0.00' width='360.00' height='360.00' style='stroke-width: 2.13;' />
</g>
<defs>
  <clipPath id='cpMjYyLjY2fDM1MS4wMHwxMTcuOTh8MzQ4LjAx'>
    <rect x='262.66' y='117.98' width='88.34' height='230.04' />
  </clipPath>
</defs>
<g clip-path='url(#cpMjYyLjY2fDM1MS4wMHwxMTcuOTh8MzQ4LjAx)'>
<rect x='-311.52' y='149.34' width='1284.88' height='167.30' style='stroke-width: 1.07; stroke: none; stroke-linecap: square; stroke-linejoin: miter; fill: #FFFFFF;' />
<line x1='262.66' y1='149.34' x2='351.00' y2='149.34' style='stroke-width: 2.13; stroke: #BBBBBB; stroke-linecap: butt;' />
<line x1='262.66' y1='191.17' x2='351.00' y2='191.17' style='stroke-width: 2.13; stroke: #BBBBBB; stroke-linecap: butt;' />
<line x1='262.66' y1='232.99' x2='351.00' y2='232.99' style='stroke-width: 2.13; stroke: #BBBBBB; stroke-linecap: butt;' />
<line x1='262.66' y1='274.82' x2='351.00' y2='274.82' style='stroke-width: 2.13; stroke: #BBBBBB; stroke-linecap: butt;' />
<line x1='262.66' y1='316.64' x2='351.00' y2='316.64' style='stroke-width: 2.13; stroke: #BBBBBB; stroke-linecap: butt;' />
<circle cx='330.92' cy='232.99' r='6.76' style='stroke-width: 0.71; fill: #000000;' />
<text x='314.86' y='241.14' text-anchor='end' style='font-size: 22.76px; font-family: Arial;' textLength='12.65px' lengthAdjust='spacingAndGlyphs'>0</text>
<circle cx='330.92' cy='316.64' r='6.76' style='stroke-width: 0.71; fill: #000000;' />
<text x='314.86' y='324.79' text-anchor='end' style='font-size: 22.76px; font-family: Arial;' textLength='45.53px' lengthAdjust='spacingAndGlyphs'>-100</text>
<line x1='330.92' y1='232.99' x2='330.92' y2='316.64' style='stroke-width: 4.27; stroke-linecap: butt;' />
<circle cx='330.92' cy='149.34' r='6.76' style='stroke-width: 0.71; fill: #000000;' />
<text x='314.86' y='157.49' text-anchor='end' style='font-size: 22.76px; font-family: Arial;' textLength='37.95px' lengthAdjust='spacingAndGlyphs'>100</text>
<line x1='330.92' y1='232.99' x2='330.92' y2='149.34' style='stroke-width: 4.27; stroke-linecap: butt;' />
</g>
<g clip-path='url(#cpMC4wMHwzNjAuMDB8MC4wMHwzNjAuMDA=)'>
<text x='257.28' y='314.89' text-anchor='end' style='font-size: 9.60px; fill: #4D4D4D; font-family: Arial;' textLength='213.80px' lengthAdjust='spacingAndGlyphs'>Extreme Negative: there is no respect for personal</text>
<text x='257.28' y='325.26' text-anchor='end' style='font-size: 9.60px; fill: #4D4D4D; font-family: Arial;' textLength='236.73px' lengthAdjust='spacingAndGlyphs'>autonomy: users’ substance use is controlled externally.</text>
<text x='257.28' y='220.88' text-anchor='end' style='font-size: 9.60px; fill: #4D4D4D; font-family: Arial;' textLength='235.30px' lengthAdjust='spacingAndGlyphs'>Status quo: some respect for users’ right to use, but not</text>
<text x='257.28' y='231.24' text-anchor='end' style='font-size: 9.60px; fill: #4D4D4D; font-family: Arial;' textLength='242.09px' lengthAdjust='spacingAndGlyphs'>for e.g. sharing substances and providing for friends, and</text>
<text x='257.28' y='241.61' text-anchor='end' style='font-size: 9.60px; fill: #4D4D4D; font-family: Arial;' textLength='237.80px' lengthAdjust='spacingAndGlyphs'>users are forced onto the black market to purchase their</text>
<text x='257.28' y='251.98' text-anchor='end' style='font-size: 9.60px; fill: #4D4D4D; font-family: Arial;' textLength='51.18px' lengthAdjust='spacingAndGlyphs'>substances.</text>
<text x='257.28' y='142.41' text-anchor='end' style='font-size: 9.60px; fill: #4D4D4D; font-family: Arial;' textLength='227.64px' lengthAdjust='spacingAndGlyphs'>Extreme Positive: there is a lot of respect for personal</text>
<text x='257.28' y='152.78' text-anchor='end' style='font-size: 9.60px; fill: #4D4D4D; font-family: Arial;' textLength='248.28px' lengthAdjust='spacingAndGlyphs'>autonomy. Users have choices regarding how they want to</text>
<text x='257.28' y='163.15' text-anchor='end' style='font-size: 9.60px; fill: #4D4D4D; font-family: Arial;' textLength='97.57px' lengthAdjust='spacingAndGlyphs'>obtain and use MDMA.</text>
<text x='351.00' y='83.56' text-anchor='end' style='font-size: 12.00px; font-family: Arial;' textLength='298.85px' lengthAdjust='spacingAndGlyphs'>Respect for self-determination to use recreational drugs,</text>
<text x='351.00' y='96.52' text-anchor='end' style='font-size: 12.00px; font-family: Arial;' textLength='255.04px' lengthAdjust='spacingAndGlyphs'>includes the availability of ‘clean’ pills without an</text>
<text x='351.00' y='109.48' text-anchor='end' style='font-size: 12.00px; font-family: Arial;' textLength='119.42px' lengthAdjust='spacingAndGlyphs'>environmental burden.</text>
<text x='351.00' y='19.30' text-anchor='end' style='font-size: 14.40px; font-family: Arial;' textLength='229.64px' lengthAdjust='spacingAndGlyphs'>Uiting van liberale waarden (respect</text>
<text x='351.00' y='34.86' text-anchor='end' style='font-size: 14.40px; font-family: Arial;' textLength='227.26px' lengthAdjust='spacingAndGlyphs'>voor drugsgebruik, gebruik ‘schone’</text>
<text x='351.00' y='50.41' text-anchor='end' style='font-size: 14.40px; font-family: Arial;' textLength='180.01px' lengthAdjust='spacingAndGlyphs'>pillen). [Expression of liberal</text>
<text x='351.00' y='65.96' text-anchor='end' style='font-size: 14.40px; font-family: Arial;' textLength='49.61px' lengthAdjust='spacingAndGlyphs'>values.]</text>
</g>
</svg>
