<?xml version='1.0' encoding='UTF-8' ?>
<svg xmlns='http://www.w3.org/2000/svg' xmlns:xlink='http://www.w3.org/1999/xlink' class='svglite' width='360.00pt' height='360.00pt' viewBox='0 0 360.00 360.00'>
<defs>
  <style type='text/css'><![CDATA[
    .svglite line, .svglite polyline, .svglite polygon, .svglite path, .svglite rect, .svglite circle {
      fill: none;
      stroke: #000000;
      stroke-linecap: round;
      stroke-linejoin: round;
      stroke-miterlimit: 10.00;
    }
  ]]></style>
</defs>
<rect width='100%' height='100%' style='stroke: none; fill: none;'/>
<defs>
  <clipPath id='cpMC4wMHwzNjAuMDB8MC4wMHwzNjAuMDA='>
    <rect x='0.00' y='0.00' width='360.00' height='360.00' />
  </clipPath>
</defs>
<g clip-path='url(#cpMC4wMHwzNjAuMDB8MC4wMHwzNjAuMDA=)'>
<rect x='-0.000000000000032' y='0.00' width='360.00' height='360.00' style='stroke-width: 2.13;' />
</g>
<defs>
  <clipPath id='cpMjYxLjI0fDM1MS4wMHwxMDIuNDJ8MzQ4LjAx'>
    <rect x='261.24' y='102.42' width='89.76' height='245.59' />
  </clipPath>
</defs>
<g clip-path='url(#cpMjYxLjI0fDM1MS4wMHwxMDIuNDJ8MzQ4LjAx)'>
<rect x='-322.21' y='135.91' width='1305.61' height='178.61' style='stroke-width: 1.07; stroke: none; stroke-linecap: square; stroke-linejoin: miter; fill: #FFFFFF;' />
<line x1='261.24' y1='135.91' x2='351.00' y2='135.91' style='stroke-width: 2.13; stroke: #BBBBBB; stroke-linecap: butt;' />
<line x1='261.24' y1='180.56' x2='351.00' y2='180.56' style='stroke-width: 2.13; stroke: #BBBBBB; stroke-linecap: butt;' />
<line x1='261.24' y1='225.22' x2='351.00' y2='225.22' style='stroke-width: 2.13; stroke: #BBBBBB; stroke-linecap: butt;' />
<line x1='261.24' y1='269.87' x2='351.00' y2='269.87' style='stroke-width: 2.13; stroke: #BBBBBB; stroke-linecap: butt;' />
<line x1='261.24' y1='314.52' x2='351.00' y2='314.52' style='stroke-width: 2.13; stroke: #BBBBBB; stroke-linecap: butt;' />
<circle cx='330.60' cy='225.22' r='6.76' style='stroke-width: 0.71; fill: #000000;' />
<text x='314.28' y='233.36' text-anchor='end' style='font-size: 22.76px; font-family: Arial;' textLength='12.65px' lengthAdjust='spacingAndGlyphs'>0</text>
<circle cx='330.60' cy='314.52' r='6.76' style='stroke-width: 0.71; fill: #000000;' />
<text x='314.28' y='322.67' text-anchor='end' style='font-size: 22.76px; font-family: Arial;' textLength='45.53px' lengthAdjust='spacingAndGlyphs'>-100</text>
<line x1='330.60' y1='225.22' x2='330.60' y2='314.52' style='stroke-width: 4.27; stroke-linecap: butt;' />
<circle cx='330.60' cy='135.91' r='6.76' style='stroke-width: 0.71; fill: #000000;' />
<text x='314.28' y='144.06' text-anchor='end' style='font-size: 22.76px; font-family: Arial;' textLength='37.95px' lengthAdjust='spacingAndGlyphs'>100</text>
<line x1='330.60' y1='225.22' x2='330.60' y2='135.91' style='stroke-width: 4.27; stroke-linecap: butt;' />
</g>
<g clip-path='url(#cpMC4wMHwzNjAuMDB8MC4wMHwzNjAuMDA=)'>
<text x='255.86' y='312.77' text-anchor='end' style='font-size: 9.60px; fill: #4D4D4D; font-family: Arial;' textLength='246.86px' lengthAdjust='spacingAndGlyphs'>Extreme Negative: massive funds are required to clean up</text>
<text x='255.86' y='323.14' text-anchor='end' style='font-size: 9.60px; fill: #4D4D4D; font-family: Arial;' textLength='101.32px' lengthAdjust='spacingAndGlyphs'>environmental pollution.</text>
<text x='255.86' y='223.47' text-anchor='end' style='font-size: 9.60px; fill: #4D4D4D; font-family: Arial;' textLength='238.71px' lengthAdjust='spacingAndGlyphs'>Status quo: There is serious and frequent environmental</text>
<text x='255.86' y='233.84' text-anchor='end' style='font-size: 9.60px; fill: #4D4D4D; font-family: Arial;' textLength='159.96px' lengthAdjust='spacingAndGlyphs'>pollution related to MDMA production.</text>
<text x='255.86' y='134.16' text-anchor='end' style='font-size: 9.60px; fill: #4D4D4D; font-family: Arial;' textLength='218.07px' lengthAdjust='spacingAndGlyphs'>Extreme Positive: no funds are required to clean up</text>
<text x='255.86' y='144.53' text-anchor='end' style='font-size: 9.60px; fill: #4D4D4D; font-family: Arial;' textLength='101.32px' lengthAdjust='spacingAndGlyphs'>environmental pollution.</text>
<text x='351.00' y='68.01' text-anchor='end' style='font-size: 12.00px; font-family: Arial;' textLength='306.21px' lengthAdjust='spacingAndGlyphs'>Public financial costs: cleaning up environmental pollution</text>
<text x='351.00' y='80.97' text-anchor='end' style='font-size: 12.00px; font-family: Arial;' textLength='266.86px' lengthAdjust='spacingAndGlyphs'>(note - damage to the environment has a separate</text>
<text x='351.00' y='93.93' text-anchor='end' style='font-size: 12.00px; font-family: Arial;' textLength='50.01px' lengthAdjust='spacingAndGlyphs'>criterion).</text>
<text x='351.00' y='19.30' text-anchor='end' style='font-size: 14.40px; font-family: Arial;' textLength='252.80px' lengthAdjust='spacingAndGlyphs'>Financiële kosten MDMA-Milieuschade.</text>
<text x='351.00' y='34.86' text-anchor='end' style='font-size: 14.40px; font-family: Arial;' textLength='229.62px' lengthAdjust='spacingAndGlyphs'>[Finacial costs due to environmental</text>
<text x='351.00' y='50.41' text-anchor='end' style='font-size: 14.40px; font-family: Arial;' textLength='61.61px' lengthAdjust='spacingAndGlyphs'>pollution.]</text>
</g>
</svg>
