<?xml version='1.0' encoding='UTF-8' ?>
<svg xmlns='http://www.w3.org/2000/svg' xmlns:xlink='http://www.w3.org/1999/xlink' class='svglite' width='360.00pt' height='360.00pt' viewBox='0 0 360.00 360.00'>
<defs>
  <style type='text/css'><![CDATA[
    .svglite line, .svglite polyline, .svglite polygon, .svglite path, .svglite rect, .svglite circle {
      fill: none;
      stroke: #000000;
      stroke-linecap: round;
      stroke-linejoin: round;
      stroke-miterlimit: 10.00;
    }
  ]]></style>
</defs>
<rect width='100%' height='100%' style='stroke: none; fill: none;'/>
<defs>
  <clipPath id='cpMC4wMHwzNjAuMDB8MC4wMHwzNjAuMDA='>
    <rect x='0.00' y='0.00' width='360.00' height='360.00' />
  </clipPath>
</defs>
<g clip-path='url(#cpMC4wMHwzNjAuMDB8MC4wMHwzNjAuMDA=)'>
<rect x='-0.000000000000032' y='0.00' width='360.00' height='360.00' style='stroke-width: 2.13;' />
</g>
<defs>
  <clipPath id='cpMjU4LjA1fDM1MS4wMHw4OS40NnwzNDguMDE='>
    <rect x='258.05' y='89.46' width='92.95' height='258.55' />
  </clipPath>
</defs>
<g clip-path='url(#cpMjU4LjA1fDM1MS4wMHw4OS40NnwzNDguMDE=)'>
<rect x='-346.13' y='124.72' width='1352.01' height='188.03' style='stroke-width: 1.07; stroke: none; stroke-linecap: square; stroke-linejoin: miter; fill: #FFFFFF;' />
<line x1='258.05' y1='124.72' x2='351.00' y2='124.72' style='stroke-width: 2.13; stroke: #BBBBBB; stroke-linecap: butt;' />
<line x1='258.05' y1='171.73' x2='351.00' y2='171.73' style='stroke-width: 2.13; stroke: #BBBBBB; stroke-linecap: butt;' />
<line x1='258.05' y1='218.74' x2='351.00' y2='218.74' style='stroke-width: 2.13; stroke: #BBBBBB; stroke-linecap: butt;' />
<line x1='258.05' y1='265.75' x2='351.00' y2='265.75' style='stroke-width: 2.13; stroke: #BBBBBB; stroke-linecap: butt;' />
<line x1='258.05' y1='312.75' x2='351.00' y2='312.75' style='stroke-width: 2.13; stroke: #BBBBBB; stroke-linecap: butt;' />
<circle cx='329.87' cy='218.74' r='6.76' style='stroke-width: 0.71; fill: #000000;' />
<text x='312.97' y='226.88' text-anchor='end' style='font-size: 22.76px; font-family: Arial;' textLength='12.65px' lengthAdjust='spacingAndGlyphs'>0</text>
<circle cx='329.87' cy='312.75' r='6.76' style='stroke-width: 0.71; fill: #000000;' />
<text x='312.97' y='320.90' text-anchor='end' style='font-size: 22.76px; font-family: Arial;' textLength='45.53px' lengthAdjust='spacingAndGlyphs'>-100</text>
<line x1='329.87' y1='218.74' x2='329.87' y2='312.75' style='stroke-width: 4.27; stroke-linecap: butt;' />
<circle cx='329.87' cy='124.72' r='6.76' style='stroke-width: 0.71; fill: #000000;' />
<text x='312.97' y='132.86' text-anchor='end' style='font-size: 22.76px; font-family: Arial;' textLength='37.95px' lengthAdjust='spacingAndGlyphs'>100</text>
<line x1='329.87' y1='218.74' x2='329.87' y2='124.72' style='stroke-width: 4.27; stroke-linecap: butt;' />
</g>
<g clip-path='url(#cpMC4wMHwzNjAuMDB8MC4wMHwzNjAuMDA=)'>
<text x='252.67' y='305.82' text-anchor='end' style='font-size: 9.60px; fill: #4D4D4D; font-family: Arial;' textLength='243.67px' lengthAdjust='spacingAndGlyphs'>Extreme Negative: there is no information available about</text>
<text x='252.67' y='316.19' text-anchor='end' style='font-size: 9.60px; fill: #4D4D4D; font-family: Arial;' textLength='216.86px' lengthAdjust='spacingAndGlyphs'>drug quality, harm reduction techniques and dosing</text>
<text x='252.67' y='326.56' text-anchor='end' style='font-size: 9.60px; fill: #4D4D4D; font-family: Arial;' textLength='51.18px' lengthAdjust='spacingAndGlyphs'>whatsoever.</text>
<text x='252.67' y='216.99' text-anchor='end' style='font-size: 9.60px; fill: #4D4D4D; font-family: Arial;' textLength='223.93px' lengthAdjust='spacingAndGlyphs'>Status quo: drug testing is possible but limited; some</text>
<text x='252.67' y='227.36' text-anchor='end' style='font-size: 9.60px; fill: #4D4D4D; font-family: Arial;' textLength='223.95px' lengthAdjust='spacingAndGlyphs'>funds are available to educate users about risky use.</text>
<text x='252.67' y='102.23' text-anchor='end' style='font-size: 9.60px; fill: #4D4D4D; font-family: Arial;' textLength='228.18px' lengthAdjust='spacingAndGlyphs'>Extreme Positive: Accurate, tailored information about</text>
<text x='252.67' y='112.60' text-anchor='end' style='font-size: 9.60px; fill: #4D4D4D; font-family: Arial;' textLength='227.45px' lengthAdjust='spacingAndGlyphs'>MDMA, quality, dose, content, risks, harms, and harm</text>
<text x='252.67' y='122.97' text-anchor='end' style='font-size: 9.60px; fill: #4D4D4D; font-family: Arial;' textLength='238.88px' lengthAdjust='spacingAndGlyphs'>reduction and prevention services are all freely available</text>
<text x='252.67' y='133.34' text-anchor='end' style='font-size: 9.60px; fill: #4D4D4D; font-family: Arial;' textLength='241.91px' lengthAdjust='spacingAndGlyphs'>to all adult users. There is adequate education in schools</text>
<text x='252.67' y='143.71' text-anchor='end' style='font-size: 9.60px; fill: #4D4D4D; font-family: Arial;' textLength='227.17px' lengthAdjust='spacingAndGlyphs'>about the substance, and there are many intervention</text>
<text x='252.67' y='154.07' text-anchor='end' style='font-size: 9.60px; fill: #4D4D4D; font-family: Arial;' textLength='144.32px' lengthAdjust='spacingAndGlyphs'>opportunities that are used wisely.</text>
<text x='351.00' y='68.01' text-anchor='end' style='font-size: 12.00px; font-family: Arial;' textLength='286.85px' lengthAdjust='spacingAndGlyphs'>Proper information about product quality (adulteration,</text>
<text x='351.00' y='80.97' text-anchor='end' style='font-size: 12.00px; font-family: Arial;' textLength='230.82px' lengthAdjust='spacingAndGlyphs'>unknown dose/purity) and risky MDMA use.</text>
<text x='351.00' y='19.30' text-anchor='end' style='font-size: 14.40px; font-family: Arial;' textLength='223.16px' lengthAdjust='spacingAndGlyphs'>Drug kwaliteit &amp; informatie (sterkte,</text>
<text x='351.00' y='34.86' text-anchor='end' style='font-size: 14.40px; font-family: Arial;' textLength='233.61px' lengthAdjust='spacingAndGlyphs'>zuiverheid en juiste informatie. [Drug</text>
<text x='351.00' y='50.41' text-anchor='end' style='font-size: 14.40px; font-family: Arial;' textLength='180.02px' lengthAdjust='spacingAndGlyphs'>quality and use information.]</text>
</g>
</svg>
