<?xml version='1.0' encoding='UTF-8' ?>
<svg xmlns='http://www.w3.org/2000/svg' xmlns:xlink='http://www.w3.org/1999/xlink' class='svglite' width='785.20pt' height='538.58pt' viewBox='0 0 785.20 538.58'>
<defs>
  <style type='text/css'><![CDATA[
    .svglite line, .svglite polyline, .svglite polygon, .svglite path, .svglite rect, .svglite circle {
      fill: none;
      stroke: #000000;
      stroke-linecap: round;
      stroke-linejoin: round;
      stroke-miterlimit: 10.00;
    }
  ]]></style>
</defs>
<rect width='100%' height='100%' style='stroke: none; fill: none;'/>
<defs>
  <clipPath id='cpMC4wMHw3ODUuMjB8MC4wMHw1MzguNTg='>
    <rect x='0.00' y='0.00' width='785.20' height='538.58' />
  </clipPath>
</defs>
<g clip-path='url(#cpMC4wMHw3ODUuMjB8MC4wMHw1MzguNTg=)'>
</g>
<defs>
  <clipPath id='cpMTY5LjAxfDc3OC4yMnw0OS40Nnw0OTguNTE='>
    <rect x='169.01' y='49.46' width='609.21' height='449.06' />
  </clipPath>
</defs>
<g clip-path='url(#cpMTY5LjAxfDc3OC4yMnw0OS40Nnw0OTguNTE=)'>
<polyline points='271.08,498.51 271.08,49.46 ' style='stroke-width: 0.68; stroke: #EBEBEB; stroke-linecap: butt;' />
<polyline points='413.17,498.51 413.17,49.46 ' style='stroke-width: 0.68; stroke: #EBEBEB; stroke-linecap: butt;' />
<polyline points='555.26,498.51 555.26,49.46 ' style='stroke-width: 0.68; stroke: #EBEBEB; stroke-linecap: butt;' />
<polyline points='697.35,498.51 697.35,49.46 ' style='stroke-width: 0.68; stroke: #EBEBEB; stroke-linecap: butt;' />
<polyline points='169.01,461.09 778.22,461.09 ' style='stroke-width: 1.36; stroke: #EBEBEB; stroke-linecap: butt;' />
<polyline points='169.01,398.72 778.22,398.72 ' style='stroke-width: 1.36; stroke: #EBEBEB; stroke-linecap: butt;' />
<polyline points='169.01,336.35 778.22,336.35 ' style='stroke-width: 1.36; stroke: #EBEBEB; stroke-linecap: butt;' />
<polyline points='169.01,273.98 778.22,273.98 ' style='stroke-width: 1.36; stroke: #EBEBEB; stroke-linecap: butt;' />
<polyline points='169.01,211.61 778.22,211.61 ' style='stroke-width: 1.36; stroke: #EBEBEB; stroke-linecap: butt;' />
<polyline points='169.01,149.25 778.22,149.25 ' style='stroke-width: 1.36; stroke: #EBEBEB; stroke-linecap: butt;' />
<polyline points='169.01,86.88 778.22,86.88 ' style='stroke-width: 1.36; stroke: #EBEBEB; stroke-linecap: butt;' />
<polyline points='200.03,498.51 200.03,49.46 ' style='stroke-width: 1.36; stroke: #EBEBEB; stroke-linecap: butt;' />
<polyline points='342.12,498.51 342.12,49.46 ' style='stroke-width: 1.36; stroke: #EBEBEB; stroke-linecap: butt;' />
<polyline points='484.21,498.51 484.21,49.46 ' style='stroke-width: 1.36; stroke: #EBEBEB; stroke-linecap: butt;' />
<polyline points='626.30,498.51 626.30,49.46 ' style='stroke-width: 1.36; stroke: #EBEBEB; stroke-linecap: butt;' />
<polyline points='768.39,498.51 768.39,49.46 ' style='stroke-width: 1.36; stroke: #EBEBEB; stroke-linecap: butt;' />
<rect x='484.21' y='58.81' width='0.00' height='56.13' style='stroke-width: 0.21; stroke-linecap: square; stroke-linejoin: miter; fill: #000000;' />
<rect x='484.21' y='121.18' width='0.00' height='56.13' style='stroke-width: 0.21; stroke-linecap: square; stroke-linejoin: miter; fill: #000000;' />
<rect x='484.21' y='183.55' width='0.00' height='56.13' style='stroke-width: 0.21; stroke-linecap: square; stroke-linejoin: miter; fill: #000000;' />
<rect x='484.21' y='245.92' width='0.00' height='56.13' style='stroke-width: 0.21; stroke-linecap: square; stroke-linejoin: miter; fill: #000000;' />
<rect x='484.21' y='308.29' width='0.00' height='56.13' style='stroke-width: 0.21; stroke-linecap: square; stroke-linejoin: miter; fill: #000000;' />
<rect x='484.21' y='370.65' width='0.00' height='56.13' style='stroke-width: 0.21; stroke-linecap: square; stroke-linejoin: miter; fill: #000000;' />
<rect x='484.21' y='433.02' width='0.00' height='56.13' style='stroke-width: 0.21; stroke-linecap: square; stroke-linejoin: miter; fill: #000000;' />
</g>
<g clip-path='url(#cpMC4wMHw3ODUuMjB8MC4wMHw1MzguNTg=)'>
<text x='162.73' y='465.10' text-anchor='end' style='font-size: 11.20px; fill: #4D4D4D; font-family: Arial;' textLength='88.93px' lengthAdjust='spacingAndGlyphs'>Ideological values</text>
<text x='162.73' y='402.73' text-anchor='end' style='font-size: 11.20px; fill: #4D4D4D; font-family: Arial;' textLength='123.76px' lengthAdjust='spacingAndGlyphs'>Environmental protection</text>
<text x='162.73' y='340.36' text-anchor='end' style='font-size: 11.20px; fill: #4D4D4D; font-family: Arial;' textLength='98.88px' lengthAdjust='spacingAndGlyphs'>International politics</text>
<text x='162.73' y='277.99' text-anchor='end' style='font-size: 11.20px; fill: #4D4D4D; font-family: Arial;' textLength='138.05px' lengthAdjust='spacingAndGlyphs'>Financial costs and benefits</text>
<text x='162.73' y='215.62' text-anchor='end' style='font-size: 11.20px; fill: #4D4D4D; font-family: Arial;' textLength='29.84px' lengthAdjust='spacingAndGlyphs'>Crime</text>
<text x='162.73' y='153.25' text-anchor='end' style='font-size: 11.20px; fill: #4D4D4D; font-family: Arial;' textLength='57.21px' lengthAdjust='spacingAndGlyphs'>User health</text>
<text x='162.73' y='90.88' text-anchor='end' style='font-size: 11.20px; fill: #4D4D4D; font-family: Arial;' textLength='139.31px' lengthAdjust='spacingAndGlyphs'>Use (prevalence &amp; patterns)</text>
<text x='200.03' y='512.80' text-anchor='middle' style='font-size: 11.20px; fill: #4D4D4D; font-family: Arial;' textLength='28.61px' lengthAdjust='spacingAndGlyphs'>-1000</text>
<text x='342.12' y='512.80' text-anchor='middle' style='font-size: 11.20px; fill: #4D4D4D; font-family: Arial;' textLength='22.39px' lengthAdjust='spacingAndGlyphs'>-500</text>
<text x='484.21' y='512.80' text-anchor='middle' style='font-size: 11.20px; fill: #4D4D4D; font-family: Arial;' textLength='6.22px' lengthAdjust='spacingAndGlyphs'>0</text>
<text x='626.30' y='512.80' text-anchor='middle' style='font-size: 11.20px; fill: #4D4D4D; font-family: Arial;' textLength='18.66px' lengthAdjust='spacingAndGlyphs'>500</text>
<text x='768.39' y='512.80' text-anchor='middle' style='font-size: 11.20px; fill: #4D4D4D; font-family: Arial;' textLength='24.88px' lengthAdjust='spacingAndGlyphs'>1000</text>
<text x='473.62' y='528.66' text-anchor='middle' style='font-size: 14.00px; font-family: Arial;' textLength='36.56px' lengthAdjust='spacingAndGlyphs'>Score</text>
<text transform='translate(17.00,273.98) rotate(-90)' text-anchor='middle' style='font-size: 14.00px; font-family: Arial;' textLength='97.21px' lengthAdjust='spacingAndGlyphs'>Criteria clusters</text>
<text x='6.97' y='39.54' style='font-size: 14.00px; font-family: Arial;' textLength='168.05px' lengthAdjust='spacingAndGlyphs'>Possession: Not applicable</text>
<text x='6.97' y='19.01' style='font-size: 16.80px; font-family: Arial;' textLength='359.44px' lengthAdjust='spacingAndGlyphs'>MDMCDA criteria cluster bar chart by alternative</text>
</g>
</svg>
