<?xml version='1.0' encoding='UTF-8' ?>
<svg xmlns='http://www.w3.org/2000/svg' xmlns:xlink='http://www.w3.org/1999/xlink' class='svglite' width='785.20pt' height='538.58pt' viewBox='0 0 785.20 538.58'>
<defs>
  <style type='text/css'><![CDATA[
    .svglite line, .svglite polyline, .svglite polygon, .svglite path, .svglite rect, .svglite circle {
      fill: none;
      stroke: #000000;
      stroke-linecap: round;
      stroke-linejoin: round;
      stroke-miterlimit: 10.00;
    }
  ]]></style>
</defs>
<rect width='100%' height='100%' style='stroke: none; fill: none;'/>
<defs>
  <clipPath id='cpMC4wMHw3ODUuMjB8MC4wMHw1MzguNTg='>
    <rect x='0.00' y='0.00' width='785.20' height='538.58' />
  </clipPath>
</defs>
<g clip-path='url(#cpMC4wMHw3ODUuMjB8MC4wMHw1MzguNTg=)'>
</g>
<defs>
  <clipPath id='cpNTguMzJ8Nzc4LjIyfDk0LjYzfDQ3NC4zMg=='>
    <rect x='58.32' y='94.63' width='719.91' height='379.69' />
  </clipPath>
</defs>
<g clip-path='url(#cpNTguMzJ8Nzc4LjIyfDk0LjYzfDQ3NC4zMg==)'>
<polyline points='58.32,410.71 778.22,410.71 ' style='stroke-width: 0.68; stroke: #EBEBEB; stroke-linecap: butt;' />
<polyline points='58.32,322.15 778.22,322.15 ' style='stroke-width: 0.68; stroke: #EBEBEB; stroke-linecap: butt;' />
<polyline points='58.32,233.59 778.22,233.59 ' style='stroke-width: 0.68; stroke: #EBEBEB; stroke-linecap: butt;' />
<polyline points='58.32,145.04 778.22,145.04 ' style='stroke-width: 0.68; stroke: #EBEBEB; stroke-linecap: butt;' />
<polyline points='58.32,454.98 778.22,454.98 ' style='stroke-width: 1.36; stroke: #EBEBEB; stroke-linecap: butt;' />
<polyline points='58.32,366.43 778.22,366.43 ' style='stroke-width: 1.36; stroke: #EBEBEB; stroke-linecap: butt;' />
<polyline points='58.32,277.87 778.22,277.87 ' style='stroke-width: 1.36; stroke: #EBEBEB; stroke-linecap: butt;' />
<polyline points='58.32,189.31 778.22,189.31 ' style='stroke-width: 1.36; stroke: #EBEBEB; stroke-linecap: butt;' />
<polyline points='58.32,100.76 778.22,100.76 ' style='stroke-width: 1.36; stroke: #EBEBEB; stroke-linecap: butt;' />
<polyline points='254.66,474.32 254.66,94.63 ' style='stroke-width: 1.36; stroke: #EBEBEB; stroke-linecap: butt;' />
<polyline points='581.89,474.32 581.89,94.63 ' style='stroke-width: 1.36; stroke: #EBEBEB; stroke-linecap: butt;' />
<rect x='107.40' y='268.53' width='42.07' height='9.34' style='stroke-width: 0.21; stroke-linecap: square; stroke-linejoin: miter; fill: #440154;' />
<rect x='149.47' y='264.34' width='42.07' height='13.53' style='stroke-width: 0.21; stroke-linecap: square; stroke-linejoin: miter; fill: #443A83;' />
<rect x='191.55' y='277.87' width='42.07' height='0.00' style='stroke-width: 0.21; stroke-linecap: square; stroke-linejoin: miter; fill: #31688E;' />
<rect x='233.62' y='277.87' width='42.07' height='0.00' style='stroke-width: 0.21; stroke-linecap: square; stroke-linejoin: miter; fill: #21908C;' />
<rect x='275.69' y='277.87' width='42.07' height='0.00' style='stroke-width: 0.21; stroke-linecap: square; stroke-linejoin: miter; fill: #35B779;' />
<rect x='317.76' y='277.87' width='42.07' height='0.00' style='stroke-width: 0.21; stroke-linecap: square; stroke-linejoin: miter; fill: #8FD744;' />
<rect x='359.84' y='277.87' width='42.07' height='0.00' style='stroke-width: 0.21; stroke-linecap: square; stroke-linejoin: miter; fill: #FDE725;' />
<rect x='434.63' y='277.87' width='42.07' height='4.15' style='stroke-width: 0.21; stroke-linecap: square; stroke-linejoin: miter; fill: #440154;' />
<rect x='476.70' y='111.89' width='42.07' height='165.98' style='stroke-width: 0.21; stroke-linecap: square; stroke-linejoin: miter; fill: #443A83;' />
<rect x='518.78' y='255.68' width='42.07' height='22.19' style='stroke-width: 0.21; stroke-linecap: square; stroke-linejoin: miter; fill: #31688E;' />
<rect x='560.85' y='254.53' width='42.07' height='23.34' style='stroke-width: 0.21; stroke-linecap: square; stroke-linejoin: miter; fill: #21908C;' />
<rect x='602.92' y='274.43' width='42.07' height='3.44' style='stroke-width: 0.21; stroke-linecap: square; stroke-linejoin: miter; fill: #35B779;' />
<rect x='644.99' y='238.63' width='42.07' height='39.24' style='stroke-width: 0.21; stroke-linecap: square; stroke-linejoin: miter; fill: #8FD744;' />
<rect x='687.07' y='277.87' width='42.07' height='0.00' style='stroke-width: 0.21; stroke-linecap: square; stroke-linejoin: miter; fill: #FDE725;' />
</g>
<g clip-path='url(#cpMC4wMHw3ODUuMjB8MC4wMHw1MzguNTg=)'>
<text x='52.04' y='458.99' text-anchor='end' style='font-size: 11.20px; fill: #4D4D4D; font-family: Arial;' textLength='28.61px' lengthAdjust='spacingAndGlyphs'>-1000</text>
<text x='52.04' y='370.43' text-anchor='end' style='font-size: 11.20px; fill: #4D4D4D; font-family: Arial;' textLength='22.39px' lengthAdjust='spacingAndGlyphs'>-500</text>
<text x='52.04' y='281.88' text-anchor='end' style='font-size: 11.20px; fill: #4D4D4D; font-family: Arial;' textLength='6.22px' lengthAdjust='spacingAndGlyphs'>0</text>
<text x='52.04' y='193.32' text-anchor='end' style='font-size: 11.20px; fill: #4D4D4D; font-family: Arial;' textLength='18.66px' lengthAdjust='spacingAndGlyphs'>500</text>
<text x='52.04' y='104.76' text-anchor='end' style='font-size: 11.20px; fill: #4D4D4D; font-family: Arial;' textLength='24.88px' lengthAdjust='spacingAndGlyphs'>1000</text>
<text x='254.66' y='488.61' text-anchor='middle' style='font-size: 11.20px; fill: #4D4D4D; font-family: Arial;' textLength='49.74px' lengthAdjust='spacingAndGlyphs'>No quality</text>
<text x='254.66' y='500.70' text-anchor='middle' style='font-size: 11.20px; fill: #4D4D4D; font-family: Arial;' textLength='113.18px' lengthAdjust='spacingAndGlyphs'>definition/requirements</text>
<text x='581.89' y='488.61' text-anchor='middle' style='font-size: 11.20px; fill: #4D4D4D; font-family: Arial;' textLength='34.82px' lengthAdjust='spacingAndGlyphs'>Quality</text>
<text x='581.89' y='500.70' text-anchor='middle' style='font-size: 11.20px; fill: #4D4D4D; font-family: Arial;' textLength='125.00px' lengthAdjust='spacingAndGlyphs'>definition/requirements in</text>
<text x='581.89' y='512.80' text-anchor='middle' style='font-size: 11.20px; fill: #4D4D4D; font-family: Arial;' textLength='26.74px' lengthAdjust='spacingAndGlyphs'>place</text>
<text x='418.27' y='528.66' text-anchor='middle' style='font-size: 14.00px; font-family: Arial;' textLength='73.12px' lengthAdjust='spacingAndGlyphs'>Alternatives</text>
<text transform='translate(17.00,284.47) rotate(-90)' text-anchor='middle' style='font-size: 14.00px; font-family: Arial;' textLength='36.56px' lengthAdjust='spacingAndGlyphs'>Score</text>
<rect x='-21.90' y='56.57' width='17.00' height='17.00' style='stroke-width: 0.21; stroke-linecap: square; stroke-linejoin: miter; fill: #440154;' />
<rect x='148.64' y='56.57' width='17.00' height='17.00' style='stroke-width: 0.21; stroke-linecap: square; stroke-linejoin: miter; fill: #443A83;' />
<rect x='237.07' y='56.57' width='17.00' height='17.00' style='stroke-width: 0.21; stroke-linecap: square; stroke-linejoin: miter; fill: #31688E;' />
<rect x='298.14' y='56.57' width='17.00' height='17.00' style='stroke-width: 0.21; stroke-linecap: square; stroke-linejoin: miter; fill: #21908C;' />
<rect x='467.42' y='56.57' width='17.00' height='17.00' style='stroke-width: 0.21; stroke-linecap: square; stroke-linejoin: miter; fill: #35B779;' />
<rect x='597.53' y='56.57' width='17.00' height='17.00' style='stroke-width: 0.21; stroke-linecap: square; stroke-linejoin: miter; fill: #8FD744;' />
<rect x='752.51' y='56.57' width='17.00' height='17.00' style='stroke-width: 0.21; stroke-linecap: square; stroke-linejoin: miter; fill: #FDE725;' />
<text x='2.21' y='69.08' style='font-size: 11.20px; font-family: Arial;' textLength='139.31px' lengthAdjust='spacingAndGlyphs'>Use (prevalence &amp; patterns)</text>
<text x='172.75' y='69.08' style='font-size: 11.20px; font-family: Arial;' textLength='57.21px' lengthAdjust='spacingAndGlyphs'>User health</text>
<text x='261.19' y='69.08' style='font-size: 11.20px; font-family: Arial;' textLength='29.84px' lengthAdjust='spacingAndGlyphs'>Crime</text>
<text x='322.25' y='69.08' style='font-size: 11.20px; font-family: Arial;' textLength='138.05px' lengthAdjust='spacingAndGlyphs'>Financial costs and benefits</text>
<text x='491.53' y='69.08' style='font-size: 11.20px; font-family: Arial;' textLength='98.88px' lengthAdjust='spacingAndGlyphs'>International politics</text>
<text x='621.64' y='69.08' style='font-size: 11.20px; font-family: Arial;' textLength='123.76px' lengthAdjust='spacingAndGlyphs'>Environmental protection</text>
<text x='776.63' y='69.08' style='font-size: 11.20px; font-family: Arial;' textLength='88.93px' lengthAdjust='spacingAndGlyphs'>Ideological values</text>
<text x='6.97' y='39.54' style='font-size: 14.00px; font-family: Arial;' textLength='153.99px' lengthAdjust='spacingAndGlyphs'>MDMA quality rules (QA)</text>
<text x='6.97' y='19.01' style='font-size: 16.80px; font-family: Arial;' textLength='359.44px' lengthAdjust='spacingAndGlyphs'>MDMCDA criteria cluster bar chart by alternative</text>
</g>
</svg>
