<?xml version='1.0' encoding='UTF-8' ?>
<svg xmlns='http://www.w3.org/2000/svg' xmlns:xlink='http://www.w3.org/1999/xlink' class='svglite' width='785.20pt' height='538.58pt' viewBox='0 0 785.20 538.58'>
<defs>
  <style type='text/css'><![CDATA[
    .svglite line, .svglite polyline, .svglite polygon, .svglite path, .svglite rect, .svglite circle {
      fill: none;
      stroke: #000000;
      stroke-linecap: round;
      stroke-linejoin: round;
      stroke-miterlimit: 10.00;
    }
  ]]></style>
</defs>
<rect width='100%' height='100%' style='stroke: none; fill: none;'/>
<defs>
  <clipPath id='cpMC4wMHw3ODUuMjB8MC4wMHw1MzguNTg='>
    <rect x='0.00' y='0.00' width='785.20' height='538.58' />
  </clipPath>
</defs>
<g clip-path='url(#cpMC4wMHw3ODUuMjB8MC4wMHw1MzguNTg=)'>
</g>
<defs>
  <clipPath id='cpOTMuMDh8NzcwLjgwfDEzMi42MHwzODUuMDM='>
    <rect x='93.08' y='132.60' width='677.71' height='252.43' />
  </clipPath>
</defs>
<g clip-path='url(#cpOTMuMDh8NzcwLjgwfDEzMi42MHwzODUuMDM=)'>
<polyline points='93.08,360.00 770.80,360.00 ' style='stroke-width: 0.53; stroke: #EBEBEB; stroke-linecap: butt;' />
<polyline points='93.08,299.14 770.80,299.14 ' style='stroke-width: 0.53; stroke: #EBEBEB; stroke-linecap: butt;' />
<polyline points='93.08,238.27 770.80,238.27 ' style='stroke-width: 0.53; stroke: #EBEBEB; stroke-linecap: butt;' />
<polyline points='93.08,177.41 770.80,177.41 ' style='stroke-width: 0.53; stroke: #EBEBEB; stroke-linecap: butt;' />
<polyline points='93.08,329.57 770.80,329.57 ' style='stroke-width: 1.07; stroke: #EBEBEB; stroke-linecap: butt;' />
<polyline points='93.08,268.70 770.80,268.70 ' style='stroke-width: 1.07; stroke: #EBEBEB; stroke-linecap: butt;' />
<polyline points='93.08,207.84 770.80,207.84 ' style='stroke-width: 1.07; stroke: #EBEBEB; stroke-linecap: butt;' />
<polyline points='93.08,146.98 770.80,146.98 ' style='stroke-width: 1.07; stroke: #EBEBEB; stroke-linecap: butt;' />
<polyline points='108.03,385.03 108.03,132.60 ' style='stroke-width: 1.07; stroke: #EBEBEB; stroke-linecap: butt;' />
<polyline points='132.95,385.03 132.95,132.60 ' style='stroke-width: 1.07; stroke: #EBEBEB; stroke-linecap: butt;' />
<polyline points='157.87,385.03 157.87,132.60 ' style='stroke-width: 1.07; stroke: #EBEBEB; stroke-linecap: butt;' />
<polyline points='182.78,385.03 182.78,132.60 ' style='stroke-width: 1.07; stroke: #EBEBEB; stroke-linecap: butt;' />
<polyline points='207.70,385.03 207.70,132.60 ' style='stroke-width: 1.07; stroke: #EBEBEB; stroke-linecap: butt;' />
<polyline points='232.61,385.03 232.61,132.60 ' style='stroke-width: 1.07; stroke: #EBEBEB; stroke-linecap: butt;' />
<polyline points='257.53,385.03 257.53,132.60 ' style='stroke-width: 1.07; stroke: #EBEBEB; stroke-linecap: butt;' />
<polyline points='282.45,385.03 282.45,132.60 ' style='stroke-width: 1.07; stroke: #EBEBEB; stroke-linecap: butt;' />
<polyline points='307.36,385.03 307.36,132.60 ' style='stroke-width: 1.07; stroke: #EBEBEB; stroke-linecap: butt;' />
<polyline points='332.28,385.03 332.28,132.60 ' style='stroke-width: 1.07; stroke: #EBEBEB; stroke-linecap: butt;' />
<polyline points='357.19,385.03 357.19,132.60 ' style='stroke-width: 1.07; stroke: #EBEBEB; stroke-linecap: butt;' />
<polyline points='382.11,385.03 382.11,132.60 ' style='stroke-width: 1.07; stroke: #EBEBEB; stroke-linecap: butt;' />
<polyline points='407.02,385.03 407.02,132.60 ' style='stroke-width: 1.07; stroke: #EBEBEB; stroke-linecap: butt;' />
<polyline points='431.94,385.03 431.94,132.60 ' style='stroke-width: 1.07; stroke: #EBEBEB; stroke-linecap: butt;' />
<polyline points='456.86,385.03 456.86,132.60 ' style='stroke-width: 1.07; stroke: #EBEBEB; stroke-linecap: butt;' />
<polyline points='481.77,385.03 481.77,132.60 ' style='stroke-width: 1.07; stroke: #EBEBEB; stroke-linecap: butt;' />
<polyline points='506.69,385.03 506.69,132.60 ' style='stroke-width: 1.07; stroke: #EBEBEB; stroke-linecap: butt;' />
<polyline points='531.60,385.03 531.60,132.60 ' style='stroke-width: 1.07; stroke: #EBEBEB; stroke-linecap: butt;' />
<polyline points='556.52,385.03 556.52,132.60 ' style='stroke-width: 1.07; stroke: #EBEBEB; stroke-linecap: butt;' />
<polyline points='581.44,385.03 581.44,132.60 ' style='stroke-width: 1.07; stroke: #EBEBEB; stroke-linecap: butt;' />
<polyline points='606.35,385.03 606.35,132.60 ' style='stroke-width: 1.07; stroke: #EBEBEB; stroke-linecap: butt;' />
<polyline points='631.27,385.03 631.27,132.60 ' style='stroke-width: 1.07; stroke: #EBEBEB; stroke-linecap: butt;' />
<polyline points='656.18,385.03 656.18,132.60 ' style='stroke-width: 1.07; stroke: #EBEBEB; stroke-linecap: butt;' />
<polyline points='681.10,385.03 681.10,132.60 ' style='stroke-width: 1.07; stroke: #EBEBEB; stroke-linecap: butt;' />
<polyline points='706.02,385.03 706.02,132.60 ' style='stroke-width: 1.07; stroke: #EBEBEB; stroke-linecap: butt;' />
<polyline points='730.93,385.03 730.93,132.60 ' style='stroke-width: 1.07; stroke: #EBEBEB; stroke-linecap: butt;' />
<polyline points='755.85,385.03 755.85,132.60 ' style='stroke-width: 1.07; stroke: #EBEBEB; stroke-linecap: butt;' />
<rect x='370.90' y='268.70' width='22.42' height='0.00' style='stroke-width: 0.21; stroke-linecap: square; stroke-linejoin: miter; fill: #31688E;' />
<rect x='395.81' y='268.70' width='22.42' height='0.00' style='stroke-width: 0.21; stroke-linecap: square; stroke-linejoin: miter; fill: #31688E;' />
<rect x='345.98' y='157.92' width='22.42' height='110.79' style='stroke-width: 0.21; stroke-linecap: square; stroke-linejoin: miter; fill: #31688E;' />
<rect x='420.73' y='268.70' width='22.42' height='11.28' style='stroke-width: 0.21; stroke-linecap: square; stroke-linejoin: miter; fill: #31688E;' />
<rect x='470.56' y='268.70' width='22.42' height='71.54' style='stroke-width: 0.21; stroke-linecap: square; stroke-linejoin: miter; fill: #31688E;' />
<rect x='445.64' y='268.70' width='22.42' height='0.00' style='stroke-width: 0.21; stroke-linecap: square; stroke-linejoin: miter; fill: #31688E;' />
<rect x='644.97' y='268.70' width='22.42' height='5.92' style='stroke-width: 0.21; stroke-linecap: square; stroke-linejoin: miter; fill: #35B779;' />
<rect x='620.06' y='268.70' width='22.42' height='0.00' style='stroke-width: 0.21; stroke-linecap: square; stroke-linejoin: miter; fill: #35B779;' />
<rect x='669.89' y='268.70' width='22.42' height='0.00' style='stroke-width: 0.21; stroke-linecap: square; stroke-linejoin: miter; fill: #35B779;' />
<rect x='520.39' y='266.06' width='22.42' height='2.64' style='stroke-width: 0.21; stroke-linecap: square; stroke-linejoin: miter; fill: #21908C;' />
<rect x='495.48' y='245.68' width='22.42' height='23.02' style='stroke-width: 0.21; stroke-linecap: square; stroke-linejoin: miter; fill: #21908C;' />
<rect x='545.31' y='244.16' width='22.42' height='24.54' style='stroke-width: 0.21; stroke-linecap: square; stroke-linejoin: miter; fill: #21908C;' />
<rect x='570.22' y='268.70' width='22.42' height='0.00' style='stroke-width: 0.21; stroke-linecap: square; stroke-linejoin: miter; fill: #21908C;' />
<rect x='595.14' y='261.32' width='22.42' height='7.38' style='stroke-width: 0.21; stroke-linecap: square; stroke-linejoin: miter; fill: #21908C;' />
<rect x='744.64' y='268.70' width='22.42' height='0.00' style='stroke-width: 0.21; stroke-linecap: square; stroke-linejoin: miter; fill: #FDE725;' />
<rect x='719.72' y='268.70' width='22.42' height='0.00' style='stroke-width: 0.21; stroke-linecap: square; stroke-linejoin: miter; fill: #FDE725;' />
<rect x='121.74' y='268.70' width='22.42' height='0.00' style='stroke-width: 0.21; stroke-linecap: square; stroke-linejoin: miter; fill: #440154;' />
<rect x='146.65' y='268.70' width='22.42' height='0.00' style='stroke-width: 0.21; stroke-linecap: square; stroke-linejoin: miter; fill: #440154;' />
<rect x='96.82' y='268.70' width='22.42' height='0.00' style='stroke-width: 0.21; stroke-linecap: square; stroke-linejoin: miter; fill: #440154;' />
<rect x='694.80' y='268.70' width='22.42' height='0.00' style='stroke-width: 0.21; stroke-linecap: square; stroke-linejoin: miter; fill: #8FD744;' />
<rect x='196.49' y='260.95' width='22.42' height='7.75' style='stroke-width: 0.21; stroke-linecap: square; stroke-linejoin: miter; fill: #443A83;' />
<rect x='296.15' y='268.70' width='22.42' height='0.00' style='stroke-width: 0.21; stroke-linecap: square; stroke-linejoin: miter; fill: #443A83;' />
<rect x='271.23' y='268.70' width='22.42' height='0.00' style='stroke-width: 0.21; stroke-linecap: square; stroke-linejoin: miter; fill: #443A83;' />
<rect x='246.32' y='268.70' width='22.42' height='0.00' style='stroke-width: 0.21; stroke-linecap: square; stroke-linejoin: miter; fill: #443A83;' />
<rect x='321.07' y='268.70' width='22.42' height='0.00' style='stroke-width: 0.21; stroke-linecap: square; stroke-linejoin: miter; fill: #443A83;' />
<rect x='171.57' y='261.65' width='22.42' height='7.06' style='stroke-width: 0.21; stroke-linecap: square; stroke-linejoin: miter; fill: #443A83;' />
<rect x='221.40' y='257.57' width='22.42' height='11.13' style='stroke-width: 0.21; stroke-linecap: square; stroke-linejoin: miter; fill: #443A83;' />
<line x1='93.08' y1='373.56' x2='770.80' y2='373.56' style='stroke-width: 1.07; stroke-linecap: butt;' />
<line x1='93.08' y1='144.07' x2='770.80' y2='144.07' style='stroke-width: 1.07; stroke-linecap: butt;' />
</g>
<g clip-path='url(#cpMC4wMHw3ODUuMjB8MC4wMHw1MzguNTg=)'>
<text x='88.15' y='332.72' text-anchor='end' style='font-size: 8.80px; fill: #4D4D4D; font-family: Arial;' textLength='17.62px' lengthAdjust='spacingAndGlyphs'>-300</text>
<text x='88.15' y='271.85' text-anchor='end' style='font-size: 8.80px; fill: #4D4D4D; font-family: Arial;' textLength='4.90px' lengthAdjust='spacingAndGlyphs'>0</text>
<text x='88.15' y='210.99' text-anchor='end' style='font-size: 8.80px; fill: #4D4D4D; font-family: Arial;' textLength='14.69px' lengthAdjust='spacingAndGlyphs'>300</text>
<text x='88.15' y='150.13' text-anchor='end' style='font-size: 8.80px; fill: #4D4D4D; font-family: Arial;' textLength='14.69px' lengthAdjust='spacingAndGlyphs'>600</text>
<text transform='translate(112.49,394.42) rotate(-45)' text-anchor='end' style='font-size: 8.80px; fill: #4D4D4D; font-family: Arial;' textLength='144.33px' lengthAdjust='spacingAndGlyphs'>Use frequency and intensity by users</text>
<text transform='translate(137.41,394.42) rotate(-45)' text-anchor='end' style='font-size: 8.80px; fill: #4D4D4D; font-family: Arial;' textLength='115.47px' lengthAdjust='spacingAndGlyphs'>Use in vulnerable populations</text>
<text transform='translate(162.32,394.42) rotate(-45)' text-anchor='end' style='font-size: 8.80px; fill: #4D4D4D; font-family: Arial;' textLength='124.77px' lengthAdjust='spacingAndGlyphs'>Prevalence (general population)</text>
<text transform='translate(187.24,394.42) rotate(-45)' text-anchor='end' style='font-size: 8.80px; fill: #4D4D4D; font-family: Arial;' textLength='136.97px' lengthAdjust='spacingAndGlyphs'>Quality of information about MDMA</text>
<text transform='translate(212.15,394.42) rotate(-45)' text-anchor='end' style='font-size: 8.80px; fill: #4D4D4D; font-family: Arial;' textLength='59.70px' lengthAdjust='spacingAndGlyphs'>Health damage</text>
<text transform='translate(237.07,394.42) rotate(-45)' text-anchor='end' style='font-size: 8.80px; fill: #4D4D4D; font-family: Arial;' textLength='89.04px' lengthAdjust='spacingAndGlyphs'>Stigmatization of users</text>
<text transform='translate(261.98,394.42) rotate(-45)' text-anchor='end' style='font-size: 8.80px; fill: #4D4D4D; font-family: Arial;' textLength='57.24px' lengthAdjust='spacingAndGlyphs'>Social benefits</text>
<text transform='translate(286.90,394.42) rotate(-45)' text-anchor='end' style='font-size: 8.80px; fill: #4D4D4D; font-family: Arial;' textLength='58.72px' lengthAdjust='spacingAndGlyphs'>Health benefits</text>
<text transform='translate(311.82,394.42) rotate(-45)' text-anchor='end' style='font-size: 8.80px; fill: #4D4D4D; font-family: Arial;' textLength='58.22px' lengthAdjust='spacingAndGlyphs'>Social damage</text>
<text transform='translate(336.73,394.42) rotate(-45)' text-anchor='end' style='font-size: 8.80px; fill: #4D4D4D; font-family: Arial;' textLength='74.38px' lengthAdjust='spacingAndGlyphs'>Shift to other drugs</text>
<text transform='translate(361.65,394.42) rotate(-45)' text-anchor='end' style='font-size: 8.80px; fill: #4D4D4D; font-family: Arial;' textLength='129.59px' lengthAdjust='spacingAndGlyphs'>Organized crime (MDMA-related)</text>
<text transform='translate(386.56,394.42) rotate(-45)' text-anchor='end' style='font-size: 8.80px; fill: #4D4D4D; font-family: Arial;' textLength='91.45px' lengthAdjust='spacingAndGlyphs'>Criminalisation of users</text>
<text transform='translate(411.48,394.42) rotate(-45)' text-anchor='end' style='font-size: 8.80px; fill: #4D4D4D; font-family: Arial;' textLength='103.65px' lengthAdjust='spacingAndGlyphs'>MDMA-related small crime</text>
<text transform='translate(436.40,394.42) rotate(-45)' text-anchor='end' style='font-size: 8.80px; fill: #4D4D4D; font-family: Arial;' textLength='144.28px' lengthAdjust='spacingAndGlyphs'>Organized crime (not MDMA-related)</text>
<text transform='translate(461.31,394.42) rotate(-45)' text-anchor='end' style='font-size: 8.80px; fill: #4D4D4D; font-family: Arial;' textLength='156.05px' lengthAdjust='spacingAndGlyphs'>Criminals exploitating vulnerable groups</text>
<text transform='translate(486.23,394.42) rotate(-45)' text-anchor='end' style='font-size: 8.80px; fill: #4D4D4D; font-family: Arial;' textLength='127.52px' lengthAdjust='spacingAndGlyphs'>International trafficking of MDMA</text>
<text transform='translate(511.14,394.42) rotate(-45)' text-anchor='end' style='font-size: 8.80px; fill: #4D4D4D; font-family: Arial;' textLength='83.19px' lengthAdjust='spacingAndGlyphs'>State revenue (other)</text>
<text transform='translate(536.06,394.42) rotate(-45)' text-anchor='end' style='font-size: 8.80px; fill: #4D4D4D; font-family: Arial;' textLength='78.92px' lengthAdjust='spacingAndGlyphs'>State revenue (VAT)</text>
<text transform='translate(560.98,394.42) rotate(-45)' text-anchor='end' style='font-size: 8.80px; fill: #4D4D4D; font-family: Arial;' textLength='143.34px' lengthAdjust='spacingAndGlyphs'>Costs related to pollution (dumpings)</text>
<text transform='translate(585.89,394.42) rotate(-45)' text-anchor='end' style='font-size: 8.80px; fill: #4D4D4D; font-family: Arial;' textLength='122.34px' lengthAdjust='spacingAndGlyphs'>Costs related to health damage</text>
<text transform='translate(610.81,394.42) rotate(-45)' text-anchor='end' style='font-size: 8.80px; fill: #4D4D4D; font-family: Arial;' textLength='85.60px' lengthAdjust='spacingAndGlyphs'>Costs related to crime</text>
<text transform='translate(635.72,394.42) rotate(-45)' text-anchor='end' style='font-size: 8.80px; fill: #4D4D4D; font-family: Arial;' textLength='73.86px' lengthAdjust='spacingAndGlyphs'>Economic boycotts</text>
<text transform='translate(660.64,394.42) rotate(-45)' text-anchor='end' style='font-size: 8.80px; fill: #4D4D4D; font-family: Arial;' textLength='149.25px' lengthAdjust='spacingAndGlyphs'>International image of the Netherlands</text>
<text transform='translate(685.55,394.42) rotate(-45)' text-anchor='end' style='font-size: 8.80px; fill: #4D4D4D; font-family: Arial;' textLength='139.94px' lengthAdjust='spacingAndGlyphs'>International legal countermeasures</text>
<text transform='translate(710.47,394.42) rotate(-45)' text-anchor='end' style='font-size: 8.80px; fill: #4D4D4D; font-family: Arial;' textLength='90.51px' lengthAdjust='spacingAndGlyphs'>Environmental damage</text>
<text transform='translate(735.39,394.42) rotate(-45)' text-anchor='end' style='font-size: 8.80px; fill: #4D4D4D; font-family: Arial;' textLength='163.38px' lengthAdjust='spacingAndGlyphs'>Policy consistent with conservative values</text>
<text transform='translate(760.30,394.42) rotate(-45)' text-anchor='end' style='font-size: 8.80px; fill: #4D4D4D; font-family: Arial;' textLength='137.44px' lengthAdjust='spacingAndGlyphs'>Policy consistent with liberal values</text>
<text x='431.94' y='521.86' text-anchor='middle' style='font-size: 11.00px; font-family: Arial;' textLength='35.45px' lengthAdjust='spacingAndGlyphs'>Criteria</text>
<text transform='translate(65.48,258.81) rotate(-90)' text-anchor='middle' style='font-size: 11.00px; font-family: Arial;' textLength='28.74px' lengthAdjust='spacingAndGlyphs'>Score</text>
<text x='140.21' y='88.64' style='font-size: 11.00px; font-family: Arial;' textLength='84.98px' lengthAdjust='spacingAndGlyphs'>Criterion Clusters</text>
<rect x='230.82' y='67.57' width='17.00' height='17.00' style='stroke-width: 0.21; stroke-linecap: square; stroke-linejoin: miter; fill: #440154;' />
<rect x='230.82' y='84.85' width='17.00' height='17.00' style='stroke-width: 0.21; stroke-linecap: square; stroke-linejoin: miter; fill: #443A83;' />
<rect x='368.64' y='67.57' width='17.00' height='17.00' style='stroke-width: 0.21; stroke-linecap: square; stroke-linejoin: miter; fill: #31688E;' />
<rect x='368.64' y='84.85' width='17.00' height='17.00' style='stroke-width: 0.21; stroke-linecap: square; stroke-linejoin: miter; fill: #21908C;' />
<rect x='505.49' y='67.57' width='17.00' height='17.00' style='stroke-width: 0.21; stroke-linecap: square; stroke-linejoin: miter; fill: #35B779;' />
<rect x='505.49' y='84.85' width='17.00' height='17.00' style='stroke-width: 0.21; stroke-linecap: square; stroke-linejoin: miter; fill: #8FD744;' />
<rect x='631.09' y='67.57' width='17.00' height='17.00' style='stroke-width: 0.21; stroke-linecap: square; stroke-linejoin: miter; fill: #FDE725;' />
<text x='253.43' y='79.22' style='font-size: 8.80px; font-family: Arial;' textLength='109.58px' lengthAdjust='spacingAndGlyphs'>Use (prevalence &amp; patterns)</text>
<text x='253.43' y='96.50' style='font-size: 8.80px; font-family: Arial;' textLength='45.01px' lengthAdjust='spacingAndGlyphs'>User health</text>
<text x='391.26' y='79.22' style='font-size: 8.80px; font-family: Arial;' textLength='23.46px' lengthAdjust='spacingAndGlyphs'>Crime</text>
<text x='391.26' y='96.50' style='font-size: 8.80px; font-family: Arial;' textLength='108.61px' lengthAdjust='spacingAndGlyphs'>Financial costs and benefits</text>
<text x='528.11' y='79.22' style='font-size: 8.80px; font-family: Arial;' textLength='77.79px' lengthAdjust='spacingAndGlyphs'>International politics</text>
<text x='528.11' y='96.50' style='font-size: 8.80px; font-family: Arial;' textLength='97.36px' lengthAdjust='spacingAndGlyphs'>Environmental protection</text>
<text x='653.71' y='79.22' style='font-size: 8.80px; font-family: Arial;' textLength='69.96px' lengthAdjust='spacingAndGlyphs'>Ideological values</text>
<text x='57.60' y='39.97' style='font-size: 11.00px; font-family: Arial;' textLength='205.43px' lengthAdjust='spacingAndGlyphs'>Scores for alternative 'Allowed' (total: 520)</text>
<text x='57.60' y='23.85' style='font-size: 13.20px; font-family: Arial;' textLength='328.32px' lengthAdjust='spacingAndGlyphs'>MDMCDA criteria bar chart for 'Sales across companies'</text>
</g>
</svg>
