<?xml version='1.0' encoding='UTF-8' ?>
<svg xmlns='http://www.w3.org/2000/svg' xmlns:xlink='http://www.w3.org/1999/xlink' class='svglite' width='785.20pt' height='538.58pt' viewBox='0 0 785.20 538.58'>
<defs>
  <style type='text/css'><![CDATA[
    .svglite line, .svglite polyline, .svglite polygon, .svglite path, .svglite rect, .svglite circle {
      fill: none;
      stroke: #000000;
      stroke-linecap: round;
      stroke-linejoin: round;
      stroke-miterlimit: 10.00;
    }
  ]]></style>
</defs>
<rect width='100%' height='100%' style='stroke: none; fill: none;'/>
<defs>
  <clipPath id='cpMC4wMHw3ODUuMjB8MC4wMHw1MzguNTg='>
    <rect x='0.00' y='0.00' width='785.20' height='538.58' />
  </clipPath>
</defs>
<g clip-path='url(#cpMC4wMHw3ODUuMjB8MC4wMHw1MzguNTg=)'>
</g>
<defs>
  <clipPath id='cpNTguMzJ8Nzc4LjIyfDk0LjYzfDQ4Ni40MQ=='>
    <rect x='58.32' y='94.63' width='719.91' height='391.78' />
  </clipPath>
</defs>
<g clip-path='url(#cpNTguMzJ8Nzc4LjIyfDk0LjYzfDQ4Ni40MQ==)'>
<polyline points='58.32,420.77 778.22,420.77 ' style='stroke-width: 0.68; stroke: #EBEBEB; stroke-linecap: butt;' />
<polyline points='58.32,329.40 778.22,329.40 ' style='stroke-width: 0.68; stroke: #EBEBEB; stroke-linecap: butt;' />
<polyline points='58.32,238.02 778.22,238.02 ' style='stroke-width: 0.68; stroke: #EBEBEB; stroke-linecap: butt;' />
<polyline points='58.32,146.64 778.22,146.64 ' style='stroke-width: 0.68; stroke: #EBEBEB; stroke-linecap: butt;' />
<polyline points='58.32,466.46 778.22,466.46 ' style='stroke-width: 1.36; stroke: #EBEBEB; stroke-linecap: butt;' />
<polyline points='58.32,375.09 778.22,375.09 ' style='stroke-width: 1.36; stroke: #EBEBEB; stroke-linecap: butt;' />
<polyline points='58.32,283.71 778.22,283.71 ' style='stroke-width: 1.36; stroke: #EBEBEB; stroke-linecap: butt;' />
<polyline points='58.32,192.33 778.22,192.33 ' style='stroke-width: 1.36; stroke: #EBEBEB; stroke-linecap: butt;' />
<polyline points='58.32,100.95 778.22,100.95 ' style='stroke-width: 1.36; stroke: #EBEBEB; stroke-linecap: butt;' />
<polyline points='141.38,486.41 141.38,94.63 ' style='stroke-width: 1.36; stroke: #EBEBEB; stroke-linecap: butt;' />
<polyline points='279.83,486.41 279.83,94.63 ' style='stroke-width: 1.36; stroke: #EBEBEB; stroke-linecap: butt;' />
<polyline points='418.27,486.41 418.27,94.63 ' style='stroke-width: 1.36; stroke: #EBEBEB; stroke-linecap: butt;' />
<polyline points='556.71,486.41 556.71,94.63 ' style='stroke-width: 1.36; stroke: #EBEBEB; stroke-linecap: butt;' />
<polyline points='695.16,486.41 695.16,94.63 ' style='stroke-width: 1.36; stroke: #EBEBEB; stroke-linecap: butt;' />
<rect x='79.08' y='283.71' width='17.80' height='0.00' style='stroke-width: 0.21; stroke-linecap: square; stroke-linejoin: miter; fill: #440154;' />
<rect x='96.88' y='283.71' width='17.80' height='0.00' style='stroke-width: 0.21; stroke-linecap: square; stroke-linejoin: miter; fill: #443A83;' />
<rect x='114.68' y='283.71' width='17.80' height='0.00' style='stroke-width: 0.21; stroke-linecap: square; stroke-linejoin: miter; fill: #31688E;' />
<rect x='132.48' y='283.71' width='17.80' height='0.00' style='stroke-width: 0.21; stroke-linecap: square; stroke-linejoin: miter; fill: #21908C;' />
<rect x='150.28' y='283.71' width='17.80' height='1.78' style='stroke-width: 0.21; stroke-linecap: square; stroke-linejoin: miter; fill: #35B779;' />
<rect x='168.08' y='283.71' width='17.80' height='0.00' style='stroke-width: 0.21; stroke-linecap: square; stroke-linejoin: miter; fill: #8FD744;' />
<rect x='185.88' y='283.71' width='17.80' height='0.00' style='stroke-width: 0.21; stroke-linecap: square; stroke-linejoin: miter; fill: #FDE725;' />
<rect x='217.53' y='283.71' width='17.80' height='0.00' style='stroke-width: 0.21; stroke-linecap: square; stroke-linejoin: miter; fill: #440154;' />
<rect x='235.33' y='247.00' width='17.80' height='36.71' style='stroke-width: 0.21; stroke-linecap: square; stroke-linejoin: miter; fill: #443A83;' />
<rect x='253.13' y='227.07' width='17.80' height='56.64' style='stroke-width: 0.21; stroke-linecap: square; stroke-linejoin: miter; fill: #31688E;' />
<rect x='270.93' y='241.45' width='17.80' height='42.26' style='stroke-width: 0.21; stroke-linecap: square; stroke-linejoin: miter; fill: #21908C;' />
<rect x='288.73' y='283.71' width='17.80' height='0.00' style='stroke-width: 0.21; stroke-linecap: square; stroke-linejoin: miter; fill: #35B779;' />
<rect x='306.53' y='283.71' width='17.80' height='0.00' style='stroke-width: 0.21; stroke-linecap: square; stroke-linejoin: miter; fill: #8FD744;' />
<rect x='324.33' y='283.71' width='17.80' height='0.00' style='stroke-width: 0.21; stroke-linecap: square; stroke-linejoin: miter; fill: #FDE725;' />
<rect x='355.97' y='283.71' width='17.80' height='0.00' style='stroke-width: 0.21; stroke-linecap: square; stroke-linejoin: miter; fill: #440154;' />
<rect x='373.77' y='247.00' width='17.80' height='36.71' style='stroke-width: 0.21; stroke-linecap: square; stroke-linejoin: miter; fill: #443A83;' />
<rect x='391.57' y='258.51' width='17.80' height='25.20' style='stroke-width: 0.21; stroke-linecap: square; stroke-linejoin: miter; fill: #31688E;' />
<rect x='409.37' y='236.27' width='17.80' height='47.44' style='stroke-width: 0.21; stroke-linecap: square; stroke-linejoin: miter; fill: #21908C;' />
<rect x='427.17' y='283.71' width='17.80' height='5.33' style='stroke-width: 0.21; stroke-linecap: square; stroke-linejoin: miter; fill: #35B779;' />
<rect x='444.97' y='283.71' width='17.80' height='0.00' style='stroke-width: 0.21; stroke-linecap: square; stroke-linejoin: miter; fill: #8FD744;' />
<rect x='462.77' y='283.71' width='17.80' height='0.00' style='stroke-width: 0.21; stroke-linecap: square; stroke-linejoin: miter; fill: #FDE725;' />
<rect x='494.41' y='283.71' width='17.80' height='0.00' style='stroke-width: 0.21; stroke-linecap: square; stroke-linejoin: miter; fill: #440154;' />
<rect x='512.21' y='220.32' width='17.80' height='63.39' style='stroke-width: 0.21; stroke-linecap: square; stroke-linejoin: miter; fill: #443A83;' />
<rect x='530.01' y='227.07' width='17.80' height='56.64' style='stroke-width: 0.21; stroke-linecap: square; stroke-linejoin: miter; fill: #31688E;' />
<rect x='547.81' y='239.27' width='17.80' height='44.44' style='stroke-width: 0.21; stroke-linecap: square; stroke-linejoin: miter; fill: #21908C;' />
<rect x='565.61' y='283.71' width='17.80' height='3.55' style='stroke-width: 0.21; stroke-linecap: square; stroke-linejoin: miter; fill: #35B779;' />
<rect x='583.41' y='283.71' width='17.80' height='0.00' style='stroke-width: 0.21; stroke-linecap: square; stroke-linejoin: miter; fill: #8FD744;' />
<rect x='601.21' y='283.71' width='17.80' height='0.00' style='stroke-width: 0.21; stroke-linecap: square; stroke-linejoin: miter; fill: #FDE725;' />
<rect x='632.86' y='283.71' width='17.80' height='0.00' style='stroke-width: 0.21; stroke-linecap: square; stroke-linejoin: miter; fill: #440154;' />
<rect x='650.66' y='260.34' width='17.80' height='23.37' style='stroke-width: 0.21; stroke-linecap: square; stroke-linejoin: miter; fill: #443A83;' />
<rect x='668.46' y='258.51' width='17.80' height='25.20' style='stroke-width: 0.21; stroke-linecap: square; stroke-linejoin: miter; fill: #31688E;' />
<rect x='686.26' y='231.83' width='17.80' height='51.88' style='stroke-width: 0.21; stroke-linecap: square; stroke-linejoin: miter; fill: #21908C;' />
<rect x='704.06' y='283.71' width='17.80' height='5.33' style='stroke-width: 0.21; stroke-linecap: square; stroke-linejoin: miter; fill: #35B779;' />
<rect x='721.86' y='283.71' width='17.80' height='0.00' style='stroke-width: 0.21; stroke-linecap: square; stroke-linejoin: miter; fill: #8FD744;' />
<rect x='739.66' y='283.71' width='17.80' height='0.00' style='stroke-width: 0.21; stroke-linecap: square; stroke-linejoin: miter; fill: #FDE725;' />
</g>
<g clip-path='url(#cpMC4wMHw3ODUuMjB8MC4wMHw1MzguNTg=)'>
<text x='52.04' y='470.47' text-anchor='end' style='font-size: 11.20px; fill: #4D4D4D; font-family: Arial;' textLength='28.61px' lengthAdjust='spacingAndGlyphs'>-1000</text>
<text x='52.04' y='379.09' text-anchor='end' style='font-size: 11.20px; fill: #4D4D4D; font-family: Arial;' textLength='22.39px' lengthAdjust='spacingAndGlyphs'>-500</text>
<text x='52.04' y='287.72' text-anchor='end' style='font-size: 11.20px; fill: #4D4D4D; font-family: Arial;' textLength='6.22px' lengthAdjust='spacingAndGlyphs'>0</text>
<text x='52.04' y='196.34' text-anchor='end' style='font-size: 11.20px; fill: #4D4D4D; font-family: Arial;' textLength='18.66px' lengthAdjust='spacingAndGlyphs'>500</text>
<text x='52.04' y='104.96' text-anchor='end' style='font-size: 11.20px; fill: #4D4D4D; font-family: Arial;' textLength='24.88px' lengthAdjust='spacingAndGlyphs'>1000</text>
<text x='141.38' y='500.70' text-anchor='middle' style='font-size: 11.20px; fill: #4D4D4D; font-family: Arial;' textLength='29.22px' lengthAdjust='spacingAndGlyphs'>Illegal</text>
<text x='279.83' y='500.70' text-anchor='middle' style='font-size: 11.20px; fill: #4D4D4D; font-family: Arial;' textLength='51.00px' lengthAdjust='spacingAndGlyphs'>Regulated</text>
<text x='418.27' y='500.70' text-anchor='middle' style='font-size: 11.20px; fill: #4D4D4D; font-family: Arial;' textLength='142.41px' lengthAdjust='spacingAndGlyphs'>Analogous to commodity law</text>
<text x='556.71' y='500.70' text-anchor='middle' style='font-size: 11.20px; fill: #4D4D4D; font-family: Arial;' textLength='144.29px' lengthAdjust='spacingAndGlyphs'>Analogous to pharmaceutical</text>
<text x='556.71' y='512.80' text-anchor='middle' style='font-size: 11.20px; fill: #4D4D4D; font-family: Arial;' textLength='16.78px' lengthAdjust='spacingAndGlyphs'>law</text>
<text x='695.16' y='500.70' text-anchor='middle' style='font-size: 11.20px; fill: #4D4D4D; font-family: Arial;' textLength='39.18px' lengthAdjust='spacingAndGlyphs'>Allowed</text>
<text x='418.27' y='528.66' text-anchor='middle' style='font-size: 14.00px; font-family: Arial;' textLength='73.12px' lengthAdjust='spacingAndGlyphs'>Alternatives</text>
<text transform='translate(17.00,290.52) rotate(-90)' text-anchor='middle' style='font-size: 14.00px; font-family: Arial;' textLength='36.56px' lengthAdjust='spacingAndGlyphs'>Score</text>
<rect x='-21.90' y='56.57' width='17.00' height='17.00' style='stroke-width: 0.21; stroke-linecap: square; stroke-linejoin: miter; fill: #440154;' />
<rect x='148.64' y='56.57' width='17.00' height='17.00' style='stroke-width: 0.21; stroke-linecap: square; stroke-linejoin: miter; fill: #443A83;' />
<rect x='237.07' y='56.57' width='17.00' height='17.00' style='stroke-width: 0.21; stroke-linecap: square; stroke-linejoin: miter; fill: #31688E;' />
<rect x='298.14' y='56.57' width='17.00' height='17.00' style='stroke-width: 0.21; stroke-linecap: square; stroke-linejoin: miter; fill: #21908C;' />
<rect x='467.42' y='56.57' width='17.00' height='17.00' style='stroke-width: 0.21; stroke-linecap: square; stroke-linejoin: miter; fill: #35B779;' />
<rect x='597.53' y='56.57' width='17.00' height='17.00' style='stroke-width: 0.21; stroke-linecap: square; stroke-linejoin: miter; fill: #8FD744;' />
<rect x='752.51' y='56.57' width='17.00' height='17.00' style='stroke-width: 0.21; stroke-linecap: square; stroke-linejoin: miter; fill: #FDE725;' />
<text x='2.21' y='69.08' style='font-size: 11.20px; font-family: Arial;' textLength='139.31px' lengthAdjust='spacingAndGlyphs'>Use (prevalence &amp; patterns)</text>
<text x='172.75' y='69.08' style='font-size: 11.20px; font-family: Arial;' textLength='57.21px' lengthAdjust='spacingAndGlyphs'>User health</text>
<text x='261.19' y='69.08' style='font-size: 11.20px; font-family: Arial;' textLength='29.84px' lengthAdjust='spacingAndGlyphs'>Crime</text>
<text x='322.25' y='69.08' style='font-size: 11.20px; font-family: Arial;' textLength='138.05px' lengthAdjust='spacingAndGlyphs'>Financial costs and benefits</text>
<text x='491.53' y='69.08' style='font-size: 11.20px; font-family: Arial;' textLength='98.88px' lengthAdjust='spacingAndGlyphs'>International politics</text>
<text x='621.64' y='69.08' style='font-size: 11.20px; font-family: Arial;' textLength='123.76px' lengthAdjust='spacingAndGlyphs'>Environmental protection</text>
<text x='776.63' y='69.08' style='font-size: 11.20px; font-family: Arial;' textLength='88.93px' lengthAdjust='spacingAndGlyphs'>Ideological values</text>
<text x='6.97' y='39.54' style='font-size: 14.00px; font-family: Arial;' textLength='151.69px' lengthAdjust='spacingAndGlyphs'>Sales across companies</text>
<text x='6.97' y='19.01' style='font-size: 16.80px; font-family: Arial;' textLength='359.44px' lengthAdjust='spacingAndGlyphs'>MDMCDA criteria cluster bar chart by alternative</text>
</g>
</svg>
