<?xml version='1.0' encoding='UTF-8' ?>
<svg xmlns='http://www.w3.org/2000/svg' xmlns:xlink='http://www.w3.org/1999/xlink' class='svglite' width='785.20pt' height='538.58pt' viewBox='0 0 785.20 538.58'>
<defs>
  <style type='text/css'><![CDATA[
    .svglite line, .svglite polyline, .svglite polygon, .svglite path, .svglite rect, .svglite circle {
      fill: none;
      stroke: #000000;
      stroke-linecap: round;
      stroke-linejoin: round;
      stroke-miterlimit: 10.00;
    }
  ]]></style>
</defs>
<rect width='100%' height='100%' style='stroke: none; fill: none;'/>
<defs>
  <clipPath id='cpMC4wMHw3ODUuMjB8MC4wMHw1MzguNTg='>
    <rect x='0.00' y='0.00' width='785.20' height='538.58' />
  </clipPath>
</defs>
<g clip-path='url(#cpMC4wMHw3ODUuMjB8MC4wMHw1MzguNTg=)'>
</g>
<defs>
  <clipPath id='cpMTA5Ljg2fDc3MC44MHwxMTYuOTJ8Mzg1LjAz'>
    <rect x='109.86' y='116.92' width='660.94' height='268.11' />
  </clipPath>
</defs>
<g clip-path='url(#cpMTA5Ljg2fDc3MC44MHwxMTYuOTJ8Mzg1LjAz)'>
<polyline points='109.86,354.70 770.80,354.70 ' style='stroke-width: 0.53; stroke: #EBEBEB; stroke-linecap: butt;' />
<polyline points='109.86,290.68 770.80,290.68 ' style='stroke-width: 0.53; stroke: #EBEBEB; stroke-linecap: butt;' />
<polyline points='109.86,226.67 770.80,226.67 ' style='stroke-width: 0.53; stroke: #EBEBEB; stroke-linecap: butt;' />
<polyline points='109.86,162.65 770.80,162.65 ' style='stroke-width: 0.53; stroke: #EBEBEB; stroke-linecap: butt;' />
<polyline points='109.86,322.69 770.80,322.69 ' style='stroke-width: 1.07; stroke: #EBEBEB; stroke-linecap: butt;' />
<polyline points='109.86,258.68 770.80,258.68 ' style='stroke-width: 1.07; stroke: #EBEBEB; stroke-linecap: butt;' />
<polyline points='109.86,194.66 770.80,194.66 ' style='stroke-width: 1.07; stroke: #EBEBEB; stroke-linecap: butt;' />
<polyline points='109.86,130.64 770.80,130.64 ' style='stroke-width: 1.07; stroke: #EBEBEB; stroke-linecap: butt;' />
<polyline points='124.44,385.03 124.44,116.92 ' style='stroke-width: 1.07; stroke: #EBEBEB; stroke-linecap: butt;' />
<polyline points='148.74,385.03 148.74,116.92 ' style='stroke-width: 1.07; stroke: #EBEBEB; stroke-linecap: butt;' />
<polyline points='173.04,385.03 173.04,116.92 ' style='stroke-width: 1.07; stroke: #EBEBEB; stroke-linecap: butt;' />
<polyline points='197.34,385.03 197.34,116.92 ' style='stroke-width: 1.07; stroke: #EBEBEB; stroke-linecap: butt;' />
<polyline points='221.64,385.03 221.64,116.92 ' style='stroke-width: 1.07; stroke: #EBEBEB; stroke-linecap: butt;' />
<polyline points='245.94,385.03 245.94,116.92 ' style='stroke-width: 1.07; stroke: #EBEBEB; stroke-linecap: butt;' />
<polyline points='270.24,385.03 270.24,116.92 ' style='stroke-width: 1.07; stroke: #EBEBEB; stroke-linecap: butt;' />
<polyline points='294.53,385.03 294.53,116.92 ' style='stroke-width: 1.07; stroke: #EBEBEB; stroke-linecap: butt;' />
<polyline points='318.83,385.03 318.83,116.92 ' style='stroke-width: 1.07; stroke: #EBEBEB; stroke-linecap: butt;' />
<polyline points='343.13,385.03 343.13,116.92 ' style='stroke-width: 1.07; stroke: #EBEBEB; stroke-linecap: butt;' />
<polyline points='367.43,385.03 367.43,116.92 ' style='stroke-width: 1.07; stroke: #EBEBEB; stroke-linecap: butt;' />
<polyline points='391.73,385.03 391.73,116.92 ' style='stroke-width: 1.07; stroke: #EBEBEB; stroke-linecap: butt;' />
<polyline points='416.03,385.03 416.03,116.92 ' style='stroke-width: 1.07; stroke: #EBEBEB; stroke-linecap: butt;' />
<polyline points='440.33,385.03 440.33,116.92 ' style='stroke-width: 1.07; stroke: #EBEBEB; stroke-linecap: butt;' />
<polyline points='464.63,385.03 464.63,116.92 ' style='stroke-width: 1.07; stroke: #EBEBEB; stroke-linecap: butt;' />
<polyline points='488.93,385.03 488.93,116.92 ' style='stroke-width: 1.07; stroke: #EBEBEB; stroke-linecap: butt;' />
<polyline points='513.23,385.03 513.23,116.92 ' style='stroke-width: 1.07; stroke: #EBEBEB; stroke-linecap: butt;' />
<polyline points='537.53,385.03 537.53,116.92 ' style='stroke-width: 1.07; stroke: #EBEBEB; stroke-linecap: butt;' />
<polyline points='561.82,385.03 561.82,116.92 ' style='stroke-width: 1.07; stroke: #EBEBEB; stroke-linecap: butt;' />
<polyline points='586.12,385.03 586.12,116.92 ' style='stroke-width: 1.07; stroke: #EBEBEB; stroke-linecap: butt;' />
<polyline points='610.42,385.03 610.42,116.92 ' style='stroke-width: 1.07; stroke: #EBEBEB; stroke-linecap: butt;' />
<polyline points='634.72,385.03 634.72,116.92 ' style='stroke-width: 1.07; stroke: #EBEBEB; stroke-linecap: butt;' />
<polyline points='659.02,385.03 659.02,116.92 ' style='stroke-width: 1.07; stroke: #EBEBEB; stroke-linecap: butt;' />
<polyline points='683.32,385.03 683.32,116.92 ' style='stroke-width: 1.07; stroke: #EBEBEB; stroke-linecap: butt;' />
<polyline points='707.62,385.03 707.62,116.92 ' style='stroke-width: 1.07; stroke: #EBEBEB; stroke-linecap: butt;' />
<polyline points='731.92,385.03 731.92,116.92 ' style='stroke-width: 1.07; stroke: #EBEBEB; stroke-linecap: butt;' />
<polyline points='756.22,385.03 756.22,116.92 ' style='stroke-width: 1.07; stroke: #EBEBEB; stroke-linecap: butt;' />
<rect x='720.98' y='194.66' width='21.87' height='0.00' style='stroke-width: 0.21; stroke-linecap: square; stroke-linejoin: miter; fill: #FDE725;' />
<rect x='599.49' y='194.66' width='21.87' height='7.77' style='stroke-width: 0.21; stroke-linecap: square; stroke-linejoin: miter; fill: #21908C;' />
<rect x='575.19' y='194.66' width='21.87' height='126.19' style='stroke-width: 0.21; stroke-linecap: square; stroke-linejoin: miter; fill: #21908C;' />
<rect x='380.80' y='194.66' width='21.87' height='66.17' style='stroke-width: 0.21; stroke-linecap: square; stroke-linejoin: miter; fill: #31688E;' />
<rect x='186.40' y='194.66' width='21.87' height='178.19' style='stroke-width: 0.21; stroke-linecap: square; stroke-linejoin: miter; fill: #443A83;' />
<rect x='696.68' y='194.66' width='21.87' height='0.00' style='stroke-width: 0.21; stroke-linecap: square; stroke-linejoin: miter; fill: #8FD744;' />
<rect x='550.89' y='171.43' width='21.87' height='23.23' style='stroke-width: 0.21; stroke-linecap: square; stroke-linejoin: miter; fill: #21908C;' />
<rect x='210.70' y='194.66' width='21.87' height='171.21' style='stroke-width: 0.21; stroke-linecap: square; stroke-linejoin: miter; fill: #443A83;' />
<rect x='283.60' y='194.66' width='21.87' height='6.66' style='stroke-width: 0.21; stroke-linecap: square; stroke-linejoin: miter; fill: #443A83;' />
<rect x='648.09' y='194.66' width='21.87' height='27.38' style='stroke-width: 0.21; stroke-linecap: square; stroke-linejoin: miter; fill: #35B779;' />
<rect x='623.79' y='194.66' width='21.87' height='1.86' style='stroke-width: 0.21; stroke-linecap: square; stroke-linejoin: miter; fill: #35B779;' />
<rect x='672.39' y='194.66' width='21.87' height='29.04' style='stroke-width: 0.21; stroke-linecap: square; stroke-linejoin: miter; fill: #35B779;' />
<rect x='477.99' y='194.66' width='21.87' height='39.50' style='stroke-width: 0.21; stroke-linecap: square; stroke-linejoin: miter; fill: #31688E;' />
<rect x='745.28' y='194.66' width='21.87' height='0.00' style='stroke-width: 0.21; stroke-linecap: square; stroke-linejoin: miter; fill: #FDE725;' />
<rect x='356.50' y='129.11' width='21.87' height='65.55' style='stroke-width: 0.21; stroke-linecap: square; stroke-linejoin: miter; fill: #31688E;' />
<rect x='429.39' y='194.66' width='21.87' height='56.93' style='stroke-width: 0.21; stroke-linecap: square; stroke-linejoin: miter; fill: #31688E;' />
<rect x='162.10' y='194.66' width='21.87' height='32.53' style='stroke-width: 0.21; stroke-linecap: square; stroke-linejoin: miter; fill: #440154;' />
<rect x='332.20' y='194.66' width='21.87' height='67.24' style='stroke-width: 0.21; stroke-linecap: square; stroke-linejoin: miter; fill: #443A83;' />
<rect x='405.10' y='194.66' width='21.87' height='11.36' style='stroke-width: 0.21; stroke-linecap: square; stroke-linejoin: miter; fill: #31688E;' />
<rect x='307.90' y='194.66' width='21.87' height='88.29' style='stroke-width: 0.21; stroke-linecap: square; stroke-linejoin: miter; fill: #443A83;' />
<rect x='259.30' y='192.35' width='21.87' height='2.30' style='stroke-width: 0.21; stroke-linecap: square; stroke-linejoin: miter; fill: #443A83;' />
<rect x='502.29' y='133.64' width='21.87' height='61.02' style='stroke-width: 0.21; stroke-linecap: square; stroke-linejoin: miter; fill: #21908C;' />
<rect x='526.59' y='132.12' width='21.87' height='62.53' style='stroke-width: 0.21; stroke-linecap: square; stroke-linejoin: miter; fill: #21908C;' />
<rect x='235.00' y='194.66' width='21.87' height='94.86' style='stroke-width: 0.21; stroke-linecap: square; stroke-linejoin: miter; fill: #443A83;' />
<rect x='137.80' y='194.66' width='21.87' height='51.93' style='stroke-width: 0.21; stroke-linecap: square; stroke-linejoin: miter; fill: #440154;' />
<rect x='113.51' y='194.66' width='21.87' height='37.13' style='stroke-width: 0.21; stroke-linecap: square; stroke-linejoin: miter; fill: #440154;' />
<rect x='453.69' y='194.66' width='21.87' height='48.94' style='stroke-width: 0.21; stroke-linecap: square; stroke-linejoin: miter; fill: #31688E;' />
</g>
<g clip-path='url(#cpMC4wMHw3ODUuMjB8MC4wMHw1MzguNTg=)'>
<text x='104.93' y='325.84' text-anchor='end' style='font-size: 8.80px; fill: #4D4D4D; font-family: Arial;' textLength='22.51px' lengthAdjust='spacingAndGlyphs'>-1000</text>
<text x='104.93' y='261.83' text-anchor='end' style='font-size: 8.80px; fill: #4D4D4D; font-family: Arial;' textLength='17.62px' lengthAdjust='spacingAndGlyphs'>-500</text>
<text x='104.93' y='197.81' text-anchor='end' style='font-size: 8.80px; fill: #4D4D4D; font-family: Arial;' textLength='4.90px' lengthAdjust='spacingAndGlyphs'>0</text>
<text x='104.93' y='133.79' text-anchor='end' style='font-size: 8.80px; fill: #4D4D4D; font-family: Arial;' textLength='14.69px' lengthAdjust='spacingAndGlyphs'>500</text>
<text transform='translate(128.90,394.42) rotate(-45)' text-anchor='end' style='font-size: 8.80px; fill: #4D4D4D; font-family: Arial;' textLength='144.33px' lengthAdjust='spacingAndGlyphs'>Use frequency and intensity by users</text>
<text transform='translate(153.19,394.42) rotate(-45)' text-anchor='end' style='font-size: 8.80px; fill: #4D4D4D; font-family: Arial;' textLength='115.47px' lengthAdjust='spacingAndGlyphs'>Use in vulnerable populations</text>
<text transform='translate(177.49,394.42) rotate(-45)' text-anchor='end' style='font-size: 8.80px; fill: #4D4D4D; font-family: Arial;' textLength='124.77px' lengthAdjust='spacingAndGlyphs'>Prevalence (general population)</text>
<text transform='translate(201.79,394.42) rotate(-45)' text-anchor='end' style='font-size: 8.80px; fill: #4D4D4D; font-family: Arial;' textLength='136.97px' lengthAdjust='spacingAndGlyphs'>Quality of information about MDMA</text>
<text transform='translate(226.09,394.42) rotate(-45)' text-anchor='end' style='font-size: 8.80px; fill: #4D4D4D; font-family: Arial;' textLength='59.70px' lengthAdjust='spacingAndGlyphs'>Health damage</text>
<text transform='translate(250.39,394.42) rotate(-45)' text-anchor='end' style='font-size: 8.80px; fill: #4D4D4D; font-family: Arial;' textLength='89.04px' lengthAdjust='spacingAndGlyphs'>Stigmatization of users</text>
<text transform='translate(274.69,394.42) rotate(-45)' text-anchor='end' style='font-size: 8.80px; fill: #4D4D4D; font-family: Arial;' textLength='57.24px' lengthAdjust='spacingAndGlyphs'>Social benefits</text>
<text transform='translate(298.99,394.42) rotate(-45)' text-anchor='end' style='font-size: 8.80px; fill: #4D4D4D; font-family: Arial;' textLength='58.72px' lengthAdjust='spacingAndGlyphs'>Health benefits</text>
<text transform='translate(323.29,394.42) rotate(-45)' text-anchor='end' style='font-size: 8.80px; fill: #4D4D4D; font-family: Arial;' textLength='58.22px' lengthAdjust='spacingAndGlyphs'>Social damage</text>
<text transform='translate(347.59,394.42) rotate(-45)' text-anchor='end' style='font-size: 8.80px; fill: #4D4D4D; font-family: Arial;' textLength='74.38px' lengthAdjust='spacingAndGlyphs'>Shift to other drugs</text>
<text transform='translate(371.89,394.42) rotate(-45)' text-anchor='end' style='font-size: 8.80px; fill: #4D4D4D; font-family: Arial;' textLength='129.59px' lengthAdjust='spacingAndGlyphs'>Organized crime (MDMA-related)</text>
<text transform='translate(396.19,394.42) rotate(-45)' text-anchor='end' style='font-size: 8.80px; fill: #4D4D4D; font-family: Arial;' textLength='91.45px' lengthAdjust='spacingAndGlyphs'>Criminalisation of users</text>
<text transform='translate(420.48,394.42) rotate(-45)' text-anchor='end' style='font-size: 8.80px; fill: #4D4D4D; font-family: Arial;' textLength='103.65px' lengthAdjust='spacingAndGlyphs'>MDMA-related small crime</text>
<text transform='translate(444.78,394.42) rotate(-45)' text-anchor='end' style='font-size: 8.80px; fill: #4D4D4D; font-family: Arial;' textLength='144.28px' lengthAdjust='spacingAndGlyphs'>Organized crime (not MDMA-related)</text>
<text transform='translate(469.08,394.42) rotate(-45)' text-anchor='end' style='font-size: 8.80px; fill: #4D4D4D; font-family: Arial;' textLength='156.05px' lengthAdjust='spacingAndGlyphs'>Criminals exploitating vulnerable groups</text>
<text transform='translate(493.38,394.42) rotate(-45)' text-anchor='end' style='font-size: 8.80px; fill: #4D4D4D; font-family: Arial;' textLength='127.52px' lengthAdjust='spacingAndGlyphs'>International trafficking of MDMA</text>
<text transform='translate(517.68,394.42) rotate(-45)' text-anchor='end' style='font-size: 8.80px; fill: #4D4D4D; font-family: Arial;' textLength='83.19px' lengthAdjust='spacingAndGlyphs'>State revenue (other)</text>
<text transform='translate(541.98,394.42) rotate(-45)' text-anchor='end' style='font-size: 8.80px; fill: #4D4D4D; font-family: Arial;' textLength='78.92px' lengthAdjust='spacingAndGlyphs'>State revenue (VAT)</text>
<text transform='translate(566.28,394.42) rotate(-45)' text-anchor='end' style='font-size: 8.80px; fill: #4D4D4D; font-family: Arial;' textLength='143.34px' lengthAdjust='spacingAndGlyphs'>Costs related to pollution (dumpings)</text>
<text transform='translate(590.58,394.42) rotate(-45)' text-anchor='end' style='font-size: 8.80px; fill: #4D4D4D; font-family: Arial;' textLength='122.34px' lengthAdjust='spacingAndGlyphs'>Costs related to health damage</text>
<text transform='translate(614.88,394.42) rotate(-45)' text-anchor='end' style='font-size: 8.80px; fill: #4D4D4D; font-family: Arial;' textLength='85.60px' lengthAdjust='spacingAndGlyphs'>Costs related to crime</text>
<text transform='translate(639.18,394.42) rotate(-45)' text-anchor='end' style='font-size: 8.80px; fill: #4D4D4D; font-family: Arial;' textLength='73.86px' lengthAdjust='spacingAndGlyphs'>Economic boycotts</text>
<text transform='translate(663.48,394.42) rotate(-45)' text-anchor='end' style='font-size: 8.80px; fill: #4D4D4D; font-family: Arial;' textLength='149.25px' lengthAdjust='spacingAndGlyphs'>International image of the Netherlands</text>
<text transform='translate(687.77,394.42) rotate(-45)' text-anchor='end' style='font-size: 8.80px; fill: #4D4D4D; font-family: Arial;' textLength='139.94px' lengthAdjust='spacingAndGlyphs'>International legal countermeasures</text>
<text transform='translate(712.07,394.42) rotate(-45)' text-anchor='end' style='font-size: 8.80px; fill: #4D4D4D; font-family: Arial;' textLength='90.51px' lengthAdjust='spacingAndGlyphs'>Environmental damage</text>
<text transform='translate(736.37,394.42) rotate(-45)' text-anchor='end' style='font-size: 8.80px; fill: #4D4D4D; font-family: Arial;' textLength='163.38px' lengthAdjust='spacingAndGlyphs'>Policy consistent with conservative values</text>
<text transform='translate(760.67,394.42) rotate(-45)' text-anchor='end' style='font-size: 8.80px; fill: #4D4D4D; font-family: Arial;' textLength='137.44px' lengthAdjust='spacingAndGlyphs'>Policy consistent with liberal values</text>
<text x='440.33' y='521.86' text-anchor='middle' style='font-size: 11.00px; font-family: Arial;' textLength='35.45px' lengthAdjust='spacingAndGlyphs'>Criteria</text>
<text transform='translate(65.48,250.98) rotate(-90)' text-anchor='middle' style='font-size: 11.00px; font-family: Arial;' textLength='117.44px' lengthAdjust='spacingAndGlyphs'>Total score per outcome</text>
<text transform='translate(77.36,250.98) rotate(-90)' text-anchor='middle' style='font-size: 11.00px; font-family: Arial;' textLength='137.61px' lengthAdjust='spacingAndGlyphs'>(sum of weighted estimates)</text>
<text x='172.14' y='72.97' style='font-size: 11.00px; font-family: Arial;' textLength='37.91px' lengthAdjust='spacingAndGlyphs'>clusters</text>
<rect x='215.67' y='51.89' width='17.00' height='17.00' style='stroke-width: 0.21; stroke-linecap: square; stroke-linejoin: miter; fill: #440154;' />
<rect x='215.67' y='69.17' width='17.00' height='17.00' style='stroke-width: 0.21; stroke-linecap: square; stroke-linejoin: miter; fill: #443A83;' />
<rect x='353.49' y='51.89' width='17.00' height='17.00' style='stroke-width: 0.21; stroke-linecap: square; stroke-linejoin: miter; fill: #31688E;' />
<rect x='353.49' y='69.17' width='17.00' height='17.00' style='stroke-width: 0.21; stroke-linecap: square; stroke-linejoin: miter; fill: #21908C;' />
<rect x='490.34' y='51.89' width='17.00' height='17.00' style='stroke-width: 0.21; stroke-linecap: square; stroke-linejoin: miter; fill: #35B779;' />
<rect x='490.34' y='69.17' width='17.00' height='17.00' style='stroke-width: 0.21; stroke-linecap: square; stroke-linejoin: miter; fill: #8FD744;' />
<rect x='615.94' y='51.89' width='17.00' height='17.00' style='stroke-width: 0.21; stroke-linecap: square; stroke-linejoin: miter; fill: #FDE725;' />
<text x='238.29' y='63.54' style='font-size: 8.80px; font-family: Arial;' textLength='109.58px' lengthAdjust='spacingAndGlyphs'>Use (prevalence &amp; patterns)</text>
<text x='238.29' y='80.82' style='font-size: 8.80px; font-family: Arial;' textLength='45.01px' lengthAdjust='spacingAndGlyphs'>User health</text>
<text x='376.11' y='63.54' style='font-size: 8.80px; font-family: Arial;' textLength='23.46px' lengthAdjust='spacingAndGlyphs'>Crime</text>
<text x='376.11' y='80.82' style='font-size: 8.80px; font-family: Arial;' textLength='108.61px' lengthAdjust='spacingAndGlyphs'>Financial costs and benefits</text>
<text x='512.96' y='63.54' style='font-size: 8.80px; font-family: Arial;' textLength='77.79px' lengthAdjust='spacingAndGlyphs'>International politics</text>
<text x='512.96' y='80.82' style='font-size: 8.80px; font-family: Arial;' textLength='97.36px' lengthAdjust='spacingAndGlyphs'>Environmental protection</text>
<text x='638.56' y='63.54' style='font-size: 8.80px; font-family: Arial;' textLength='69.96px' lengthAdjust='spacingAndGlyphs'>Ideological values</text>
<text x='57.60' y='23.85' style='font-size: 13.20px; font-family: Arial;' textLength='333.55px' lengthAdjust='spacingAndGlyphs'>MDMCDA scores per criterion for Lowest possible scores</text>
</g>
</svg>
