<?xml version='1.0' encoding='UTF-8' ?>
<svg xmlns='http://www.w3.org/2000/svg' xmlns:xlink='http://www.w3.org/1999/xlink' class='svglite' width='785.20pt' height='538.58pt' viewBox='0 0 785.20 538.58'>
<defs>
  <style type='text/css'><![CDATA[
    .svglite line, .svglite polyline, .svglite polygon, .svglite path, .svglite rect, .svglite circle {
      fill: none;
      stroke: #000000;
      stroke-linecap: round;
      stroke-linejoin: round;
      stroke-miterlimit: 10.00;
    }
  ]]></style>
</defs>
<rect width='100%' height='100%' style='stroke: none; fill: none;'/>
<defs>
  <clipPath id='cpMC4wMHw3ODUuMjB8MC4wMHw1MzguNTg='>
    <rect x='0.00' y='0.00' width='785.20' height='538.58' />
  </clipPath>
</defs>
<g clip-path='url(#cpMC4wMHw3ODUuMjB8MC4wMHw1MzguNTg=)'>
</g>
<defs>
  <clipPath id='cpMTA2LjkzfDc3MC44MHwxMTYuOTJ8Mzg1LjAz'>
    <rect x='106.93' y='116.92' width='663.87' height='268.11' />
  </clipPath>
</defs>
<g clip-path='url(#cpMTA2LjkzfDc3MC44MHwxMTYuOTJ8Mzg1LjAz)'>
<polyline points='106.93,311.90 770.80,311.90 ' style='stroke-width: 0.53; stroke: #EBEBEB; stroke-linecap: butt;' />
<polyline points='106.93,226.65 770.80,226.65 ' style='stroke-width: 0.53; stroke: #EBEBEB; stroke-linecap: butt;' />
<polyline points='106.93,141.40 770.80,141.40 ' style='stroke-width: 0.53; stroke: #EBEBEB; stroke-linecap: butt;' />
<polyline points='106.93,354.52 770.80,354.52 ' style='stroke-width: 1.07; stroke: #EBEBEB; stroke-linecap: butt;' />
<polyline points='106.93,269.27 770.80,269.27 ' style='stroke-width: 1.07; stroke: #EBEBEB; stroke-linecap: butt;' />
<polyline points='106.93,184.02 770.80,184.02 ' style='stroke-width: 1.07; stroke: #EBEBEB; stroke-linecap: butt;' />
<polyline points='121.57,385.03 121.57,116.92 ' style='stroke-width: 1.07; stroke: #EBEBEB; stroke-linecap: butt;' />
<polyline points='145.98,385.03 145.98,116.92 ' style='stroke-width: 1.07; stroke: #EBEBEB; stroke-linecap: butt;' />
<polyline points='170.39,385.03 170.39,116.92 ' style='stroke-width: 1.07; stroke: #EBEBEB; stroke-linecap: butt;' />
<polyline points='194.80,385.03 194.80,116.92 ' style='stroke-width: 1.07; stroke: #EBEBEB; stroke-linecap: butt;' />
<polyline points='219.20,385.03 219.20,116.92 ' style='stroke-width: 1.07; stroke: #EBEBEB; stroke-linecap: butt;' />
<polyline points='243.61,385.03 243.61,116.92 ' style='stroke-width: 1.07; stroke: #EBEBEB; stroke-linecap: butt;' />
<polyline points='268.02,385.03 268.02,116.92 ' style='stroke-width: 1.07; stroke: #EBEBEB; stroke-linecap: butt;' />
<polyline points='292.42,385.03 292.42,116.92 ' style='stroke-width: 1.07; stroke: #EBEBEB; stroke-linecap: butt;' />
<polyline points='316.83,385.03 316.83,116.92 ' style='stroke-width: 1.07; stroke: #EBEBEB; stroke-linecap: butt;' />
<polyline points='341.24,385.03 341.24,116.92 ' style='stroke-width: 1.07; stroke: #EBEBEB; stroke-linecap: butt;' />
<polyline points='365.64,385.03 365.64,116.92 ' style='stroke-width: 1.07; stroke: #EBEBEB; stroke-linecap: butt;' />
<polyline points='390.05,385.03 390.05,116.92 ' style='stroke-width: 1.07; stroke: #EBEBEB; stroke-linecap: butt;' />
<polyline points='414.46,385.03 414.46,116.92 ' style='stroke-width: 1.07; stroke: #EBEBEB; stroke-linecap: butt;' />
<polyline points='438.86,385.03 438.86,116.92 ' style='stroke-width: 1.07; stroke: #EBEBEB; stroke-linecap: butt;' />
<polyline points='463.27,385.03 463.27,116.92 ' style='stroke-width: 1.07; stroke: #EBEBEB; stroke-linecap: butt;' />
<polyline points='487.68,385.03 487.68,116.92 ' style='stroke-width: 1.07; stroke: #EBEBEB; stroke-linecap: butt;' />
<polyline points='512.08,385.03 512.08,116.92 ' style='stroke-width: 1.07; stroke: #EBEBEB; stroke-linecap: butt;' />
<polyline points='536.49,385.03 536.49,116.92 ' style='stroke-width: 1.07; stroke: #EBEBEB; stroke-linecap: butt;' />
<polyline points='560.90,385.03 560.90,116.92 ' style='stroke-width: 1.07; stroke: #EBEBEB; stroke-linecap: butt;' />
<polyline points='585.30,385.03 585.30,116.92 ' style='stroke-width: 1.07; stroke: #EBEBEB; stroke-linecap: butt;' />
<polyline points='609.71,385.03 609.71,116.92 ' style='stroke-width: 1.07; stroke: #EBEBEB; stroke-linecap: butt;' />
<polyline points='634.12,385.03 634.12,116.92 ' style='stroke-width: 1.07; stroke: #EBEBEB; stroke-linecap: butt;' />
<polyline points='658.53,385.03 658.53,116.92 ' style='stroke-width: 1.07; stroke: #EBEBEB; stroke-linecap: butt;' />
<polyline points='682.93,385.03 682.93,116.92 ' style='stroke-width: 1.07; stroke: #EBEBEB; stroke-linecap: butt;' />
<polyline points='707.34,385.03 707.34,116.92 ' style='stroke-width: 1.07; stroke: #EBEBEB; stroke-linecap: butt;' />
<polyline points='731.75,385.03 731.75,116.92 ' style='stroke-width: 1.07; stroke: #EBEBEB; stroke-linecap: butt;' />
<polyline points='756.15,385.03 756.15,116.92 ' style='stroke-width: 1.07; stroke: #EBEBEB; stroke-linecap: butt;' />
<rect x='720.76' y='354.52' width='21.97' height='0.00' style='stroke-width: 0.21; stroke-linecap: square; stroke-linejoin: miter; fill: #FDE725;' />
<rect x='598.73' y='354.52' width='21.97' height='7.24' style='stroke-width: 0.21; stroke-linecap: square; stroke-linejoin: miter; fill: #21908C;' />
<rect x='574.32' y='342.69' width='21.97' height='11.83' style='stroke-width: 0.21; stroke-linecap: square; stroke-linejoin: miter; fill: #21908C;' />
<rect x='379.07' y='277.42' width='21.97' height='77.10' style='stroke-width: 0.21; stroke-linecap: square; stroke-linejoin: miter; fill: #31688E;' />
<rect x='183.81' y='129.11' width='21.97' height='225.41' style='stroke-width: 0.21; stroke-linecap: square; stroke-linejoin: miter; fill: #443A83;' />
<rect x='696.36' y='260.09' width='21.97' height='94.43' style='stroke-width: 0.21; stroke-linecap: square; stroke-linejoin: miter; fill: #8FD744;' />
<rect x='549.91' y='318.43' width='21.97' height='36.09' style='stroke-width: 0.21; stroke-linecap: square; stroke-linejoin: miter; fill: #21908C;' />
<rect x='208.22' y='191.67' width='21.97' height='162.85' style='stroke-width: 0.21; stroke-linecap: square; stroke-linejoin: miter; fill: #443A83;' />
<rect x='281.44' y='336.79' width='21.97' height='17.73' style='stroke-width: 0.21; stroke-linecap: square; stroke-linejoin: miter; fill: #443A83;' />
<rect x='647.54' y='354.52' width='21.97' height='7.46' style='stroke-width: 0.21; stroke-linecap: square; stroke-linejoin: miter; fill: #35B779;' />
<rect x='623.14' y='354.52' width='21.97' height='0.62' style='stroke-width: 0.21; stroke-linecap: square; stroke-linejoin: miter; fill: #35B779;' />
<rect x='671.95' y='354.52' width='21.97' height='14.50' style='stroke-width: 0.21; stroke-linecap: square; stroke-linejoin: miter; fill: #35B779;' />
<rect x='476.69' y='347.00' width='21.97' height='7.51' style='stroke-width: 0.21; stroke-linecap: square; stroke-linejoin: miter; fill: #31688E;' />
<rect x='745.17' y='354.52' width='21.97' height='0.00' style='stroke-width: 0.21; stroke-linecap: square; stroke-linejoin: miter; fill: #FDE725;' />
<rect x='354.66' y='214.86' width='21.97' height='139.66' style='stroke-width: 0.21; stroke-linecap: square; stroke-linejoin: miter; fill: #31688E;' />
<rect x='427.88' y='326.09' width='21.97' height='28.43' style='stroke-width: 0.21; stroke-linecap: square; stroke-linejoin: miter; fill: #31688E;' />
<rect x='159.41' y='354.52' width='21.97' height='18.32' style='stroke-width: 0.21; stroke-linecap: square; stroke-linejoin: miter; fill: #440154;' />
<rect x='330.25' y='354.52' width='21.97' height='8.95' style='stroke-width: 0.21; stroke-linecap: square; stroke-linejoin: miter; fill: #443A83;' />
<rect x='403.47' y='305.35' width='21.97' height='49.17' style='stroke-width: 0.21; stroke-linecap: square; stroke-linejoin: miter; fill: #31688E;' />
<rect x='305.85' y='334.17' width='21.97' height='20.35' style='stroke-width: 0.21; stroke-linecap: square; stroke-linejoin: miter; fill: #443A83;' />
<rect x='257.03' y='337.65' width='21.97' height='16.87' style='stroke-width: 0.21; stroke-linecap: square; stroke-linejoin: miter; fill: #443A83;' />
<rect x='501.10' y='302.28' width='21.97' height='52.24' style='stroke-width: 0.21; stroke-linecap: square; stroke-linejoin: miter; fill: #21908C;' />
<rect x='525.51' y='309.55' width='21.97' height='44.97' style='stroke-width: 0.21; stroke-linecap: square; stroke-linejoin: miter; fill: #21908C;' />
<rect x='232.63' y='300.72' width='21.97' height='53.80' style='stroke-width: 0.21; stroke-linecap: square; stroke-linejoin: miter; fill: #443A83;' />
<rect x='135.00' y='337.23' width='21.97' height='17.29' style='stroke-width: 0.21; stroke-linecap: square; stroke-linejoin: miter; fill: #440154;' />
<rect x='110.59' y='293.84' width='21.97' height='60.68' style='stroke-width: 0.21; stroke-linecap: square; stroke-linejoin: miter; fill: #440154;' />
<rect x='452.29' y='331.24' width='21.97' height='23.28' style='stroke-width: 0.21; stroke-linecap: square; stroke-linejoin: miter; fill: #31688E;' />
</g>
<g clip-path='url(#cpMC4wMHw3ODUuMjB8MC4wMHw1MzguNTg=)'>
<text x='102.00' y='357.67' text-anchor='end' style='font-size: 8.80px; fill: #4D4D4D; font-family: Arial;' textLength='4.90px' lengthAdjust='spacingAndGlyphs'>0</text>
<text x='102.00' y='272.42' text-anchor='end' style='font-size: 8.80px; fill: #4D4D4D; font-family: Arial;' textLength='19.58px' lengthAdjust='spacingAndGlyphs'>1000</text>
<text x='102.00' y='187.17' text-anchor='end' style='font-size: 8.80px; fill: #4D4D4D; font-family: Arial;' textLength='19.58px' lengthAdjust='spacingAndGlyphs'>2000</text>
<text transform='translate(126.03,394.42) rotate(-45)' text-anchor='end' style='font-size: 8.80px; fill: #4D4D4D; font-family: Arial;' textLength='144.33px' lengthAdjust='spacingAndGlyphs'>Use frequency and intensity by users</text>
<text transform='translate(150.44,394.42) rotate(-45)' text-anchor='end' style='font-size: 8.80px; fill: #4D4D4D; font-family: Arial;' textLength='115.47px' lengthAdjust='spacingAndGlyphs'>Use in vulnerable populations</text>
<text transform='translate(174.84,394.42) rotate(-45)' text-anchor='end' style='font-size: 8.80px; fill: #4D4D4D; font-family: Arial;' textLength='124.77px' lengthAdjust='spacingAndGlyphs'>Prevalence (general population)</text>
<text transform='translate(199.25,394.42) rotate(-45)' text-anchor='end' style='font-size: 8.80px; fill: #4D4D4D; font-family: Arial;' textLength='136.97px' lengthAdjust='spacingAndGlyphs'>Quality of information about MDMA</text>
<text transform='translate(223.66,394.42) rotate(-45)' text-anchor='end' style='font-size: 8.80px; fill: #4D4D4D; font-family: Arial;' textLength='59.70px' lengthAdjust='spacingAndGlyphs'>Health damage</text>
<text transform='translate(248.06,394.42) rotate(-45)' text-anchor='end' style='font-size: 8.80px; fill: #4D4D4D; font-family: Arial;' textLength='89.04px' lengthAdjust='spacingAndGlyphs'>Stigmatization of users</text>
<text transform='translate(272.47,394.42) rotate(-45)' text-anchor='end' style='font-size: 8.80px; fill: #4D4D4D; font-family: Arial;' textLength='57.24px' lengthAdjust='spacingAndGlyphs'>Social benefits</text>
<text transform='translate(296.88,394.42) rotate(-45)' text-anchor='end' style='font-size: 8.80px; fill: #4D4D4D; font-family: Arial;' textLength='58.72px' lengthAdjust='spacingAndGlyphs'>Health benefits</text>
<text transform='translate(321.28,394.42) rotate(-45)' text-anchor='end' style='font-size: 8.80px; fill: #4D4D4D; font-family: Arial;' textLength='58.22px' lengthAdjust='spacingAndGlyphs'>Social damage</text>
<text transform='translate(345.69,394.42) rotate(-45)' text-anchor='end' style='font-size: 8.80px; fill: #4D4D4D; font-family: Arial;' textLength='74.38px' lengthAdjust='spacingAndGlyphs'>Shift to other drugs</text>
<text transform='translate(370.10,394.42) rotate(-45)' text-anchor='end' style='font-size: 8.80px; fill: #4D4D4D; font-family: Arial;' textLength='129.59px' lengthAdjust='spacingAndGlyphs'>Organized crime (MDMA-related)</text>
<text transform='translate(394.50,394.42) rotate(-45)' text-anchor='end' style='font-size: 8.80px; fill: #4D4D4D; font-family: Arial;' textLength='91.45px' lengthAdjust='spacingAndGlyphs'>Criminalisation of users</text>
<text transform='translate(418.91,394.42) rotate(-45)' text-anchor='end' style='font-size: 8.80px; fill: #4D4D4D; font-family: Arial;' textLength='103.65px' lengthAdjust='spacingAndGlyphs'>MDMA-related small crime</text>
<text transform='translate(443.32,394.42) rotate(-45)' text-anchor='end' style='font-size: 8.80px; fill: #4D4D4D; font-family: Arial;' textLength='144.28px' lengthAdjust='spacingAndGlyphs'>Organized crime (not MDMA-related)</text>
<text transform='translate(467.73,394.42) rotate(-45)' text-anchor='end' style='font-size: 8.80px; fill: #4D4D4D; font-family: Arial;' textLength='156.05px' lengthAdjust='spacingAndGlyphs'>Criminals exploitating vulnerable groups</text>
<text transform='translate(492.13,394.42) rotate(-45)' text-anchor='end' style='font-size: 8.80px; fill: #4D4D4D; font-family: Arial;' textLength='127.52px' lengthAdjust='spacingAndGlyphs'>International trafficking of MDMA</text>
<text transform='translate(516.54,394.42) rotate(-45)' text-anchor='end' style='font-size: 8.80px; fill: #4D4D4D; font-family: Arial;' textLength='83.19px' lengthAdjust='spacingAndGlyphs'>State revenue (other)</text>
<text transform='translate(540.95,394.42) rotate(-45)' text-anchor='end' style='font-size: 8.80px; fill: #4D4D4D; font-family: Arial;' textLength='78.92px' lengthAdjust='spacingAndGlyphs'>State revenue (VAT)</text>
<text transform='translate(565.35,394.42) rotate(-45)' text-anchor='end' style='font-size: 8.80px; fill: #4D4D4D; font-family: Arial;' textLength='143.34px' lengthAdjust='spacingAndGlyphs'>Costs related to pollution (dumpings)</text>
<text transform='translate(589.76,394.42) rotate(-45)' text-anchor='end' style='font-size: 8.80px; fill: #4D4D4D; font-family: Arial;' textLength='122.34px' lengthAdjust='spacingAndGlyphs'>Costs related to health damage</text>
<text transform='translate(614.17,394.42) rotate(-45)' text-anchor='end' style='font-size: 8.80px; fill: #4D4D4D; font-family: Arial;' textLength='85.60px' lengthAdjust='spacingAndGlyphs'>Costs related to crime</text>
<text transform='translate(638.57,394.42) rotate(-45)' text-anchor='end' style='font-size: 8.80px; fill: #4D4D4D; font-family: Arial;' textLength='73.86px' lengthAdjust='spacingAndGlyphs'>Economic boycotts</text>
<text transform='translate(662.98,394.42) rotate(-45)' text-anchor='end' style='font-size: 8.80px; fill: #4D4D4D; font-family: Arial;' textLength='149.25px' lengthAdjust='spacingAndGlyphs'>International image of the Netherlands</text>
<text transform='translate(687.39,394.42) rotate(-45)' text-anchor='end' style='font-size: 8.80px; fill: #4D4D4D; font-family: Arial;' textLength='139.94px' lengthAdjust='spacingAndGlyphs'>International legal countermeasures</text>
<text transform='translate(711.79,394.42) rotate(-45)' text-anchor='end' style='font-size: 8.80px; fill: #4D4D4D; font-family: Arial;' textLength='90.51px' lengthAdjust='spacingAndGlyphs'>Environmental damage</text>
<text transform='translate(736.20,394.42) rotate(-45)' text-anchor='end' style='font-size: 8.80px; fill: #4D4D4D; font-family: Arial;' textLength='163.38px' lengthAdjust='spacingAndGlyphs'>Policy consistent with conservative values</text>
<text transform='translate(760.61,394.42) rotate(-45)' text-anchor='end' style='font-size: 8.80px; fill: #4D4D4D; font-family: Arial;' textLength='137.44px' lengthAdjust='spacingAndGlyphs'>Policy consistent with liberal values</text>
<text x='438.86' y='521.86' text-anchor='middle' style='font-size: 11.00px; font-family: Arial;' textLength='35.45px' lengthAdjust='spacingAndGlyphs'>Criteria</text>
<text transform='translate(65.48,250.98) rotate(-90)' text-anchor='middle' style='font-size: 11.00px; font-family: Arial;' textLength='117.44px' lengthAdjust='spacingAndGlyphs'>Total score per outcome</text>
<text transform='translate(77.36,250.98) rotate(-90)' text-anchor='middle' style='font-size: 11.00px; font-family: Arial;' textLength='137.61px' lengthAdjust='spacingAndGlyphs'>(sum of weighted estimates)</text>
<text x='170.67' y='72.97' style='font-size: 11.00px; font-family: Arial;' textLength='37.91px' lengthAdjust='spacingAndGlyphs'>clusters</text>
<rect x='214.20' y='51.89' width='17.00' height='17.00' style='stroke-width: 0.21; stroke-linecap: square; stroke-linejoin: miter; fill: #440154;' />
<rect x='214.20' y='69.17' width='17.00' height='17.00' style='stroke-width: 0.21; stroke-linecap: square; stroke-linejoin: miter; fill: #443A83;' />
<rect x='352.03' y='51.89' width='17.00' height='17.00' style='stroke-width: 0.21; stroke-linecap: square; stroke-linejoin: miter; fill: #31688E;' />
<rect x='352.03' y='69.17' width='17.00' height='17.00' style='stroke-width: 0.21; stroke-linecap: square; stroke-linejoin: miter; fill: #21908C;' />
<rect x='488.88' y='51.89' width='17.00' height='17.00' style='stroke-width: 0.21; stroke-linecap: square; stroke-linejoin: miter; fill: #35B779;' />
<rect x='488.88' y='69.17' width='17.00' height='17.00' style='stroke-width: 0.21; stroke-linecap: square; stroke-linejoin: miter; fill: #8FD744;' />
<rect x='614.47' y='51.89' width='17.00' height='17.00' style='stroke-width: 0.21; stroke-linecap: square; stroke-linejoin: miter; fill: #FDE725;' />
<text x='236.82' y='63.54' style='font-size: 8.80px; font-family: Arial;' textLength='109.58px' lengthAdjust='spacingAndGlyphs'>Use (prevalence &amp; patterns)</text>
<text x='236.82' y='80.82' style='font-size: 8.80px; font-family: Arial;' textLength='45.01px' lengthAdjust='spacingAndGlyphs'>User health</text>
<text x='374.64' y='63.54' style='font-size: 8.80px; font-family: Arial;' textLength='23.46px' lengthAdjust='spacingAndGlyphs'>Crime</text>
<text x='374.64' y='80.82' style='font-size: 8.80px; font-family: Arial;' textLength='108.61px' lengthAdjust='spacingAndGlyphs'>Financial costs and benefits</text>
<text x='511.49' y='63.54' style='font-size: 8.80px; font-family: Arial;' textLength='77.79px' lengthAdjust='spacingAndGlyphs'>International politics</text>
<text x='511.49' y='80.82' style='font-size: 8.80px; font-family: Arial;' textLength='97.36px' lengthAdjust='spacingAndGlyphs'>Environmental protection</text>
<text x='637.09' y='63.54' style='font-size: 8.80px; font-family: Arial;' textLength='69.96px' lengthAdjust='spacingAndGlyphs'>Ideological values</text>
<text x='57.60' y='23.85' style='font-size: 13.20px; font-family: Arial;' textLength='280.76px' lengthAdjust='spacingAndGlyphs'>MDMCDA scores per criterion for X-Shop model</text>
</g>
</svg>
