<?xml version='1.0' encoding='UTF-8' ?>
<svg xmlns='http://www.w3.org/2000/svg' xmlns:xlink='http://www.w3.org/1999/xlink' class='svglite' width='785.20pt' height='538.58pt' viewBox='0 0 785.20 538.58'>
<defs>
  <style type='text/css'><![CDATA[
    .svglite line, .svglite polyline, .svglite polygon, .svglite path, .svglite rect, .svglite circle {
      fill: none;
      stroke: #000000;
      stroke-linecap: round;
      stroke-linejoin: round;
      stroke-miterlimit: 10.00;
    }
  ]]></style>
</defs>
<rect width='100%' height='100%' style='stroke: none; fill: none;'/>
<defs>
  <clipPath id='cpMC4wMHw3ODUuMjB8MC4wMHw1MzguNTg='>
    <rect x='0.00' y='0.00' width='785.20' height='538.58' />
  </clipPath>
</defs>
<g clip-path='url(#cpMC4wMHw3ODUuMjB8MC4wMHw1MzguNTg=)'>
</g>
<defs>
  <clipPath id='cpMTQ0Ljc2fDY4MC42N3w0OS40Nnw0OTguNTE='>
    <rect x='144.76' y='49.46' width='535.91' height='449.06' />
  </clipPath>
</defs>
<g clip-path='url(#cpMTQ0Ljc2fDY4MC42N3w0OS40Nnw0OTguNTE=)'>
<polyline points='230.02,498.51 230.02,49.46 ' style='stroke-width: 0.68; stroke: #EBEBEB; stroke-linecap: butt;' />
<polyline points='351.82,498.51 351.82,49.46 ' style='stroke-width: 0.68; stroke: #EBEBEB; stroke-linecap: butt;' />
<polyline points='473.61,498.51 473.61,49.46 ' style='stroke-width: 0.68; stroke: #EBEBEB; stroke-linecap: butt;' />
<polyline points='595.41,498.51 595.41,49.46 ' style='stroke-width: 0.68; stroke: #EBEBEB; stroke-linecap: butt;' />
<polyline points='144.76,273.98 680.67,273.98 ' style='stroke-width: 1.36; stroke: #EBEBEB; stroke-linecap: butt;' />
<polyline points='169.12,498.51 169.12,49.46 ' style='stroke-width: 1.36; stroke: #EBEBEB; stroke-linecap: butt;' />
<polyline points='290.92,498.51 290.92,49.46 ' style='stroke-width: 1.36; stroke: #EBEBEB; stroke-linecap: butt;' />
<polyline points='412.72,498.51 412.72,49.46 ' style='stroke-width: 1.36; stroke: #EBEBEB; stroke-linecap: butt;' />
<polyline points='534.51,498.51 534.51,49.46 ' style='stroke-width: 1.36; stroke: #EBEBEB; stroke-linecap: butt;' />
<polyline points='656.31,498.51 656.31,49.46 ' style='stroke-width: 1.36; stroke: #EBEBEB; stroke-linecap: butt;' />
<circle cx='216.72' cy='240.41' r='5.69' style='stroke-width: 0.71; stroke: #440154; stroke-opacity: 0.50; fill: #440154; fill-opacity: 0.50;' />
<circle cx='556.49' cy='243.95' r='5.69' style='stroke-width: 0.71; stroke: #481769; stroke-opacity: 0.50; fill: #481769; fill-opacity: 0.50;' />
<circle cx='266.83' cy='291.22' r='5.69' style='stroke-width: 0.71; stroke: #472B7A; stroke-opacity: 0.50; fill: #472B7A; fill-opacity: 0.50;' />
<circle cx='557.61' cy='307.52' r='5.69' style='stroke-width: 0.71; stroke: #433E85; stroke-opacity: 0.50; fill: #433E85; fill-opacity: 0.50;' />
<circle cx='560.12' cy='287.51' r='5.69' style='stroke-width: 0.71; stroke: #3C4F8A; stroke-opacity: 0.50; fill: #3C4F8A; fill-opacity: 0.50;' />
<circle cx='459.23' cy='288.47' r='5.69' style='stroke-width: 0.71; stroke: #35608D; stroke-opacity: 0.50; fill: #35608D; fill-opacity: 0.50;' />
<circle cx='459.04' cy='284.27' r='5.69' style='stroke-width: 0.71; stroke: #2E6F8E; stroke-opacity: 0.50; fill: #2E6F8E; fill-opacity: 0.50;' />
<circle cx='182.82' cy='260.05' r='5.69' style='stroke-width: 0.71; stroke: #287D8E; stroke-opacity: 0.50; fill: #287D8E; fill-opacity: 0.50;' />
<circle cx='217.76' cy='247.84' r='5.69' style='stroke-width: 0.71; stroke: #228B8D; stroke-opacity: 0.50; fill: #228B8D; fill-opacity: 0.50;' />
<circle cx='461.63' cy='257.70' r='5.69' style='stroke-width: 0.71; stroke: #1F9A8A; stroke-opacity: 0.50; fill: #1F9A8A; fill-opacity: 0.50;' />
<circle cx='557.43' cy='262.08' r='5.69' style='stroke-width: 0.71; stroke: #22A884; stroke-opacity: 0.50; fill: #22A884; fill-opacity: 0.50;' />
<circle cx='558.79' cy='275.73' r='5.69' style='stroke-width: 0.71; stroke: #33B67A; stroke-opacity: 0.50; fill: #33B67A; fill-opacity: 0.50;' />
<circle cx='461.85' cy='279.83' r='5.69' style='stroke-width: 0.71; stroke: #4DC36B; stroke-opacity: 0.50; fill: #4DC36B; fill-opacity: 0.50;' />
<circle cx='411.37' cy='261.86' r='5.69' style='stroke-width: 0.71; stroke: #6ECE58; stroke-opacity: 0.50; fill: #6ECE58; fill-opacity: 0.50;' />
<circle cx='485.66' cy='281.97' r='5.69' style='stroke-width: 0.71; stroke: #93D741; stroke-opacity: 0.50; fill: #93D741; fill-opacity: 0.50;' />
<circle cx='180.80' cy='254.37' r='5.69' style='stroke-width: 0.71; stroke: #BBDF27; stroke-opacity: 0.50; fill: #BBDF27; fill-opacity: 0.50;' />
<line x1='576.60' y1='263.52' x2='561.37' y2='272.51' style='stroke-width: 1.07; stroke: #433E85; stroke-opacity: 0.50;' />
<line x1='479.18' y1='262.97' x2='463.89' y2='272.46' style='stroke-width: 1.07; stroke: #35608D; stroke-opacity: 0.50;' />
<line x1='443.89' y1='293.20' x2='459.58' y2='276.02' style='stroke-width: 1.07; stroke: #1F9A8A; stroke-opacity: 0.50;' />
<line x1='543.98' y1='290.56' x2='557.03' y2='276.03' style='stroke-width: 1.07; stroke: #22A884; stroke-opacity: 0.50;' />
<line x1='585.22' y1='248.22' x2='560.86' y2='272.04' style='stroke-width: 1.07; stroke: #33B67A; stroke-opacity: 0.50;' />
<text x='224.83' y='270.80' text-anchor='middle' style='font-size: 7.11px; fill: #440154; fill-opacity: 0.50; font-family: Arial;' textLength='3.95px' lengthAdjust='spacingAndGlyphs'>3</text>
<text x='551.71' y='282.72' text-anchor='middle' style='font-size: 7.11px; fill: #481769; fill-opacity: 0.50; font-family: Arial;' textLength='3.95px' lengthAdjust='spacingAndGlyphs'>4</text>
<text x='259.27' y='282.63' text-anchor='middle' style='font-size: 7.11px; fill: #472B7A; fill-opacity: 0.50; font-family: Arial;' textLength='3.95px' lengthAdjust='spacingAndGlyphs'>5</text>
<text x='577.11' y='261.72' text-anchor='middle' style='font-size: 7.11px; fill: #433E85; fill-opacity: 0.50; font-family: Arial;' textLength='3.95px' lengthAdjust='spacingAndGlyphs'>6</text>
<text x='565.81' y='270.69' text-anchor='middle' style='font-size: 7.11px; fill: #3C4F8A; fill-opacity: 0.50; font-family: Arial;' textLength='3.95px' lengthAdjust='spacingAndGlyphs'>7</text>
<text x='479.67' y='261.17' text-anchor='middle' style='font-size: 7.11px; fill: #35608D; fill-opacity: 0.50; font-family: Arial;' textLength='3.95px' lengthAdjust='spacingAndGlyphs'>8</text>
<text x='468.42' y='270.85' text-anchor='middle' style='font-size: 7.11px; fill: #2E6F8E; fill-opacity: 0.50; font-family: Arial;' textLength='3.95px' lengthAdjust='spacingAndGlyphs'>9</text>
<text x='192.66' y='276.67' text-anchor='middle' style='font-size: 7.11px; fill: #287D8E; fill-opacity: 0.50; font-family: Arial;' textLength='7.91px' lengthAdjust='spacingAndGlyphs'>10</text>
<text x='209.20' y='284.03' text-anchor='middle' style='font-size: 7.11px; fill: #228B8D; fill-opacity: 0.50; font-family: Arial;' textLength='7.38px' lengthAdjust='spacingAndGlyphs'>11</text>
<text x='438.14' y='296.34' text-anchor='middle' style='font-size: 7.11px; fill: #1F9A8A; fill-opacity: 0.50; font-family: Arial;' textLength='7.91px' lengthAdjust='spacingAndGlyphs'>12</text>
<text x='538.23' y='293.79' text-anchor='middle' style='font-size: 7.11px; fill: #22A884; fill-opacity: 0.50; font-family: Arial;' textLength='7.91px' lengthAdjust='spacingAndGlyphs'>13</text>
<text x='590.97' y='250.36' text-anchor='middle' style='font-size: 7.11px; fill: #33B67A; fill-opacity: 0.50; font-family: Arial;' textLength='7.91px' lengthAdjust='spacingAndGlyphs'>14</text>
<text x='452.93' y='283.90' text-anchor='middle' style='font-size: 7.11px; fill: #4DC36B; fill-opacity: 0.50; font-family: Arial;' textLength='7.91px' lengthAdjust='spacingAndGlyphs'>15</text>
<text x='421.12' y='269.38' text-anchor='middle' style='font-size: 7.11px; fill: #6ECE58; fill-opacity: 0.50; font-family: Arial;' textLength='7.91px' lengthAdjust='spacingAndGlyphs'>16</text>
<text x='494.22' y='283.75' text-anchor='middle' style='font-size: 7.11px; fill: #93D741; fill-opacity: 0.50; font-family: Arial;' textLength='7.91px' lengthAdjust='spacingAndGlyphs'>17</text>
<text x='169.84' y='276.18' text-anchor='middle' style='font-size: 7.11px; fill: #BBDF27; fill-opacity: 0.50; font-family: Arial;' textLength='7.91px' lengthAdjust='spacingAndGlyphs'>18</text>
<line x1='412.72' y1='423.67' x2='412.72' y2='124.30' style='stroke-width: 4.27; stroke: #000000; stroke-opacity: 0.20; stroke-linecap: butt;' />
<line x1='656.31' y1='423.67' x2='656.31' y2='124.30' style='stroke-width: 4.27; stroke-linecap: butt;' />
</g>
<g clip-path='url(#cpMC4wMHw3ODUuMjB8MC4wMHw1MzguNTg=)'>
<text x='138.48' y='277.99' text-anchor='end' style='font-size: 11.20px; fill: #4D4D4D; font-family: Arial;' textLength='115.06px' lengthAdjust='spacingAndGlyphs'>Environmental damage</text>
<text x='169.12' y='512.80' text-anchor='middle' style='font-size: 11.20px; fill: #4D4D4D; font-family: Arial;' textLength='6.22px' lengthAdjust='spacingAndGlyphs'>0</text>
<text x='290.92' y='512.80' text-anchor='middle' style='font-size: 11.20px; fill: #4D4D4D; font-family: Arial;' textLength='12.44px' lengthAdjust='spacingAndGlyphs'>25</text>
<text x='412.72' y='512.80' text-anchor='middle' style='font-size: 11.20px; fill: #4D4D4D; font-family: Arial;' textLength='12.44px' lengthAdjust='spacingAndGlyphs'>50</text>
<text x='534.51' y='512.80' text-anchor='middle' style='font-size: 11.20px; fill: #4D4D4D; font-family: Arial;' textLength='12.44px' lengthAdjust='spacingAndGlyphs'>75</text>
<text x='656.31' y='512.80' text-anchor='middle' style='font-size: 11.20px; fill: #4D4D4D; font-family: Arial;' textLength='18.66px' lengthAdjust='spacingAndGlyphs'>100</text>
<text x='412.72' y='528.66' text-anchor='middle' style='font-size: 14.00px; font-family: Arial;' textLength='154.81px' lengthAdjust='spacingAndGlyphs'>Environmental protection</text>
<text transform='translate(17.00,273.98) rotate(-90)' text-anchor='middle' style='font-size: 14.00px; font-family: Arial;' textLength='52.88px' lengthAdjust='spacingAndGlyphs'>Criterion</text>
<text x='701.59' y='137.27' style='font-size: 14.00px; font-family: Arial;' textLength='41.22px' lengthAdjust='spacingAndGlyphs'>Scorer</text>
<circle cx='710.23' cy='154.35' r='5.69' style='stroke-width: 0.71; stroke: #440154; stroke-opacity: 0.50; fill: #440154; fill-opacity: 0.50;' />
<text x='710.23' y='156.90' text-anchor='middle' style='font-size: 7.11px; fill: #440154; fill-opacity: 0.50; font-family: Arial;' textLength='3.95px' lengthAdjust='spacingAndGlyphs'>a</text>
<circle cx='710.23' cy='171.63' r='5.69' style='stroke-width: 0.71; stroke: #481769; stroke-opacity: 0.50; fill: #481769; fill-opacity: 0.50;' />
<text x='710.23' y='174.18' text-anchor='middle' style='font-size: 7.11px; fill: #481769; fill-opacity: 0.50; font-family: Arial;' textLength='3.95px' lengthAdjust='spacingAndGlyphs'>a</text>
<circle cx='710.23' cy='188.91' r='5.69' style='stroke-width: 0.71; stroke: #472B7A; stroke-opacity: 0.50; fill: #472B7A; fill-opacity: 0.50;' />
<text x='710.23' y='191.46' text-anchor='middle' style='font-size: 7.11px; fill: #472B7A; fill-opacity: 0.50; font-family: Arial;' textLength='3.95px' lengthAdjust='spacingAndGlyphs'>a</text>
<circle cx='710.23' cy='206.19' r='5.69' style='stroke-width: 0.71; stroke: #433E85; stroke-opacity: 0.50; fill: #433E85; fill-opacity: 0.50;' />
<text x='710.23' y='208.74' text-anchor='middle' style='font-size: 7.11px; fill: #433E85; fill-opacity: 0.50; font-family: Arial;' textLength='3.95px' lengthAdjust='spacingAndGlyphs'>a</text>
<circle cx='710.23' cy='223.47' r='5.69' style='stroke-width: 0.71; stroke: #3C4F8A; stroke-opacity: 0.50; fill: #3C4F8A; fill-opacity: 0.50;' />
<text x='710.23' y='226.02' text-anchor='middle' style='font-size: 7.11px; fill: #3C4F8A; fill-opacity: 0.50; font-family: Arial;' textLength='3.95px' lengthAdjust='spacingAndGlyphs'>a</text>
<circle cx='710.23' cy='240.75' r='5.69' style='stroke-width: 0.71; stroke: #35608D; stroke-opacity: 0.50; fill: #35608D; fill-opacity: 0.50;' />
<text x='710.23' y='243.30' text-anchor='middle' style='font-size: 7.11px; fill: #35608D; fill-opacity: 0.50; font-family: Arial;' textLength='3.95px' lengthAdjust='spacingAndGlyphs'>a</text>
<circle cx='710.23' cy='258.03' r='5.69' style='stroke-width: 0.71; stroke: #2E6F8E; stroke-opacity: 0.50; fill: #2E6F8E; fill-opacity: 0.50;' />
<text x='710.23' y='260.58' text-anchor='middle' style='font-size: 7.11px; fill: #2E6F8E; fill-opacity: 0.50; font-family: Arial;' textLength='3.95px' lengthAdjust='spacingAndGlyphs'>a</text>
<circle cx='710.23' cy='275.31' r='5.69' style='stroke-width: 0.71; stroke: #287D8E; stroke-opacity: 0.50; fill: #287D8E; fill-opacity: 0.50;' />
<text x='710.23' y='277.86' text-anchor='middle' style='font-size: 7.11px; fill: #287D8E; fill-opacity: 0.50; font-family: Arial;' textLength='3.95px' lengthAdjust='spacingAndGlyphs'>a</text>
<circle cx='710.23' cy='292.59' r='5.69' style='stroke-width: 0.71; stroke: #228B8D; stroke-opacity: 0.50; fill: #228B8D; fill-opacity: 0.50;' />
<text x='710.23' y='295.14' text-anchor='middle' style='font-size: 7.11px; fill: #228B8D; fill-opacity: 0.50; font-family: Arial;' textLength='3.95px' lengthAdjust='spacingAndGlyphs'>a</text>
<circle cx='710.23' cy='309.87' r='5.69' style='stroke-width: 0.71; stroke: #1F9A8A; stroke-opacity: 0.50; fill: #1F9A8A; fill-opacity: 0.50;' />
<text x='710.23' y='312.42' text-anchor='middle' style='font-size: 7.11px; fill: #1F9A8A; fill-opacity: 0.50; font-family: Arial;' textLength='3.95px' lengthAdjust='spacingAndGlyphs'>a</text>
<circle cx='710.23' cy='327.15' r='5.69' style='stroke-width: 0.71; stroke: #22A884; stroke-opacity: 0.50; fill: #22A884; fill-opacity: 0.50;' />
<text x='710.23' y='329.70' text-anchor='middle' style='font-size: 7.11px; fill: #22A884; fill-opacity: 0.50; font-family: Arial;' textLength='3.95px' lengthAdjust='spacingAndGlyphs'>a</text>
<circle cx='710.23' cy='344.43' r='5.69' style='stroke-width: 0.71; stroke: #33B67A; stroke-opacity: 0.50; fill: #33B67A; fill-opacity: 0.50;' />
<text x='710.23' y='346.98' text-anchor='middle' style='font-size: 7.11px; fill: #33B67A; fill-opacity: 0.50; font-family: Arial;' textLength='3.95px' lengthAdjust='spacingAndGlyphs'>a</text>
<circle cx='710.23' cy='361.71' r='5.69' style='stroke-width: 0.71; stroke: #4DC36B; stroke-opacity: 0.50; fill: #4DC36B; fill-opacity: 0.50;' />
<text x='710.23' y='364.26' text-anchor='middle' style='font-size: 7.11px; fill: #4DC36B; fill-opacity: 0.50; font-family: Arial;' textLength='3.95px' lengthAdjust='spacingAndGlyphs'>a</text>
<circle cx='710.23' cy='378.99' r='5.69' style='stroke-width: 0.71; stroke: #6ECE58; stroke-opacity: 0.50; fill: #6ECE58; fill-opacity: 0.50;' />
<text x='710.23' y='381.54' text-anchor='middle' style='font-size: 7.11px; fill: #6ECE58; fill-opacity: 0.50; font-family: Arial;' textLength='3.95px' lengthAdjust='spacingAndGlyphs'>a</text>
<circle cx='710.23' cy='396.27' r='5.69' style='stroke-width: 0.71; stroke: #93D741; stroke-opacity: 0.50; fill: #93D741; fill-opacity: 0.50;' />
<text x='710.23' y='398.82' text-anchor='middle' style='font-size: 7.11px; fill: #93D741; fill-opacity: 0.50; font-family: Arial;' textLength='3.95px' lengthAdjust='spacingAndGlyphs'>a</text>
<circle cx='710.23' cy='413.55' r='5.69' style='stroke-width: 0.71; stroke: #BBDF27; stroke-opacity: 0.50; fill: #BBDF27; fill-opacity: 0.50;' />
<text x='710.23' y='416.10' text-anchor='middle' style='font-size: 7.11px; fill: #BBDF27; fill-opacity: 0.50; font-family: Arial;' textLength='3.95px' lengthAdjust='spacingAndGlyphs'>a</text>
<text x='725.85' y='158.36' style='font-size: 11.20px; font-family: Arial;' textLength='39.18px' lengthAdjust='spacingAndGlyphs'>Scorer3</text>
<text x='725.85' y='175.64' style='font-size: 11.20px; font-family: Arial;' textLength='39.18px' lengthAdjust='spacingAndGlyphs'>Scorer4</text>
<text x='725.85' y='192.92' style='font-size: 11.20px; font-family: Arial;' textLength='39.18px' lengthAdjust='spacingAndGlyphs'>Scorer5</text>
<text x='725.85' y='210.20' style='font-size: 11.20px; font-family: Arial;' textLength='39.18px' lengthAdjust='spacingAndGlyphs'>Scorer6</text>
<text x='725.85' y='227.48' style='font-size: 11.20px; font-family: Arial;' textLength='39.18px' lengthAdjust='spacingAndGlyphs'>Scorer7</text>
<text x='725.85' y='244.76' style='font-size: 11.20px; font-family: Arial;' textLength='39.18px' lengthAdjust='spacingAndGlyphs'>Scorer8</text>
<text x='725.85' y='262.04' style='font-size: 11.20px; font-family: Arial;' textLength='39.18px' lengthAdjust='spacingAndGlyphs'>Scorer9</text>
<text x='725.85' y='279.32' style='font-size: 11.20px; font-family: Arial;' textLength='45.40px' lengthAdjust='spacingAndGlyphs'>Scorer10</text>
<text x='725.85' y='296.60' style='font-size: 11.20px; font-family: Arial;' textLength='44.58px' lengthAdjust='spacingAndGlyphs'>Scorer11</text>
<text x='725.85' y='313.88' style='font-size: 11.20px; font-family: Arial;' textLength='45.40px' lengthAdjust='spacingAndGlyphs'>Scorer12</text>
<text x='725.85' y='331.16' style='font-size: 11.20px; font-family: Arial;' textLength='45.40px' lengthAdjust='spacingAndGlyphs'>Scorer13</text>
<text x='725.85' y='348.44' style='font-size: 11.20px; font-family: Arial;' textLength='45.40px' lengthAdjust='spacingAndGlyphs'>Scorer14</text>
<text x='725.85' y='365.72' style='font-size: 11.20px; font-family: Arial;' textLength='45.40px' lengthAdjust='spacingAndGlyphs'>Scorer15</text>
<text x='725.85' y='383.00' style='font-size: 11.20px; font-family: Arial;' textLength='45.40px' lengthAdjust='spacingAndGlyphs'>Scorer16</text>
<text x='725.85' y='400.28' style='font-size: 11.20px; font-family: Arial;' textLength='45.40px' lengthAdjust='spacingAndGlyphs'>Scorer17</text>
<text x='725.85' y='417.56' style='font-size: 11.20px; font-family: Arial;' textLength='45.40px' lengthAdjust='spacingAndGlyphs'>Scorer18</text>
<text x='144.76' y='39.54' style='font-size: 14.00px; font-family: Arial;' textLength='336.81px' lengthAdjust='spacingAndGlyphs'>Grey lines are means; black lines are rescaled means.</text>
<text x='144.76' y='19.01' style='font-size: 16.80px; font-family: Arial;' textLength='467.81px' lengthAdjust='spacingAndGlyphs'>Scorer weight plot for criterion cluster Environmental protection</text>
</g>
</svg>
