<?xml version='1.0' encoding='UTF-8' ?>
<svg xmlns='http://www.w3.org/2000/svg' xmlns:xlink='http://www.w3.org/1999/xlink' class='svglite' width='785.20pt' height='538.58pt' viewBox='0 0 785.20 538.58'>
<defs>
  <style type='text/css'><![CDATA[
    .svglite line, .svglite polyline, .svglite polygon, .svglite path, .svglite rect, .svglite circle {
      fill: none;
      stroke: #000000;
      stroke-linecap: round;
      stroke-linejoin: round;
      stroke-miterlimit: 10.00;
    }
  ]]></style>
</defs>
<rect width='100%' height='100%' style='stroke: none; fill: none;'/>
<defs>
  <clipPath id='cpMC4wMHw3ODUuMjB8MC4wMHw1MzguNTg='>
    <rect x='0.00' y='0.00' width='785.20' height='538.58' />
  </clipPath>
</defs>
<g clip-path='url(#cpMC4wMHw3ODUuMjB8MC4wMHw1MzguNTg=)'>
</g>
<defs>
  <clipPath id='cpNjQuNTR8NTkzLjE3fDI5LjUxfDQ5OC41MQ=='>
    <rect x='64.54' y='29.51' width='528.63' height='469.00' />
  </clipPath>
</defs>
<g clip-path='url(#cpNjQuNTR8NTkzLjE3fDI5LjUxfDQ5OC41MQ==)'>
<polyline points='64.54,361.90 593.17,361.90 ' style='stroke-width: 0.68; stroke: #EBEBEB; stroke-linecap: butt;' />
<polyline points='64.54,208.46 593.17,208.46 ' style='stroke-width: 0.68; stroke: #EBEBEB; stroke-linecap: butt;' />
<polyline points='64.54,55.02 593.17,55.02 ' style='stroke-width: 0.68; stroke: #EBEBEB; stroke-linecap: butt;' />
<polyline points='64.54,438.62 593.17,438.62 ' style='stroke-width: 1.36; stroke: #EBEBEB; stroke-linecap: butt;' />
<polyline points='64.54,285.18 593.17,285.18 ' style='stroke-width: 1.36; stroke: #EBEBEB; stroke-linecap: butt;' />
<polyline points='64.54,131.74 593.17,131.74 ' style='stroke-width: 1.36; stroke: #EBEBEB; stroke-linecap: butt;' />
<polyline points='92.86,498.51 92.86,29.51 ' style='stroke-width: 1.36; stroke: #EBEBEB; stroke-linecap: butt;' />
<polyline points='140.06,498.51 140.06,29.51 ' style='stroke-width: 1.36; stroke: #EBEBEB; stroke-linecap: butt;' />
<polyline points='187.26,498.51 187.26,29.51 ' style='stroke-width: 1.36; stroke: #EBEBEB; stroke-linecap: butt;' />
<polyline points='234.46,498.51 234.46,29.51 ' style='stroke-width: 1.36; stroke: #EBEBEB; stroke-linecap: butt;' />
<polyline points='281.65,498.51 281.65,29.51 ' style='stroke-width: 1.36; stroke: #EBEBEB; stroke-linecap: butt;' />
<polyline points='328.85,498.51 328.85,29.51 ' style='stroke-width: 1.36; stroke: #EBEBEB; stroke-linecap: butt;' />
<polyline points='376.05,498.51 376.05,29.51 ' style='stroke-width: 1.36; stroke: #EBEBEB; stroke-linecap: butt;' />
<polyline points='423.25,498.51 423.25,29.51 ' style='stroke-width: 1.36; stroke: #EBEBEB; stroke-linecap: butt;' />
<polyline points='470.45,498.51 470.45,29.51 ' style='stroke-width: 1.36; stroke: #EBEBEB; stroke-linecap: butt;' />
<polyline points='517.65,498.51 517.65,29.51 ' style='stroke-width: 1.36; stroke: #EBEBEB; stroke-linecap: butt;' />
<polyline points='564.85,498.51 564.85,29.51 ' style='stroke-width: 1.36; stroke: #EBEBEB; stroke-linecap: butt;' />
<polyline points='92.86,81.57 140.06,80.33 187.26,78.92 234.46,77.29 281.65,75.39 328.85,73.15 376.05,70.47 423.25,67.18 470.45,63.09 517.65,57.83 564.85,50.83 ' style='stroke-width: 2.13; stroke: #440154; stroke-linecap: butt;' />
<polyline points='92.86,90.32 140.06,88.79 187.26,87.04 234.46,85.02 281.65,82.67 328.85,79.89 376.05,76.55 423.25,72.49 470.45,67.41 517.65,60.89 564.85,52.21 ' style='stroke-width: 2.13; stroke: #463480; stroke-linecap: butt;' />
<polyline points='92.86,120.68 140.06,120.49 187.26,120.26 234.46,120.01 281.65,119.71 328.85,119.35 376.05,118.93 423.25,118.41 470.45,117.76 517.65,116.93 564.85,115.83 ' style='stroke-width: 2.13; stroke: #35608D; stroke-linecap: butt;' />
<polyline points='92.86,200.36 140.06,200.76 187.26,201.22 234.46,201.75 281.65,202.36 328.85,203.08 376.05,203.95 423.25,205.01 470.45,206.33 517.65,208.03 564.85,210.29 ' style='stroke-width: 2.13; stroke: #25848E; stroke-linecap: butt;' />
<polyline points='92.86,319.61 140.06,321.30 187.26,323.23 234.46,325.46 281.65,328.05 328.85,331.12 376.05,334.80 423.25,339.29 470.45,344.89 517.65,352.08 564.85,361.65 ' style='stroke-width: 2.13; stroke: #22A884; stroke-linecap: butt;' />
<polyline points='92.86,327.81 140.06,331.18 187.26,335.04 234.46,339.48 281.65,344.65 328.85,350.77 376.05,358.10 423.25,367.05 470.45,378.23 517.65,392.57 564.85,411.65 ' style='stroke-width: 2.13; stroke: #5DC863; stroke-linecap: butt;' />
<polyline points='92.86,396.46 140.06,399.71 187.26,403.41 234.46,407.69 281.65,412.68 328.85,418.57 376.05,425.63 423.25,434.25 470.45,445.01 517.65,458.82 564.85,477.19 ' style='stroke-width: 2.13; stroke: #BBDF27; stroke-linecap: butt;' />
</g>
<g clip-path='url(#cpMC4wMHw3ODUuMjB8MC4wMHw1MzguNTg=)'>
<text x='58.26' y='442.63' text-anchor='end' style='font-size: 11.20px; fill: #4D4D4D; font-family: Arial;' textLength='34.83px' lengthAdjust='spacingAndGlyphs'>-10000</text>
<text x='58.26' y='289.19' text-anchor='end' style='font-size: 11.20px; fill: #4D4D4D; font-family: Arial;' textLength='6.22px' lengthAdjust='spacingAndGlyphs'>0</text>
<text x='58.26' y='135.75' text-anchor='end' style='font-size: 11.20px; fill: #4D4D4D; font-family: Arial;' textLength='31.10px' lengthAdjust='spacingAndGlyphs'>10000</text>
<text x='92.86' y='512.80' text-anchor='middle' style='font-size: 11.20px; fill: #4D4D4D; font-family: Arial;' textLength='6.22px' lengthAdjust='spacingAndGlyphs'>1</text>
<text x='140.06' y='512.80' text-anchor='middle' style='font-size: 11.20px; fill: #4D4D4D; font-family: Arial;' textLength='15.55px' lengthAdjust='spacingAndGlyphs'>0.9</text>
<text x='187.26' y='512.80' text-anchor='middle' style='font-size: 11.20px; fill: #4D4D4D; font-family: Arial;' textLength='15.55px' lengthAdjust='spacingAndGlyphs'>0.8</text>
<text x='234.46' y='512.80' text-anchor='middle' style='font-size: 11.20px; fill: #4D4D4D; font-family: Arial;' textLength='15.55px' lengthAdjust='spacingAndGlyphs'>0.7</text>
<text x='281.65' y='512.80' text-anchor='middle' style='font-size: 11.20px; fill: #4D4D4D; font-family: Arial;' textLength='15.55px' lengthAdjust='spacingAndGlyphs'>0.6</text>
<text x='328.85' y='512.80' text-anchor='middle' style='font-size: 11.20px; fill: #4D4D4D; font-family: Arial;' textLength='15.55px' lengthAdjust='spacingAndGlyphs'>0.5</text>
<text x='376.05' y='512.80' text-anchor='middle' style='font-size: 11.20px; fill: #4D4D4D; font-family: Arial;' textLength='15.55px' lengthAdjust='spacingAndGlyphs'>0.4</text>
<text x='423.25' y='512.80' text-anchor='middle' style='font-size: 11.20px; fill: #4D4D4D; font-family: Arial;' textLength='15.55px' lengthAdjust='spacingAndGlyphs'>0.3</text>
<text x='470.45' y='512.80' text-anchor='middle' style='font-size: 11.20px; fill: #4D4D4D; font-family: Arial;' textLength='15.55px' lengthAdjust='spacingAndGlyphs'>0.2</text>
<text x='517.65' y='512.80' text-anchor='middle' style='font-size: 11.20px; fill: #4D4D4D; font-family: Arial;' textLength='15.55px' lengthAdjust='spacingAndGlyphs'>0.1</text>
<text x='564.85' y='512.80' text-anchor='middle' style='font-size: 11.20px; fill: #4D4D4D; font-family: Arial;' textLength='6.22px' lengthAdjust='spacingAndGlyphs'>0</text>
<text x='328.85' y='528.66' text-anchor='middle' style='font-size: 14.00px; font-family: Arial;' textLength='290.12px' lengthAdjust='spacingAndGlyphs'>Multiplier of weights of all other criteria clusters</text>
<text transform='translate(17.00,264.01) rotate(-90)' text-anchor='middle' style='font-size: 14.00px; font-family: Arial;' textLength='43.56px' lengthAdjust='spacingAndGlyphs'>Scores</text>
<text x='614.09' y='205.06' style='font-size: 14.00px; font-family: Arial;' textLength='38.12px' lengthAdjust='spacingAndGlyphs'>Model</text>
<line x1='615.82' y1='222.14' x2='629.64' y2='222.14' style='stroke-width: 2.13; stroke: #440154; stroke-linecap: butt;' />
<line x1='615.82' y1='239.42' x2='629.64' y2='239.42' style='stroke-width: 2.13; stroke: #463480; stroke-linecap: butt;' />
<line x1='615.82' y1='256.70' x2='629.64' y2='256.70' style='stroke-width: 2.13; stroke: #35608D; stroke-linecap: butt;' />
<line x1='615.82' y1='273.98' x2='629.64' y2='273.98' style='stroke-width: 2.13; stroke: #25848E; stroke-linecap: butt;' />
<line x1='615.82' y1='291.26' x2='629.64' y2='291.26' style='stroke-width: 2.13; stroke: #22A884; stroke-linecap: butt;' />
<line x1='615.82' y1='308.54' x2='629.64' y2='308.54' style='stroke-width: 2.13; stroke: #5DC863; stroke-linecap: butt;' />
<line x1='615.82' y1='325.82' x2='629.64' y2='325.82' style='stroke-width: 2.13; stroke: #BBDF27; stroke-linecap: butt;' />
<text x='638.34' y='226.15' style='font-size: 11.20px; font-family: Arial;' textLength='118.14px' lengthAdjust='spacingAndGlyphs'>Highest possible scores</text>
<text x='638.34' y='243.43' style='font-size: 11.20px; font-family: Arial;' textLength='70.91px' lengthAdjust='spacingAndGlyphs'>X-Shop model</text>
<text x='638.34' y='260.71' style='font-size: 11.20px; font-family: Arial;' textLength='132.90px' lengthAdjust='spacingAndGlyphs'>Adapted coffeeshop model</text>
<text x='638.34' y='277.99' style='font-size: 11.20px; font-family: Arial;' textLength='90.60px' lengthAdjust='spacingAndGlyphs'>Coffeeshop model</text>
<text x='638.34' y='295.27' style='font-size: 11.20px; font-family: Arial;' textLength='93.90px' lengthAdjust='spacingAndGlyphs'>Free market model</text>
<text x='638.34' y='312.55' style='font-size: 11.20px; font-family: Arial;' textLength='90.17px' lengthAdjust='spacingAndGlyphs'>Repression model</text>
<text x='638.34' y='329.83' style='font-size: 11.20px; font-family: Arial;' textLength='115.66px' lengthAdjust='spacingAndGlyphs'>Lowest possible scores</text>
<text x='64.54' y='19.01' style='font-size: 16.80px; font-family: Arial;' textLength='449.15px' lengthAdjust='spacingAndGlyphs'>Sensitivity analysis (weight-based) score plot for User health</text>
</g>
</svg>
