<?xml version='1.0' encoding='UTF-8' ?>
<svg xmlns='http://www.w3.org/2000/svg' xmlns:xlink='http://www.w3.org/1999/xlink' class='svglite' width='785.20pt' height='538.58pt' viewBox='0 0 785.20 538.58'>
<defs>
  <style type='text/css'><![CDATA[
    .svglite line, .svglite polyline, .svglite polygon, .svglite path, .svglite rect, .svglite circle {
      fill: none;
      stroke: #000000;
      stroke-linecap: round;
      stroke-linejoin: round;
      stroke-miterlimit: 10.00;
    }
  ]]></style>
</defs>
<rect width='100%' height='100%' style='stroke: none; fill: none;'/>
<defs>
  <clipPath id='cpMC4wMHw3ODUuMjB8MC4wMHw1MzguNTg='>
    <rect x='0.00' y='0.00' width='785.20' height='538.58' />
  </clipPath>
</defs>
<g clip-path='url(#cpMC4wMHw3ODUuMjB8MC4wMHw1MzguNTg=)'>
</g>
<defs>
  <clipPath id='cpNTguNzJ8NTkzLjE3fDI5LjUxfDQ5OC41MQ=='>
    <rect x='58.72' y='29.51' width='534.45' height='469.00' />
  </clipPath>
</defs>
<g clip-path='url(#cpNTguNzJ8NTkzLjE3fDI5LjUxfDQ5OC41MQ==)'>
<polyline points='58.72,441.66 593.17,441.66 ' style='stroke-width: 0.68; stroke: #EBEBEB; stroke-linecap: butt;' />
<polyline points='58.72,370.60 593.17,370.60 ' style='stroke-width: 0.68; stroke: #EBEBEB; stroke-linecap: butt;' />
<polyline points='58.72,299.54 593.17,299.54 ' style='stroke-width: 0.68; stroke: #EBEBEB; stroke-linecap: butt;' />
<polyline points='58.72,228.48 593.17,228.48 ' style='stroke-width: 0.68; stroke: #EBEBEB; stroke-linecap: butt;' />
<polyline points='58.72,157.42 593.17,157.42 ' style='stroke-width: 0.68; stroke: #EBEBEB; stroke-linecap: butt;' />
<polyline points='58.72,86.36 593.17,86.36 ' style='stroke-width: 0.68; stroke: #EBEBEB; stroke-linecap: butt;' />
<polyline points='58.72,477.19 593.17,477.19 ' style='stroke-width: 1.36; stroke: #EBEBEB; stroke-linecap: butt;' />
<polyline points='58.72,406.13 593.17,406.13 ' style='stroke-width: 1.36; stroke: #EBEBEB; stroke-linecap: butt;' />
<polyline points='58.72,335.07 593.17,335.07 ' style='stroke-width: 1.36; stroke: #EBEBEB; stroke-linecap: butt;' />
<polyline points='58.72,264.01 593.17,264.01 ' style='stroke-width: 1.36; stroke: #EBEBEB; stroke-linecap: butt;' />
<polyline points='58.72,192.95 593.17,192.95 ' style='stroke-width: 1.36; stroke: #EBEBEB; stroke-linecap: butt;' />
<polyline points='58.72,121.89 593.17,121.89 ' style='stroke-width: 1.36; stroke: #EBEBEB; stroke-linecap: butt;' />
<polyline points='58.72,50.83 593.17,50.83 ' style='stroke-width: 1.36; stroke: #EBEBEB; stroke-linecap: butt;' />
<polyline points='87.35,498.51 87.35,29.51 ' style='stroke-width: 1.36; stroke: #EBEBEB; stroke-linecap: butt;' />
<polyline points='135.07,498.51 135.07,29.51 ' style='stroke-width: 1.36; stroke: #EBEBEB; stroke-linecap: butt;' />
<polyline points='182.79,498.51 182.79,29.51 ' style='stroke-width: 1.36; stroke: #EBEBEB; stroke-linecap: butt;' />
<polyline points='230.51,498.51 230.51,29.51 ' style='stroke-width: 1.36; stroke: #EBEBEB; stroke-linecap: butt;' />
<polyline points='278.23,498.51 278.23,29.51 ' style='stroke-width: 1.36; stroke: #EBEBEB; stroke-linecap: butt;' />
<polyline points='325.94,498.51 325.94,29.51 ' style='stroke-width: 1.36; stroke: #EBEBEB; stroke-linecap: butt;' />
<polyline points='373.66,498.51 373.66,29.51 ' style='stroke-width: 1.36; stroke: #EBEBEB; stroke-linecap: butt;' />
<polyline points='421.38,498.51 421.38,29.51 ' style='stroke-width: 1.36; stroke: #EBEBEB; stroke-linecap: butt;' />
<polyline points='469.10,498.51 469.10,29.51 ' style='stroke-width: 1.36; stroke: #EBEBEB; stroke-linecap: butt;' />
<polyline points='516.82,498.51 516.82,29.51 ' style='stroke-width: 1.36; stroke: #EBEBEB; stroke-linecap: butt;' />
<polyline points='564.54,498.51 564.54,29.51 ' style='stroke-width: 1.36; stroke: #EBEBEB; stroke-linecap: butt;' />
<polyline points='87.35,50.83 135.07,50.83 182.79,50.83 230.51,50.83 278.23,50.83 325.94,50.83 373.66,50.83 421.38,50.83 469.10,50.83 516.82,50.83 564.54,50.83 ' style='stroke-width: 2.13; stroke: #440154; stroke-linecap: butt;' />
<polyline points='87.35,121.89 135.07,121.89 182.79,121.89 230.51,121.89 278.23,121.89 325.94,121.89 373.66,121.89 421.38,121.89 469.10,121.89 516.82,121.89 564.54,121.89 ' style='stroke-width: 2.13; stroke: #463480; stroke-linecap: butt;' />
<polyline points='87.35,192.95 135.07,192.95 182.79,192.95 230.51,192.95 278.23,192.95 325.94,192.95 373.66,192.95 421.38,192.95 469.10,192.95 516.82,192.95 564.54,192.95 ' style='stroke-width: 2.13; stroke: #35608D; stroke-linecap: butt;' />
<polyline points='87.35,264.01 135.07,264.01 182.79,264.01 230.51,264.01 278.23,264.01 325.94,264.01 373.66,264.01 421.38,264.01 469.10,264.01 516.82,264.01 564.54,264.01 ' style='stroke-width: 2.13; stroke: #25848E; stroke-linecap: butt;' />
<polyline points='87.35,335.07 135.07,335.07 182.79,335.07 230.51,335.07 278.23,335.07 325.94,335.07 373.66,335.07 421.38,335.07 469.10,335.07 516.82,335.07 564.54,335.07 ' style='stroke-width: 2.13; stroke: #22A884; stroke-linecap: butt;' />
<polyline points='87.35,406.13 135.07,406.13 182.79,406.13 230.51,406.13 278.23,406.13 325.94,406.13 373.66,406.13 421.38,406.13 469.10,406.13 516.82,406.13 564.54,406.13 ' style='stroke-width: 2.13; stroke: #5DC863; stroke-linecap: butt;' />
<polyline points='87.35,477.19 135.07,477.19 182.79,477.19 230.51,477.19 278.23,477.19 325.94,477.19 373.66,477.19 421.38,477.19 469.10,477.19 516.82,477.19 564.54,477.19 ' style='stroke-width: 2.13; stroke: #BBDF27; stroke-linecap: butt;' />
</g>
<g clip-path='url(#cpMC4wMHw3ODUuMjB8MC4wMHw1MzguNTg=)'>
<text x='52.44' y='481.20' text-anchor='end' style='font-size: 11.20px; fill: #4D4D4D; font-family: Arial;' textLength='29.02px' lengthAdjust='spacingAndGlyphs'>Worst</text>
<text x='52.44' y='54.84' text-anchor='end' style='font-size: 11.20px; fill: #4D4D4D; font-family: Arial;' textLength='22.39px' lengthAdjust='spacingAndGlyphs'>Best</text>
<text x='87.35' y='512.80' text-anchor='middle' style='font-size: 11.20px; fill: #4D4D4D; font-family: Arial;' textLength='6.22px' lengthAdjust='spacingAndGlyphs'>1</text>
<text x='135.07' y='512.80' text-anchor='middle' style='font-size: 11.20px; fill: #4D4D4D; font-family: Arial;' textLength='15.55px' lengthAdjust='spacingAndGlyphs'>0.9</text>
<text x='182.79' y='512.80' text-anchor='middle' style='font-size: 11.20px; fill: #4D4D4D; font-family: Arial;' textLength='15.55px' lengthAdjust='spacingAndGlyphs'>0.8</text>
<text x='230.51' y='512.80' text-anchor='middle' style='font-size: 11.20px; fill: #4D4D4D; font-family: Arial;' textLength='15.55px' lengthAdjust='spacingAndGlyphs'>0.7</text>
<text x='278.23' y='512.80' text-anchor='middle' style='font-size: 11.20px; fill: #4D4D4D; font-family: Arial;' textLength='15.55px' lengthAdjust='spacingAndGlyphs'>0.6</text>
<text x='325.94' y='512.80' text-anchor='middle' style='font-size: 11.20px; fill: #4D4D4D; font-family: Arial;' textLength='15.55px' lengthAdjust='spacingAndGlyphs'>0.5</text>
<text x='373.66' y='512.80' text-anchor='middle' style='font-size: 11.20px; fill: #4D4D4D; font-family: Arial;' textLength='15.55px' lengthAdjust='spacingAndGlyphs'>0.4</text>
<text x='421.38' y='512.80' text-anchor='middle' style='font-size: 11.20px; fill: #4D4D4D; font-family: Arial;' textLength='15.55px' lengthAdjust='spacingAndGlyphs'>0.3</text>
<text x='469.10' y='512.80' text-anchor='middle' style='font-size: 11.20px; fill: #4D4D4D; font-family: Arial;' textLength='15.55px' lengthAdjust='spacingAndGlyphs'>0.2</text>
<text x='516.82' y='512.80' text-anchor='middle' style='font-size: 11.20px; fill: #4D4D4D; font-family: Arial;' textLength='15.55px' lengthAdjust='spacingAndGlyphs'>0.1</text>
<text x='564.54' y='512.80' text-anchor='middle' style='font-size: 11.20px; fill: #4D4D4D; font-family: Arial;' textLength='6.22px' lengthAdjust='spacingAndGlyphs'>0</text>
<text x='325.94' y='528.66' text-anchor='middle' style='font-size: 14.00px; font-family: Arial;' textLength='290.12px' lengthAdjust='spacingAndGlyphs'>Multiplier of weights of all other criteria clusters</text>
<text transform='translate(17.00,264.01) rotate(-90)' text-anchor='middle' style='font-size: 14.00px; font-family: Arial;' textLength='39.67px' lengthAdjust='spacingAndGlyphs'>Ranks</text>
<text x='614.09' y='205.06' style='font-size: 14.00px; font-family: Arial;' textLength='38.12px' lengthAdjust='spacingAndGlyphs'>Model</text>
<line x1='615.82' y1='222.14' x2='629.64' y2='222.14' style='stroke-width: 2.13; stroke: #440154; stroke-linecap: butt;' />
<line x1='615.82' y1='239.42' x2='629.64' y2='239.42' style='stroke-width: 2.13; stroke: #463480; stroke-linecap: butt;' />
<line x1='615.82' y1='256.70' x2='629.64' y2='256.70' style='stroke-width: 2.13; stroke: #35608D; stroke-linecap: butt;' />
<line x1='615.82' y1='273.98' x2='629.64' y2='273.98' style='stroke-width: 2.13; stroke: #25848E; stroke-linecap: butt;' />
<line x1='615.82' y1='291.26' x2='629.64' y2='291.26' style='stroke-width: 2.13; stroke: #22A884; stroke-linecap: butt;' />
<line x1='615.82' y1='308.54' x2='629.64' y2='308.54' style='stroke-width: 2.13; stroke: #5DC863; stroke-linecap: butt;' />
<line x1='615.82' y1='325.82' x2='629.64' y2='325.82' style='stroke-width: 2.13; stroke: #BBDF27; stroke-linecap: butt;' />
<text x='638.34' y='226.15' style='font-size: 11.20px; font-family: Arial;' textLength='118.14px' lengthAdjust='spacingAndGlyphs'>Highest possible scores</text>
<text x='638.34' y='243.43' style='font-size: 11.20px; font-family: Arial;' textLength='70.91px' lengthAdjust='spacingAndGlyphs'>X-Shop model</text>
<text x='638.34' y='260.71' style='font-size: 11.20px; font-family: Arial;' textLength='132.90px' lengthAdjust='spacingAndGlyphs'>Adapted coffeeshop model</text>
<text x='638.34' y='277.99' style='font-size: 11.20px; font-family: Arial;' textLength='90.60px' lengthAdjust='spacingAndGlyphs'>Coffeeshop model</text>
<text x='638.34' y='295.27' style='font-size: 11.20px; font-family: Arial;' textLength='93.90px' lengthAdjust='spacingAndGlyphs'>Free market model</text>
<text x='638.34' y='312.55' style='font-size: 11.20px; font-family: Arial;' textLength='90.17px' lengthAdjust='spacingAndGlyphs'>Repression model</text>
<text x='638.34' y='329.83' style='font-size: 11.20px; font-family: Arial;' textLength='115.66px' lengthAdjust='spacingAndGlyphs'>Lowest possible scores</text>
<text x='58.72' y='19.01' style='font-size: 16.80px; font-family: Arial;' textLength='440.75px' lengthAdjust='spacingAndGlyphs'>Sensitivity analysis (weight-based) rank plot for User health</text>
</g>
</svg>
